(module "Pin_Header_Straight_1x139_PITCH_2.54_SMT" (layer F.Cu) (tedit 54E7ACBD)
(fp_text reference REF** (at 0 4) (layer F.SilkS)
  (effects (font (size 1.5 1.5) (thickness 0.15)))
)
(fp_text value "Pin_Header_Straight_1x139_PITCH_2.54_SMT" (at 0 -4) (layer F.Fab)
  (effects (font (size 1.5 1.5) (thickness 0.15)))
)
(pad 1 smd rect (at -175.26000000000002 -1.42875) (size 1.27 3.81) (layers F.Cu F.Paste F.Mask))
(pad 2 smd rect (at -172.72000000000003 1.42875) (size 1.27 3.81) (layers F.Cu F.Paste F.Mask))
(pad 3 smd rect (at -170.18000000000004 -1.42875) (size 1.27 3.81) (layers F.Cu F.Paste F.Mask))
(pad 4 smd rect (at -167.64000000000004 1.42875) (size 1.27 3.81) (layers F.Cu F.Paste F.Mask))
(pad 5 smd rect (at -165.10000000000005 -1.42875) (size 1.27 3.81) (layers F.Cu F.Paste F.Mask))
(pad 6 smd rect (at -162.56000000000006 1.42875) (size 1.27 3.81) (layers F.Cu F.Paste F.Mask))
(pad 7 smd rect (at -160.02000000000007 -1.42875) (size 1.27 3.81) (layers F.Cu F.Paste F.Mask))
(pad 8 smd rect (at -157.48000000000008 1.42875) (size 1.27 3.81) (layers F.Cu F.Paste F.Mask))
(pad 9 smd rect (at -154.94000000000008 -1.42875) (size 1.27 3.81) (layers F.Cu F.Paste F.Mask))
(pad 10 smd rect (at -152.4000000000001 1.42875) (size 1.27 3.81) (layers F.Cu F.Paste F.Mask))
(pad 11 smd rect (at -149.8600000000001 -1.42875) (size 1.27 3.81) (layers F.Cu F.Paste F.Mask))
(pad 12 smd rect (at -147.3200000000001 1.42875) (size 1.27 3.81) (layers F.Cu F.Paste F.Mask))
(pad 13 smd rect (at -144.78000000000011 -1.42875) (size 1.27 3.81) (layers F.Cu F.Paste F.Mask))
(pad 14 smd rect (at -142.24000000000012 1.42875) (size 1.27 3.81) (layers F.Cu F.Paste F.Mask))
(pad 15 smd rect (at -139.70000000000013 -1.42875) (size 1.27 3.81) (layers F.Cu F.Paste F.Mask))
(pad 16 smd rect (at -137.16000000000014 1.42875) (size 1.27 3.81) (layers F.Cu F.Paste F.Mask))
(pad 17 smd rect (at -134.62000000000015 -1.42875) (size 1.27 3.81) (layers F.Cu F.Paste F.Mask))
(pad 18 smd rect (at -132.08000000000015 1.42875) (size 1.27 3.81) (layers F.Cu F.Paste F.Mask))
(pad 19 smd rect (at -129.54000000000016 -1.42875) (size 1.27 3.81) (layers F.Cu F.Paste F.Mask))
(pad 20 smd rect (at -127.00000000000016 1.42875) (size 1.27 3.81) (layers F.Cu F.Paste F.Mask))
(pad 21 smd rect (at -124.46000000000015 -1.42875) (size 1.27 3.81) (layers F.Cu F.Paste F.Mask))
(pad 22 smd rect (at -121.92000000000014 1.42875) (size 1.27 3.81) (layers F.Cu F.Paste F.Mask))
(pad 23 smd rect (at -119.38000000000014 -1.42875) (size 1.27 3.81) (layers F.Cu F.Paste F.Mask))
(pad 24 smd rect (at -116.84000000000013 1.42875) (size 1.27 3.81) (layers F.Cu F.Paste F.Mask))
(pad 25 smd rect (at -114.30000000000013 -1.42875) (size 1.27 3.81) (layers F.Cu F.Paste F.Mask))
(pad 26 smd rect (at -111.76000000000012 1.42875) (size 1.27 3.81) (layers F.Cu F.Paste F.Mask))
(pad 27 smd rect (at -109.22000000000011 -1.42875) (size 1.27 3.81) (layers F.Cu F.Paste F.Mask))
(pad 28 smd rect (at -106.6800000000001 1.42875) (size 1.27 3.81) (layers F.Cu F.Paste F.Mask))
(pad 29 smd rect (at -104.1400000000001 -1.42875) (size 1.27 3.81) (layers F.Cu F.Paste F.Mask))
(pad 30 smd rect (at -101.6000000000001 1.42875) (size 1.27 3.81) (layers F.Cu F.Paste F.Mask))
(pad 31 smd rect (at -99.06000000000009 -1.42875) (size 1.27 3.81) (layers F.Cu F.Paste F.Mask))
(pad 32 smd rect (at -96.52000000000008 1.42875) (size 1.27 3.81) (layers F.Cu F.Paste F.Mask))
(pad 33 smd rect (at -93.98000000000008 -1.42875) (size 1.27 3.81) (layers F.Cu F.Paste F.Mask))
(pad 34 smd rect (at -91.44000000000007 1.42875) (size 1.27 3.81) (layers F.Cu F.Paste F.Mask))
(pad 35 smd rect (at -88.90000000000006 -1.42875) (size 1.27 3.81) (layers F.Cu F.Paste F.Mask))
(pad 36 smd rect (at -86.36000000000006 1.42875) (size 1.27 3.81) (layers F.Cu F.Paste F.Mask))
(pad 37 smd rect (at -83.82000000000005 -1.42875) (size 1.27 3.81) (layers F.Cu F.Paste F.Mask))
(pad 38 smd rect (at -81.28000000000004 1.42875) (size 1.27 3.81) (layers F.Cu F.Paste F.Mask))
(pad 39 smd rect (at -78.74000000000004 -1.42875) (size 1.27 3.81) (layers F.Cu F.Paste F.Mask))
(pad 40 smd rect (at -76.20000000000003 1.42875) (size 1.27 3.81) (layers F.Cu F.Paste F.Mask))
(pad 41 smd rect (at -73.66000000000003 -1.42875) (size 1.27 3.81) (layers F.Cu F.Paste F.Mask))
(pad 42 smd rect (at -71.12000000000002 1.42875) (size 1.27 3.81) (layers F.Cu F.Paste F.Mask))
(pad 43 smd rect (at -68.58000000000001 -1.42875) (size 1.27 3.81) (layers F.Cu F.Paste F.Mask))
(pad 44 smd rect (at -66.04 1.42875) (size 1.27 3.81) (layers F.Cu F.Paste F.Mask))
(pad 45 smd rect (at -63.50000000000001 -1.42875) (size 1.27 3.81) (layers F.Cu F.Paste F.Mask))
(pad 46 smd rect (at -60.96000000000001 1.42875) (size 1.27 3.81) (layers F.Cu F.Paste F.Mask))
(pad 47 smd rect (at -58.42000000000001 -1.42875) (size 1.27 3.81) (layers F.Cu F.Paste F.Mask))
(pad 48 smd rect (at -55.88000000000001 1.42875) (size 1.27 3.81) (layers F.Cu F.Paste F.Mask))
(pad 49 smd rect (at -53.34000000000001 -1.42875) (size 1.27 3.81) (layers F.Cu F.Paste F.Mask))
(pad 50 smd rect (at -50.80000000000001 1.42875) (size 1.27 3.81) (layers F.Cu F.Paste F.Mask))
(pad 51 smd rect (at -48.26000000000001 -1.42875) (size 1.27 3.81) (layers F.Cu F.Paste F.Mask))
(pad 52 smd rect (at -45.72000000000001 1.42875) (size 1.27 3.81) (layers F.Cu F.Paste F.Mask))
(pad 53 smd rect (at -43.180000000000014 -1.42875) (size 1.27 3.81) (layers F.Cu F.Paste F.Mask))
(pad 54 smd rect (at -40.640000000000015 1.42875) (size 1.27 3.81) (layers F.Cu F.Paste F.Mask))
(pad 55 smd rect (at -38.100000000000016 -1.42875) (size 1.27 3.81) (layers F.Cu F.Paste F.Mask))
(pad 56 smd rect (at -35.56000000000002 1.42875) (size 1.27 3.81) (layers F.Cu F.Paste F.Mask))
(pad 57 smd rect (at -33.02000000000002 -1.42875) (size 1.27 3.81) (layers F.Cu F.Paste F.Mask))
(pad 58 smd rect (at -30.480000000000018 1.42875) (size 1.27 3.81) (layers F.Cu F.Paste F.Mask))
(pad 59 smd rect (at -27.94000000000002 -1.42875) (size 1.27 3.81) (layers F.Cu F.Paste F.Mask))
(pad 60 smd rect (at -25.40000000000002 1.42875) (size 1.27 3.81) (layers F.Cu F.Paste F.Mask))
(pad 61 smd rect (at -22.86000000000002 -1.42875) (size 1.27 3.81) (layers F.Cu F.Paste F.Mask))
(pad 62 smd rect (at -20.32000000000002 1.42875) (size 1.27 3.81) (layers F.Cu F.Paste F.Mask))
(pad 63 smd rect (at -17.780000000000022 -1.42875) (size 1.27 3.81) (layers F.Cu F.Paste F.Mask))
(pad 64 smd rect (at -15.240000000000023 1.42875) (size 1.27 3.81) (layers F.Cu F.Paste F.Mask))
(pad 65 smd rect (at -12.700000000000024 -1.42875) (size 1.27 3.81) (layers F.Cu F.Paste F.Mask))
(pad 66 smd rect (at -10.160000000000025 1.42875) (size 1.27 3.81) (layers F.Cu F.Paste F.Mask))
(pad 67 smd rect (at -7.620000000000025 -1.42875) (size 1.27 3.81) (layers F.Cu F.Paste F.Mask))
(pad 68 smd rect (at -5.080000000000025 1.42875) (size 1.27 3.81) (layers F.Cu F.Paste F.Mask))
(pad 69 smd rect (at -2.540000000000025 -1.42875) (size 1.27 3.81) (layers F.Cu F.Paste F.Mask))
(pad 70 smd rect (at -2.4868995751603507e-14 1.42875) (size 1.27 3.81) (layers F.Cu F.Paste F.Mask))
(pad 71 smd rect (at 2.539999999999975 -1.42875) (size 1.27 3.81) (layers F.Cu F.Paste F.Mask))
(pad 72 smd rect (at 5.079999999999975 1.42875) (size 1.27 3.81) (layers F.Cu F.Paste F.Mask))
(pad 73 smd rect (at 7.619999999999975 -1.42875) (size 1.27 3.81) (layers F.Cu F.Paste F.Mask))
(pad 74 smd rect (at 10.159999999999975 1.42875) (size 1.27 3.81) (layers F.Cu F.Paste F.Mask))
(pad 75 smd rect (at 12.699999999999974 -1.42875) (size 1.27 3.81) (layers F.Cu F.Paste F.Mask))
(pad 76 smd rect (at 15.239999999999974 1.42875) (size 1.27 3.81) (layers F.Cu F.Paste F.Mask))
(pad 77 smd rect (at 17.779999999999973 -1.42875) (size 1.27 3.81) (layers F.Cu F.Paste F.Mask))
(pad 78 smd rect (at 20.319999999999972 1.42875) (size 1.27 3.81) (layers F.Cu F.Paste F.Mask))
(pad 79 smd rect (at 22.85999999999997 -1.42875) (size 1.27 3.81) (layers F.Cu F.Paste F.Mask))
(pad 80 smd rect (at 25.39999999999997 1.42875) (size 1.27 3.81) (layers F.Cu F.Paste F.Mask))
(pad 81 smd rect (at 27.93999999999997 -1.42875) (size 1.27 3.81) (layers F.Cu F.Paste F.Mask))
(pad 82 smd rect (at 30.47999999999997 1.42875) (size 1.27 3.81) (layers F.Cu F.Paste F.Mask))
(pad 83 smd rect (at 33.01999999999997 -1.42875) (size 1.27 3.81) (layers F.Cu F.Paste F.Mask))
(pad 84 smd rect (at 35.55999999999997 1.42875) (size 1.27 3.81) (layers F.Cu F.Paste F.Mask))
(pad 85 smd rect (at 38.099999999999966 -1.42875) (size 1.27 3.81) (layers F.Cu F.Paste F.Mask))
(pad 86 smd rect (at 40.639999999999965 1.42875) (size 1.27 3.81) (layers F.Cu F.Paste F.Mask))
(pad 87 smd rect (at 43.179999999999964 -1.42875) (size 1.27 3.81) (layers F.Cu F.Paste F.Mask))
(pad 88 smd rect (at 45.71999999999996 1.42875) (size 1.27 3.81) (layers F.Cu F.Paste F.Mask))
(pad 89 smd rect (at 48.25999999999996 -1.42875) (size 1.27 3.81) (layers F.Cu F.Paste F.Mask))
(pad 90 smd rect (at 50.79999999999996 1.42875) (size 1.27 3.81) (layers F.Cu F.Paste F.Mask))
(pad 91 smd rect (at 53.33999999999996 -1.42875) (size 1.27 3.81) (layers F.Cu F.Paste F.Mask))
(pad 92 smd rect (at 55.87999999999996 1.42875) (size 1.27 3.81) (layers F.Cu F.Paste F.Mask))
(pad 93 smd rect (at 58.41999999999996 -1.42875) (size 1.27 3.81) (layers F.Cu F.Paste F.Mask))
(pad 94 smd rect (at 60.95999999999996 1.42875) (size 1.27 3.81) (layers F.Cu F.Paste F.Mask))
(pad 95 smd rect (at 63.49999999999996 -1.42875) (size 1.27 3.81) (layers F.Cu F.Paste F.Mask))
(pad 96 smd rect (at 66.03999999999996 1.42875) (size 1.27 3.81) (layers F.Cu F.Paste F.Mask))
(pad 97 smd rect (at 68.57999999999997 -1.42875) (size 1.27 3.81) (layers F.Cu F.Paste F.Mask))
(pad 98 smd rect (at 71.11999999999998 1.42875) (size 1.27 3.81) (layers F.Cu F.Paste F.Mask))
(pad 99 smd rect (at 73.65999999999998 -1.42875) (size 1.27 3.81) (layers F.Cu F.Paste F.Mask))
(pad 100 smd rect (at 76.19999999999999 1.42875) (size 1.27 3.81) (layers F.Cu F.Paste F.Mask))
(pad 101 smd rect (at 78.74 -1.42875) (size 1.27 3.81) (layers F.Cu F.Paste F.Mask))
(pad 102 smd rect (at 81.28 1.42875) (size 1.27 3.81) (layers F.Cu F.Paste F.Mask))
(pad 103 smd rect (at 83.82000000000001 -1.42875) (size 1.27 3.81) (layers F.Cu F.Paste F.Mask))
(pad 104 smd rect (at 86.36000000000001 1.42875) (size 1.27 3.81) (layers F.Cu F.Paste F.Mask))
(pad 105 smd rect (at 88.90000000000002 -1.42875) (size 1.27 3.81) (layers F.Cu F.Paste F.Mask))
(pad 106 smd rect (at 91.44000000000003 1.42875) (size 1.27 3.81) (layers F.Cu F.Paste F.Mask))
(pad 107 smd rect (at 93.98000000000003 -1.42875) (size 1.27 3.81) (layers F.Cu F.Paste F.Mask))
(pad 108 smd rect (at 96.52000000000004 1.42875) (size 1.27 3.81) (layers F.Cu F.Paste F.Mask))
(pad 109 smd rect (at 99.06000000000004 -1.42875) (size 1.27 3.81) (layers F.Cu F.Paste F.Mask))
(pad 110 smd rect (at 101.60000000000005 1.42875) (size 1.27 3.81) (layers F.Cu F.Paste F.Mask))
(pad 111 smd rect (at 104.14000000000006 -1.42875) (size 1.27 3.81) (layers F.Cu F.Paste F.Mask))
(pad 112 smd rect (at 106.68000000000006 1.42875) (size 1.27 3.81) (layers F.Cu F.Paste F.Mask))
(pad 113 smd rect (at 109.22000000000007 -1.42875) (size 1.27 3.81) (layers F.Cu F.Paste F.Mask))
(pad 114 smd rect (at 111.76000000000008 1.42875) (size 1.27 3.81) (layers F.Cu F.Paste F.Mask))
(pad 115 smd rect (at 114.30000000000008 -1.42875) (size 1.27 3.81) (layers F.Cu F.Paste F.Mask))
(pad 116 smd rect (at 116.84000000000009 1.42875) (size 1.27 3.81) (layers F.Cu F.Paste F.Mask))
(pad 117 smd rect (at 119.3800000000001 -1.42875) (size 1.27 3.81) (layers F.Cu F.Paste F.Mask))
(pad 118 smd rect (at 121.9200000000001 1.42875) (size 1.27 3.81) (layers F.Cu F.Paste F.Mask))
(pad 119 smd rect (at 124.46000000000011 -1.42875) (size 1.27 3.81) (layers F.Cu F.Paste F.Mask))
(pad 120 smd rect (at 127.00000000000011 1.42875) (size 1.27 3.81) (layers F.Cu F.Paste F.Mask))
(pad 121 smd rect (at 129.5400000000001 -1.42875) (size 1.27 3.81) (layers F.Cu F.Paste F.Mask))
(pad 122 smd rect (at 132.0800000000001 1.42875) (size 1.27 3.81) (layers F.Cu F.Paste F.Mask))
(pad 123 smd rect (at 134.6200000000001 -1.42875) (size 1.27 3.81) (layers F.Cu F.Paste F.Mask))
(pad 124 smd rect (at 137.16000000000008 1.42875) (size 1.27 3.81) (layers F.Cu F.Paste F.Mask))
(pad 125 smd rect (at 139.70000000000007 -1.42875) (size 1.27 3.81) (layers F.Cu F.Paste F.Mask))
(pad 126 smd rect (at 142.24000000000007 1.42875) (size 1.27 3.81) (layers F.Cu F.Paste F.Mask))
(pad 127 smd rect (at 144.78000000000006 -1.42875) (size 1.27 3.81) (layers F.Cu F.Paste F.Mask))
(pad 128 smd rect (at 147.32000000000005 1.42875) (size 1.27 3.81) (layers F.Cu F.Paste F.Mask))
(pad 129 smd rect (at 149.86000000000004 -1.42875) (size 1.27 3.81) (layers F.Cu F.Paste F.Mask))
(pad 130 smd rect (at 152.40000000000003 1.42875) (size 1.27 3.81) (layers F.Cu F.Paste F.Mask))
(pad 131 smd rect (at 154.94000000000003 -1.42875) (size 1.27 3.81) (layers F.Cu F.Paste F.Mask))
(pad 132 smd rect (at 157.48000000000002 1.42875) (size 1.27 3.81) (layers F.Cu F.Paste F.Mask))
(pad 133 smd rect (at 160.02 -1.42875) (size 1.27 3.81) (layers F.Cu F.Paste F.Mask))
(pad 134 smd rect (at 162.56 1.42875) (size 1.27 3.81) (layers F.Cu F.Paste F.Mask))
(pad 135 smd rect (at 165.1 -1.42875) (size 1.27 3.81) (layers F.Cu F.Paste F.Mask))
(pad 136 smd rect (at 167.64 1.42875) (size 1.27 3.81) (layers F.Cu F.Paste F.Mask))
(pad 137 smd rect (at 170.17999999999998 -1.42875) (size 1.27 3.81) (layers F.Cu F.Paste F.Mask))
(pad 138 smd rect (at 172.71999999999997 1.42875) (size 1.27 3.81) (layers F.Cu F.Paste F.Mask))
(pad 139 smd rect (at 175.25999999999996 -1.42875) (size 1.27 3.81) (layers F.Cu F.Paste F.Mask))
)

