(module "Pin_Header_Straight_1x102_PITCH_2_SMT" (layer F.Cu) (tedit 54E7ACBD)
(fp_text reference REF** (at 0 4) (layer F.SilkS)
  (effects (font (size 1.5 1.5) (thickness 0.15)))
)
(fp_text value "Pin_Header_Straight_1x102_PITCH_2_SMT" (at 0 -4) (layer F.Fab)
  (effects (font (size 1.5 1.5) (thickness 0.15)))
)
(pad 1 smd rect (at -101 -1.125) (size 1 3) (layers F.Cu F.Paste F.Mask))
(pad 2 smd rect (at -99 1.125) (size 1 3) (layers F.Cu F.Paste F.Mask))
(pad 3 smd rect (at -97 -1.125) (size 1 3) (layers F.Cu F.Paste F.Mask))
(pad 4 smd rect (at -95 1.125) (size 1 3) (layers F.Cu F.Paste F.Mask))
(pad 5 smd rect (at -93 -1.125) (size 1 3) (layers F.Cu F.Paste F.Mask))
(pad 6 smd rect (at -91 1.125) (size 1 3) (layers F.Cu F.Paste F.Mask))
(pad 7 smd rect (at -89 -1.125) (size 1 3) (layers F.Cu F.Paste F.Mask))
(pad 8 smd rect (at -87 1.125) (size 1 3) (layers F.Cu F.Paste F.Mask))
(pad 9 smd rect (at -85 -1.125) (size 1 3) (layers F.Cu F.Paste F.Mask))
(pad 10 smd rect (at -83 1.125) (size 1 3) (layers F.Cu F.Paste F.Mask))
(pad 11 smd rect (at -81 -1.125) (size 1 3) (layers F.Cu F.Paste F.Mask))
(pad 12 smd rect (at -79 1.125) (size 1 3) (layers F.Cu F.Paste F.Mask))
(pad 13 smd rect (at -77 -1.125) (size 1 3) (layers F.Cu F.Paste F.Mask))
(pad 14 smd rect (at -75 1.125) (size 1 3) (layers F.Cu F.Paste F.Mask))
(pad 15 smd rect (at -73 -1.125) (size 1 3) (layers F.Cu F.Paste F.Mask))
(pad 16 smd rect (at -71 1.125) (size 1 3) (layers F.Cu F.Paste F.Mask))
(pad 17 smd rect (at -69 -1.125) (size 1 3) (layers F.Cu F.Paste F.Mask))
(pad 18 smd rect (at -67 1.125) (size 1 3) (layers F.Cu F.Paste F.Mask))
(pad 19 smd rect (at -65 -1.125) (size 1 3) (layers F.Cu F.Paste F.Mask))
(pad 20 smd rect (at -63 1.125) (size 1 3) (layers F.Cu F.Paste F.Mask))
(pad 21 smd rect (at -61 -1.125) (size 1 3) (layers F.Cu F.Paste F.Mask))
(pad 22 smd rect (at -59 1.125) (size 1 3) (layers F.Cu F.Paste F.Mask))
(pad 23 smd rect (at -57 -1.125) (size 1 3) (layers F.Cu F.Paste F.Mask))
(pad 24 smd rect (at -55 1.125) (size 1 3) (layers F.Cu F.Paste F.Mask))
(pad 25 smd rect (at -53 -1.125) (size 1 3) (layers F.Cu F.Paste F.Mask))
(pad 26 smd rect (at -51 1.125) (size 1 3) (layers F.Cu F.Paste F.Mask))
(pad 27 smd rect (at -49 -1.125) (size 1 3) (layers F.Cu F.Paste F.Mask))
(pad 28 smd rect (at -47 1.125) (size 1 3) (layers F.Cu F.Paste F.Mask))
(pad 29 smd rect (at -45 -1.125) (size 1 3) (layers F.Cu F.Paste F.Mask))
(pad 30 smd rect (at -43 1.125) (size 1 3) (layers F.Cu F.Paste F.Mask))
(pad 31 smd rect (at -41 -1.125) (size 1 3) (layers F.Cu F.Paste F.Mask))
(pad 32 smd rect (at -39 1.125) (size 1 3) (layers F.Cu F.Paste F.Mask))
(pad 33 smd rect (at -37 -1.125) (size 1 3) (layers F.Cu F.Paste F.Mask))
(pad 34 smd rect (at -35 1.125) (size 1 3) (layers F.Cu F.Paste F.Mask))
(pad 35 smd rect (at -33 -1.125) (size 1 3) (layers F.Cu F.Paste F.Mask))
(pad 36 smd rect (at -31 1.125) (size 1 3) (layers F.Cu F.Paste F.Mask))
(pad 37 smd rect (at -29 -1.125) (size 1 3) (layers F.Cu F.Paste F.Mask))
(pad 38 smd rect (at -27 1.125) (size 1 3) (layers F.Cu F.Paste F.Mask))
(pad 39 smd rect (at -25 -1.125) (size 1 3) (layers F.Cu F.Paste F.Mask))
(pad 40 smd rect (at -23 1.125) (size 1 3) (layers F.Cu F.Paste F.Mask))
(pad 41 smd rect (at -21 -1.125) (size 1 3) (layers F.Cu F.Paste F.Mask))
(pad 42 smd rect (at -19 1.125) (size 1 3) (layers F.Cu F.Paste F.Mask))
(pad 43 smd rect (at -17 -1.125) (size 1 3) (layers F.Cu F.Paste F.Mask))
(pad 44 smd rect (at -15 1.125) (size 1 3) (layers F.Cu F.Paste F.Mask))
(pad 45 smd rect (at -13 -1.125) (size 1 3) (layers F.Cu F.Paste F.Mask))
(pad 46 smd rect (at -11 1.125) (size 1 3) (layers F.Cu F.Paste F.Mask))
(pad 47 smd rect (at -9 -1.125) (size 1 3) (layers F.Cu F.Paste F.Mask))
(pad 48 smd rect (at -7 1.125) (size 1 3) (layers F.Cu F.Paste F.Mask))
(pad 49 smd rect (at -5 -1.125) (size 1 3) (layers F.Cu F.Paste F.Mask))
(pad 50 smd rect (at -3 1.125) (size 1 3) (layers F.Cu F.Paste F.Mask))
(pad 51 smd rect (at -1 -1.125) (size 1 3) (layers F.Cu F.Paste F.Mask))
(pad 52 smd rect (at 1 1.125) (size 1 3) (layers F.Cu F.Paste F.Mask))
(pad 53 smd rect (at 3 -1.125) (size 1 3) (layers F.Cu F.Paste F.Mask))
(pad 54 smd rect (at 5 1.125) (size 1 3) (layers F.Cu F.Paste F.Mask))
(pad 55 smd rect (at 7 -1.125) (size 1 3) (layers F.Cu F.Paste F.Mask))
(pad 56 smd rect (at 9 1.125) (size 1 3) (layers F.Cu F.Paste F.Mask))
(pad 57 smd rect (at 11 -1.125) (size 1 3) (layers F.Cu F.Paste F.Mask))
(pad 58 smd rect (at 13 1.125) (size 1 3) (layers F.Cu F.Paste F.Mask))
(pad 59 smd rect (at 15 -1.125) (size 1 3) (layers F.Cu F.Paste F.Mask))
(pad 60 smd rect (at 17 1.125) (size 1 3) (layers F.Cu F.Paste F.Mask))
(pad 61 smd rect (at 19 -1.125) (size 1 3) (layers F.Cu F.Paste F.Mask))
(pad 62 smd rect (at 21 1.125) (size 1 3) (layers F.Cu F.Paste F.Mask))
(pad 63 smd rect (at 23 -1.125) (size 1 3) (layers F.Cu F.Paste F.Mask))
(pad 64 smd rect (at 25 1.125) (size 1 3) (layers F.Cu F.Paste F.Mask))
(pad 65 smd rect (at 27 -1.125) (size 1 3) (layers F.Cu F.Paste F.Mask))
(pad 66 smd rect (at 29 1.125) (size 1 3) (layers F.Cu F.Paste F.Mask))
(pad 67 smd rect (at 31 -1.125) (size 1 3) (layers F.Cu F.Paste F.Mask))
(pad 68 smd rect (at 33 1.125) (size 1 3) (layers F.Cu F.Paste F.Mask))
(pad 69 smd rect (at 35 -1.125) (size 1 3) (layers F.Cu F.Paste F.Mask))
(pad 70 smd rect (at 37 1.125) (size 1 3) (layers F.Cu F.Paste F.Mask))
(pad 71 smd rect (at 39 -1.125) (size 1 3) (layers F.Cu F.Paste F.Mask))
(pad 72 smd rect (at 41 1.125) (size 1 3) (layers F.Cu F.Paste F.Mask))
(pad 73 smd rect (at 43 -1.125) (size 1 3) (layers F.Cu F.Paste F.Mask))
(pad 74 smd rect (at 45 1.125) (size 1 3) (layers F.Cu F.Paste F.Mask))
(pad 75 smd rect (at 47 -1.125) (size 1 3) (layers F.Cu F.Paste F.Mask))
(pad 76 smd rect (at 49 1.125) (size 1 3) (layers F.Cu F.Paste F.Mask))
(pad 77 smd rect (at 51 -1.125) (size 1 3) (layers F.Cu F.Paste F.Mask))
(pad 78 smd rect (at 53 1.125) (size 1 3) (layers F.Cu F.Paste F.Mask))
(pad 79 smd rect (at 55 -1.125) (size 1 3) (layers F.Cu F.Paste F.Mask))
(pad 80 smd rect (at 57 1.125) (size 1 3) (layers F.Cu F.Paste F.Mask))
(pad 81 smd rect (at 59 -1.125) (size 1 3) (layers F.Cu F.Paste F.Mask))
(pad 82 smd rect (at 61 1.125) (size 1 3) (layers F.Cu F.Paste F.Mask))
(pad 83 smd rect (at 63 -1.125) (size 1 3) (layers F.Cu F.Paste F.Mask))
(pad 84 smd rect (at 65 1.125) (size 1 3) (layers F.Cu F.Paste F.Mask))
(pad 85 smd rect (at 67 -1.125) (size 1 3) (layers F.Cu F.Paste F.Mask))
(pad 86 smd rect (at 69 1.125) (size 1 3) (layers F.Cu F.Paste F.Mask))
(pad 87 smd rect (at 71 -1.125) (size 1 3) (layers F.Cu F.Paste F.Mask))
(pad 88 smd rect (at 73 1.125) (size 1 3) (layers F.Cu F.Paste F.Mask))
(pad 89 smd rect (at 75 -1.125) (size 1 3) (layers F.Cu F.Paste F.Mask))
(pad 90 smd rect (at 77 1.125) (size 1 3) (layers F.Cu F.Paste F.Mask))
(pad 91 smd rect (at 79 -1.125) (size 1 3) (layers F.Cu F.Paste F.Mask))
(pad 92 smd rect (at 81 1.125) (size 1 3) (layers F.Cu F.Paste F.Mask))
(pad 93 smd rect (at 83 -1.125) (size 1 3) (layers F.Cu F.Paste F.Mask))
(pad 94 smd rect (at 85 1.125) (size 1 3) (layers F.Cu F.Paste F.Mask))
(pad 95 smd rect (at 87 -1.125) (size 1 3) (layers F.Cu F.Paste F.Mask))
(pad 96 smd rect (at 89 1.125) (size 1 3) (layers F.Cu F.Paste F.Mask))
(pad 97 smd rect (at 91 -1.125) (size 1 3) (layers F.Cu F.Paste F.Mask))
(pad 98 smd rect (at 93 1.125) (size 1 3) (layers F.Cu F.Paste F.Mask))
(pad 99 smd rect (at 95 -1.125) (size 1 3) (layers F.Cu F.Paste F.Mask))
(pad 100 smd rect (at 97 1.125) (size 1 3) (layers F.Cu F.Paste F.Mask))
(pad 101 smd rect (at 99 -1.125) (size 1 3) (layers F.Cu F.Paste F.Mask))
(pad 102 smd rect (at 101 1.125) (size 1 3) (layers F.Cu F.Paste F.Mask))
)

