(module "Pin_Header_Straight_1x46_PITCH_2.54_SMT" (layer F.Cu) (tedit 54E7ACBD)
(fp_text reference REF** (at 0 4) (layer F.SilkS)
  (effects (font (size 1.5 1.5) (thickness 0.15)))
)
(fp_text value "Pin_Header_Straight_1x46_PITCH_2.54_SMT" (at 0 -4) (layer F.Fab)
  (effects (font (size 1.5 1.5) (thickness 0.15)))
)
(pad 1 smd rect (at -57.150000000000006 -1.42875) (size 1.27 3.81) (layers F.Cu F.Paste F.Mask))
(pad 2 smd rect (at -54.61000000000001 1.42875) (size 1.27 3.81) (layers F.Cu F.Paste F.Mask))
(pad 3 smd rect (at -52.07000000000001 -1.42875) (size 1.27 3.81) (layers F.Cu F.Paste F.Mask))
(pad 4 smd rect (at -49.53000000000001 1.42875) (size 1.27 3.81) (layers F.Cu F.Paste F.Mask))
(pad 5 smd rect (at -46.99000000000001 -1.42875) (size 1.27 3.81) (layers F.Cu F.Paste F.Mask))
(pad 6 smd rect (at -44.45000000000001 1.42875) (size 1.27 3.81) (layers F.Cu F.Paste F.Mask))
(pad 7 smd rect (at -41.91000000000001 -1.42875) (size 1.27 3.81) (layers F.Cu F.Paste F.Mask))
(pad 8 smd rect (at -39.37000000000001 1.42875) (size 1.27 3.81) (layers F.Cu F.Paste F.Mask))
(pad 9 smd rect (at -36.83000000000001 -1.42875) (size 1.27 3.81) (layers F.Cu F.Paste F.Mask))
(pad 10 smd rect (at -34.29000000000001 1.42875) (size 1.27 3.81) (layers F.Cu F.Paste F.Mask))
(pad 11 smd rect (at -31.750000000000014 -1.42875) (size 1.27 3.81) (layers F.Cu F.Paste F.Mask))
(pad 12 smd rect (at -29.210000000000015 1.42875) (size 1.27 3.81) (layers F.Cu F.Paste F.Mask))
(pad 13 smd rect (at -26.670000000000016 -1.42875) (size 1.27 3.81) (layers F.Cu F.Paste F.Mask))
(pad 14 smd rect (at -24.130000000000017 1.42875) (size 1.27 3.81) (layers F.Cu F.Paste F.Mask))
(pad 15 smd rect (at -21.590000000000018 -1.42875) (size 1.27 3.81) (layers F.Cu F.Paste F.Mask))
(pad 16 smd rect (at -19.05000000000002 1.42875) (size 1.27 3.81) (layers F.Cu F.Paste F.Mask))
(pad 17 smd rect (at -16.51000000000002 -1.42875) (size 1.27 3.81) (layers F.Cu F.Paste F.Mask))
(pad 18 smd rect (at -13.97000000000002 1.42875) (size 1.27 3.81) (layers F.Cu F.Paste F.Mask))
(pad 19 smd rect (at -11.430000000000021 -1.42875) (size 1.27 3.81) (layers F.Cu F.Paste F.Mask))
(pad 20 smd rect (at -8.890000000000022 1.42875) (size 1.27 3.81) (layers F.Cu F.Paste F.Mask))
(pad 21 smd rect (at -6.350000000000022 -1.42875) (size 1.27 3.81) (layers F.Cu F.Paste F.Mask))
(pad 22 smd rect (at -3.810000000000022 1.42875) (size 1.27 3.81) (layers F.Cu F.Paste F.Mask))
(pad 23 smd rect (at -1.2700000000000218 -1.42875) (size 1.27 3.81) (layers F.Cu F.Paste F.Mask))
(pad 24 smd rect (at 1.2699999999999783 1.42875) (size 1.27 3.81) (layers F.Cu F.Paste F.Mask))
(pad 25 smd rect (at 3.8099999999999783 -1.42875) (size 1.27 3.81) (layers F.Cu F.Paste F.Mask))
(pad 26 smd rect (at 6.349999999999978 1.42875) (size 1.27 3.81) (layers F.Cu F.Paste F.Mask))
(pad 27 smd rect (at 8.88999999999998 -1.42875) (size 1.27 3.81) (layers F.Cu F.Paste F.Mask))
(pad 28 smd rect (at 11.429999999999978 1.42875) (size 1.27 3.81) (layers F.Cu F.Paste F.Mask))
(pad 29 smd rect (at 13.969999999999978 -1.42875) (size 1.27 3.81) (layers F.Cu F.Paste F.Mask))
(pad 30 smd rect (at 16.509999999999977 1.42875) (size 1.27 3.81) (layers F.Cu F.Paste F.Mask))
(pad 31 smd rect (at 19.049999999999976 -1.42875) (size 1.27 3.81) (layers F.Cu F.Paste F.Mask))
(pad 32 smd rect (at 21.589999999999975 1.42875) (size 1.27 3.81) (layers F.Cu F.Paste F.Mask))
(pad 33 smd rect (at 24.129999999999974 -1.42875) (size 1.27 3.81) (layers F.Cu F.Paste F.Mask))
(pad 34 smd rect (at 26.669999999999973 1.42875) (size 1.27 3.81) (layers F.Cu F.Paste F.Mask))
(pad 35 smd rect (at 29.209999999999972 -1.42875) (size 1.27 3.81) (layers F.Cu F.Paste F.Mask))
(pad 36 smd rect (at 31.74999999999997 1.42875) (size 1.27 3.81) (layers F.Cu F.Paste F.Mask))
(pad 37 smd rect (at 34.28999999999997 -1.42875) (size 1.27 3.81) (layers F.Cu F.Paste F.Mask))
(pad 38 smd rect (at 36.82999999999997 1.42875) (size 1.27 3.81) (layers F.Cu F.Paste F.Mask))
(pad 39 smd rect (at 39.36999999999997 -1.42875) (size 1.27 3.81) (layers F.Cu F.Paste F.Mask))
(pad 40 smd rect (at 41.90999999999997 1.42875) (size 1.27 3.81) (layers F.Cu F.Paste F.Mask))
(pad 41 smd rect (at 44.44999999999997 -1.42875) (size 1.27 3.81) (layers F.Cu F.Paste F.Mask))
(pad 42 smd rect (at 46.98999999999997 1.42875) (size 1.27 3.81) (layers F.Cu F.Paste F.Mask))
(pad 43 smd rect (at 49.529999999999966 -1.42875) (size 1.27 3.81) (layers F.Cu F.Paste F.Mask))
(pad 44 smd rect (at 52.069999999999965 1.42875) (size 1.27 3.81) (layers F.Cu F.Paste F.Mask))
(pad 45 smd rect (at 54.609999999999964 -1.42875) (size 1.27 3.81) (layers F.Cu F.Paste F.Mask))
(pad 46 smd rect (at 57.14999999999996 1.42875) (size 1.27 3.81) (layers F.Cu F.Paste F.Mask))
)

