(module "Pin_Header_Straight_1x121_PITCH_1.27_SMT" (layer F.Cu) (tedit 54E7ACBD)
(fp_text reference REF** (at 0 4) (layer F.SilkS)
  (effects (font (size 1.5 1.5) (thickness 0.15)))
)
(fp_text value "Pin_Header_Straight_1x121_PITCH_1.27_SMT" (at 0 -4) (layer F.Fab)
  (effects (font (size 1.5 1.5) (thickness 0.15)))
)
(pad 1 smd rect (at -76.20000000000002 -0.714375) (size 0.635 1.905) (layers F.Cu F.Paste F.Mask))
(pad 2 smd rect (at -74.93000000000002 0.714375) (size 0.635 1.905) (layers F.Cu F.Paste F.Mask))
(pad 3 smd rect (at -73.66000000000003 -0.714375) (size 0.635 1.905) (layers F.Cu F.Paste F.Mask))
(pad 4 smd rect (at -72.39000000000003 0.714375) (size 0.635 1.905) (layers F.Cu F.Paste F.Mask))
(pad 5 smd rect (at -71.12000000000003 -0.714375) (size 0.635 1.905) (layers F.Cu F.Paste F.Mask))
(pad 6 smd rect (at -69.85000000000004 0.714375) (size 0.635 1.905) (layers F.Cu F.Paste F.Mask))
(pad 7 smd rect (at -68.58000000000004 -0.714375) (size 0.635 1.905) (layers F.Cu F.Paste F.Mask))
(pad 8 smd rect (at -67.31000000000004 0.714375) (size 0.635 1.905) (layers F.Cu F.Paste F.Mask))
(pad 9 smd rect (at -66.04000000000005 -0.714375) (size 0.635 1.905) (layers F.Cu F.Paste F.Mask))
(pad 10 smd rect (at -64.77000000000005 0.714375) (size 0.635 1.905) (layers F.Cu F.Paste F.Mask))
(pad 11 smd rect (at -63.50000000000005 -0.714375) (size 0.635 1.905) (layers F.Cu F.Paste F.Mask))
(pad 12 smd rect (at -62.23000000000005 0.714375) (size 0.635 1.905) (layers F.Cu F.Paste F.Mask))
(pad 13 smd rect (at -60.96000000000004 -0.714375) (size 0.635 1.905) (layers F.Cu F.Paste F.Mask))
(pad 14 smd rect (at -59.69000000000004 0.714375) (size 0.635 1.905) (layers F.Cu F.Paste F.Mask))
(pad 15 smd rect (at -58.42000000000004 -0.714375) (size 0.635 1.905) (layers F.Cu F.Paste F.Mask))
(pad 16 smd rect (at -57.150000000000034 0.714375) (size 0.635 1.905) (layers F.Cu F.Paste F.Mask))
(pad 17 smd rect (at -55.88000000000003 -0.714375) (size 0.635 1.905) (layers F.Cu F.Paste F.Mask))
(pad 18 smd rect (at -54.61000000000003 0.714375) (size 0.635 1.905) (layers F.Cu F.Paste F.Mask))
(pad 19 smd rect (at -53.340000000000025 -0.714375) (size 0.635 1.905) (layers F.Cu F.Paste F.Mask))
(pad 20 smd rect (at -52.07000000000002 0.714375) (size 0.635 1.905) (layers F.Cu F.Paste F.Mask))
(pad 21 smd rect (at -50.80000000000002 -0.714375) (size 0.635 1.905) (layers F.Cu F.Paste F.Mask))
(pad 22 smd rect (at -49.530000000000015 0.714375) (size 0.635 1.905) (layers F.Cu F.Paste F.Mask))
(pad 23 smd rect (at -48.26000000000001 -0.714375) (size 0.635 1.905) (layers F.Cu F.Paste F.Mask))
(pad 24 smd rect (at -46.99000000000001 0.714375) (size 0.635 1.905) (layers F.Cu F.Paste F.Mask))
(pad 25 smd rect (at -45.720000000000006 -0.714375) (size 0.635 1.905) (layers F.Cu F.Paste F.Mask))
(pad 26 smd rect (at -44.45 0.714375) (size 0.635 1.905) (layers F.Cu F.Paste F.Mask))
(pad 27 smd rect (at -43.18 -0.714375) (size 0.635 1.905) (layers F.Cu F.Paste F.Mask))
(pad 28 smd rect (at -41.91 0.714375) (size 0.635 1.905) (layers F.Cu F.Paste F.Mask))
(pad 29 smd rect (at -40.63999999999999 -0.714375) (size 0.635 1.905) (layers F.Cu F.Paste F.Mask))
(pad 30 smd rect (at -39.36999999999999 0.714375) (size 0.635 1.905) (layers F.Cu F.Paste F.Mask))
(pad 31 smd rect (at -38.09999999999999 -0.714375) (size 0.635 1.905) (layers F.Cu F.Paste F.Mask))
(pad 32 smd rect (at -36.829999999999984 0.714375) (size 0.635 1.905) (layers F.Cu F.Paste F.Mask))
(pad 33 smd rect (at -35.55999999999998 -0.714375) (size 0.635 1.905) (layers F.Cu F.Paste F.Mask))
(pad 34 smd rect (at -34.28999999999998 0.714375) (size 0.635 1.905) (layers F.Cu F.Paste F.Mask))
(pad 35 smd rect (at -33.019999999999975 -0.714375) (size 0.635 1.905) (layers F.Cu F.Paste F.Mask))
(pad 36 smd rect (at -31.749999999999975 0.714375) (size 0.635 1.905) (layers F.Cu F.Paste F.Mask))
(pad 37 smd rect (at -30.479999999999976 -0.714375) (size 0.635 1.905) (layers F.Cu F.Paste F.Mask))
(pad 38 smd rect (at -29.209999999999976 0.714375) (size 0.635 1.905) (layers F.Cu F.Paste F.Mask))
(pad 39 smd rect (at -27.939999999999976 -0.714375) (size 0.635 1.905) (layers F.Cu F.Paste F.Mask))
(pad 40 smd rect (at -26.669999999999977 0.714375) (size 0.635 1.905) (layers F.Cu F.Paste F.Mask))
(pad 41 smd rect (at -25.399999999999977 -0.714375) (size 0.635 1.905) (layers F.Cu F.Paste F.Mask))
(pad 42 smd rect (at -24.129999999999978 0.714375) (size 0.635 1.905) (layers F.Cu F.Paste F.Mask))
(pad 43 smd rect (at -22.859999999999978 -0.714375) (size 0.635 1.905) (layers F.Cu F.Paste F.Mask))
(pad 44 smd rect (at -21.58999999999998 0.714375) (size 0.635 1.905) (layers F.Cu F.Paste F.Mask))
(pad 45 smd rect (at -20.31999999999998 -0.714375) (size 0.635 1.905) (layers F.Cu F.Paste F.Mask))
(pad 46 smd rect (at -19.04999999999998 0.714375) (size 0.635 1.905) (layers F.Cu F.Paste F.Mask))
(pad 47 smd rect (at -17.77999999999998 -0.714375) (size 0.635 1.905) (layers F.Cu F.Paste F.Mask))
(pad 48 smd rect (at -16.50999999999998 0.714375) (size 0.635 1.905) (layers F.Cu F.Paste F.Mask))
(pad 49 smd rect (at -15.23999999999998 -0.714375) (size 0.635 1.905) (layers F.Cu F.Paste F.Mask))
(pad 50 smd rect (at -13.969999999999981 0.714375) (size 0.635 1.905) (layers F.Cu F.Paste F.Mask))
(pad 51 smd rect (at -12.699999999999982 -0.714375) (size 0.635 1.905) (layers F.Cu F.Paste F.Mask))
(pad 52 smd rect (at -11.429999999999982 0.714375) (size 0.635 1.905) (layers F.Cu F.Paste F.Mask))
(pad 53 smd rect (at -10.159999999999982 -0.714375) (size 0.635 1.905) (layers F.Cu F.Paste F.Mask))
(pad 54 smd rect (at -8.889999999999983 0.714375) (size 0.635 1.905) (layers F.Cu F.Paste F.Mask))
(pad 55 smd rect (at -7.619999999999983 -0.714375) (size 0.635 1.905) (layers F.Cu F.Paste F.Mask))
(pad 56 smd rect (at -6.349999999999984 0.714375) (size 0.635 1.905) (layers F.Cu F.Paste F.Mask))
(pad 57 smd rect (at -5.079999999999984 -0.714375) (size 0.635 1.905) (layers F.Cu F.Paste F.Mask))
(pad 58 smd rect (at -3.809999999999984 0.714375) (size 0.635 1.905) (layers F.Cu F.Paste F.Mask))
(pad 59 smd rect (at -2.539999999999984 -0.714375) (size 0.635 1.905) (layers F.Cu F.Paste F.Mask))
(pad 60 smd rect (at -1.269999999999984 0.714375) (size 0.635 1.905) (layers F.Cu F.Paste F.Mask))
(pad 61 smd rect (at 1.5987211554602254e-14 -0.714375) (size 0.635 1.905) (layers F.Cu F.Paste F.Mask))
(pad 62 smd rect (at 1.270000000000016 0.714375) (size 0.635 1.905) (layers F.Cu F.Paste F.Mask))
(pad 63 smd rect (at 2.540000000000016 -0.714375) (size 0.635 1.905) (layers F.Cu F.Paste F.Mask))
(pad 64 smd rect (at 3.810000000000016 0.714375) (size 0.635 1.905) (layers F.Cu F.Paste F.Mask))
(pad 65 smd rect (at 5.080000000000016 -0.714375) (size 0.635 1.905) (layers F.Cu F.Paste F.Mask))
(pad 66 smd rect (at 6.350000000000016 0.714375) (size 0.635 1.905) (layers F.Cu F.Paste F.Mask))
(pad 67 smd rect (at 7.620000000000015 -0.714375) (size 0.635 1.905) (layers F.Cu F.Paste F.Mask))
(pad 68 smd rect (at 8.890000000000015 0.714375) (size 0.635 1.905) (layers F.Cu F.Paste F.Mask))
(pad 69 smd rect (at 10.160000000000014 -0.714375) (size 0.635 1.905) (layers F.Cu F.Paste F.Mask))
(pad 70 smd rect (at 11.430000000000014 0.714375) (size 0.635 1.905) (layers F.Cu F.Paste F.Mask))
(pad 71 smd rect (at 12.700000000000014 -0.714375) (size 0.635 1.905) (layers F.Cu F.Paste F.Mask))
(pad 72 smd rect (at 13.970000000000013 0.714375) (size 0.635 1.905) (layers F.Cu F.Paste F.Mask))
(pad 73 smd rect (at 15.240000000000013 -0.714375) (size 0.635 1.905) (layers F.Cu F.Paste F.Mask))
(pad 74 smd rect (at 16.510000000000012 0.714375) (size 0.635 1.905) (layers F.Cu F.Paste F.Mask))
(pad 75 smd rect (at 17.780000000000012 -0.714375) (size 0.635 1.905) (layers F.Cu F.Paste F.Mask))
(pad 76 smd rect (at 19.05000000000001 0.714375) (size 0.635 1.905) (layers F.Cu F.Paste F.Mask))
(pad 77 smd rect (at 20.32000000000001 -0.714375) (size 0.635 1.905) (layers F.Cu F.Paste F.Mask))
(pad 78 smd rect (at 21.59000000000001 0.714375) (size 0.635 1.905) (layers F.Cu F.Paste F.Mask))
(pad 79 smd rect (at 22.86000000000001 -0.714375) (size 0.635 1.905) (layers F.Cu F.Paste F.Mask))
(pad 80 smd rect (at 24.13000000000001 0.714375) (size 0.635 1.905) (layers F.Cu F.Paste F.Mask))
(pad 81 smd rect (at 25.40000000000001 -0.714375) (size 0.635 1.905) (layers F.Cu F.Paste F.Mask))
(pad 82 smd rect (at 26.67000000000001 0.714375) (size 0.635 1.905) (layers F.Cu F.Paste F.Mask))
(pad 83 smd rect (at 27.94000000000001 -0.714375) (size 0.635 1.905) (layers F.Cu F.Paste F.Mask))
(pad 84 smd rect (at 29.210000000000008 0.714375) (size 0.635 1.905) (layers F.Cu F.Paste F.Mask))
(pad 85 smd rect (at 30.480000000000008 -0.714375) (size 0.635 1.905) (layers F.Cu F.Paste F.Mask))
(pad 86 smd rect (at 31.750000000000007 0.714375) (size 0.635 1.905) (layers F.Cu F.Paste F.Mask))
(pad 87 smd rect (at 33.02000000000001 -0.714375) (size 0.635 1.905) (layers F.Cu F.Paste F.Mask))
(pad 88 smd rect (at 34.29000000000001 0.714375) (size 0.635 1.905) (layers F.Cu F.Paste F.Mask))
(pad 89 smd rect (at 35.56000000000002 -0.714375) (size 0.635 1.905) (layers F.Cu F.Paste F.Mask))
(pad 90 smd rect (at 36.83000000000002 0.714375) (size 0.635 1.905) (layers F.Cu F.Paste F.Mask))
(pad 91 smd rect (at 38.10000000000002 -0.714375) (size 0.635 1.905) (layers F.Cu F.Paste F.Mask))
(pad 92 smd rect (at 39.370000000000026 0.714375) (size 0.635 1.905) (layers F.Cu F.Paste F.Mask))
(pad 93 smd rect (at 40.64000000000003 -0.714375) (size 0.635 1.905) (layers F.Cu F.Paste F.Mask))
(pad 94 smd rect (at 41.91000000000003 0.714375) (size 0.635 1.905) (layers F.Cu F.Paste F.Mask))
(pad 95 smd rect (at 43.180000000000035 -0.714375) (size 0.635 1.905) (layers F.Cu F.Paste F.Mask))
(pad 96 smd rect (at 44.45000000000004 0.714375) (size 0.635 1.905) (layers F.Cu F.Paste F.Mask))
(pad 97 smd rect (at 45.72000000000004 -0.714375) (size 0.635 1.905) (layers F.Cu F.Paste F.Mask))
(pad 98 smd rect (at 46.990000000000045 0.714375) (size 0.635 1.905) (layers F.Cu F.Paste F.Mask))
(pad 99 smd rect (at 48.26000000000005 -0.714375) (size 0.635 1.905) (layers F.Cu F.Paste F.Mask))
(pad 100 smd rect (at 49.53000000000005 0.714375) (size 0.635 1.905) (layers F.Cu F.Paste F.Mask))
(pad 101 smd rect (at 50.800000000000054 -0.714375) (size 0.635 1.905) (layers F.Cu F.Paste F.Mask))
(pad 102 smd rect (at 52.07000000000006 0.714375) (size 0.635 1.905) (layers F.Cu F.Paste F.Mask))
(pad 103 smd rect (at 53.34000000000006 -0.714375) (size 0.635 1.905) (layers F.Cu F.Paste F.Mask))
(pad 104 smd rect (at 54.61000000000006 0.714375) (size 0.635 1.905) (layers F.Cu F.Paste F.Mask))
(pad 105 smd rect (at 55.88000000000007 -0.714375) (size 0.635 1.905) (layers F.Cu F.Paste F.Mask))
(pad 106 smd rect (at 57.15000000000007 0.714375) (size 0.635 1.905) (layers F.Cu F.Paste F.Mask))
(pad 107 smd rect (at 58.42000000000007 -0.714375) (size 0.635 1.905) (layers F.Cu F.Paste F.Mask))
(pad 108 smd rect (at 59.690000000000076 0.714375) (size 0.635 1.905) (layers F.Cu F.Paste F.Mask))
(pad 109 smd rect (at 60.96000000000008 -0.714375) (size 0.635 1.905) (layers F.Cu F.Paste F.Mask))
(pad 110 smd rect (at 62.23000000000008 0.714375) (size 0.635 1.905) (layers F.Cu F.Paste F.Mask))
(pad 111 smd rect (at 63.500000000000085 -0.714375) (size 0.635 1.905) (layers F.Cu F.Paste F.Mask))
(pad 112 smd rect (at 64.77000000000008 0.714375) (size 0.635 1.905) (layers F.Cu F.Paste F.Mask))
(pad 113 smd rect (at 66.04000000000008 -0.714375) (size 0.635 1.905) (layers F.Cu F.Paste F.Mask))
(pad 114 smd rect (at 67.31000000000007 0.714375) (size 0.635 1.905) (layers F.Cu F.Paste F.Mask))
(pad 115 smd rect (at 68.58000000000007 -0.714375) (size 0.635 1.905) (layers F.Cu F.Paste F.Mask))
(pad 116 smd rect (at 69.85000000000007 0.714375) (size 0.635 1.905) (layers F.Cu F.Paste F.Mask))
(pad 117 smd rect (at 71.12000000000006 -0.714375) (size 0.635 1.905) (layers F.Cu F.Paste F.Mask))
(pad 118 smd rect (at 72.39000000000006 0.714375) (size 0.635 1.905) (layers F.Cu F.Paste F.Mask))
(pad 119 smd rect (at 73.66000000000005 -0.714375) (size 0.635 1.905) (layers F.Cu F.Paste F.Mask))
(pad 120 smd rect (at 74.93000000000005 0.714375) (size 0.635 1.905) (layers F.Cu F.Paste F.Mask))
(pad 121 smd rect (at 76.20000000000005 -0.714375) (size 0.635 1.905) (layers F.Cu F.Paste F.Mask))
)

