(module "Pin_Header_Straight_1x3_PITCH_1.27_SMT" (layer F.Cu) (tedit 54E7ACBD)
(fp_text reference REF** (at 0 4) (layer F.SilkS)
  (effects (font (size 1.5 1.5) (thickness 0.15)))
)
(fp_text value "Pin_Header_Straight_1x3_PITCH_1.27_SMT" (at 0 -4) (layer F.Fab)
  (effects (font (size 1.5 1.5) (thickness 0.15)))
)
(fp_line (start -1.905 -0.635) (end  1.905 -0.635) (layer F.SilkS) (width 0.15))
(fp_line (start  1.905 -0.635) (end  1.905  0.635) (layer F.SilkS) (width 0.15))
(fp_line (start  1.905  0.635) (end -1.905  0.635) (layer F.SilkS) (width 0.15))
(fp_line (start -1.905  0.635) (end -1.905 -0.635) (layer F.SilkS) (width 0.15))
(pad 1 smd rect (at -1.27 -0.714375) (size 0.635 1.905) (layers F.Cu F.Paste F.Mask))
(pad 2 smd rect (at 0 0.714375) (size 0.635 1.905) (layers F.Cu F.Paste F.Mask))
(pad 3 smd rect (at 1.27 -0.714375) (size 0.635 1.905) (layers F.Cu F.Paste F.Mask))
)

