(module "Pin_Header_Straight_1x71_PITCH_2_SMT" (layer F.Cu) (tedit 54E7ACBD)
(fp_text reference REF** (at 0 4) (layer F.SilkS)
  (effects (font (size 1.5 1.5) (thickness 0.15)))
)
(fp_text value "Pin_Header_Straight_1x71_PITCH_2_SMT" (at 0 -4) (layer F.Fab)
  (effects (font (size 1.5 1.5) (thickness 0.15)))
)
(pad 1 smd rect (at -70 -1.125) (size 1 3) (layers F.Cu F.Paste F.Mask))
(pad 2 smd rect (at -68 1.125) (size 1 3) (layers F.Cu F.Paste F.Mask))
(pad 3 smd rect (at -66 -1.125) (size 1 3) (layers F.Cu F.Paste F.Mask))
(pad 4 smd rect (at -64 1.125) (size 1 3) (layers F.Cu F.Paste F.Mask))
(pad 5 smd rect (at -62 -1.125) (size 1 3) (layers F.Cu F.Paste F.Mask))
(pad 6 smd rect (at -60 1.125) (size 1 3) (layers F.Cu F.Paste F.Mask))
(pad 7 smd rect (at -58 -1.125) (size 1 3) (layers F.Cu F.Paste F.Mask))
(pad 8 smd rect (at -56 1.125) (size 1 3) (layers F.Cu F.Paste F.Mask))
(pad 9 smd rect (at -54 -1.125) (size 1 3) (layers F.Cu F.Paste F.Mask))
(pad 10 smd rect (at -52 1.125) (size 1 3) (layers F.Cu F.Paste F.Mask))
(pad 11 smd rect (at -50 -1.125) (size 1 3) (layers F.Cu F.Paste F.Mask))
(pad 12 smd rect (at -48 1.125) (size 1 3) (layers F.Cu F.Paste F.Mask))
(pad 13 smd rect (at -46 -1.125) (size 1 3) (layers F.Cu F.Paste F.Mask))
(pad 14 smd rect (at -44 1.125) (size 1 3) (layers F.Cu F.Paste F.Mask))
(pad 15 smd rect (at -42 -1.125) (size 1 3) (layers F.Cu F.Paste F.Mask))
(pad 16 smd rect (at -40 1.125) (size 1 3) (layers F.Cu F.Paste F.Mask))
(pad 17 smd rect (at -38 -1.125) (size 1 3) (layers F.Cu F.Paste F.Mask))
(pad 18 smd rect (at -36 1.125) (size 1 3) (layers F.Cu F.Paste F.Mask))
(pad 19 smd rect (at -34 -1.125) (size 1 3) (layers F.Cu F.Paste F.Mask))
(pad 20 smd rect (at -32 1.125) (size 1 3) (layers F.Cu F.Paste F.Mask))
(pad 21 smd rect (at -30 -1.125) (size 1 3) (layers F.Cu F.Paste F.Mask))
(pad 22 smd rect (at -28 1.125) (size 1 3) (layers F.Cu F.Paste F.Mask))
(pad 23 smd rect (at -26 -1.125) (size 1 3) (layers F.Cu F.Paste F.Mask))
(pad 24 smd rect (at -24 1.125) (size 1 3) (layers F.Cu F.Paste F.Mask))
(pad 25 smd rect (at -22 -1.125) (size 1 3) (layers F.Cu F.Paste F.Mask))
(pad 26 smd rect (at -20 1.125) (size 1 3) (layers F.Cu F.Paste F.Mask))
(pad 27 smd rect (at -18 -1.125) (size 1 3) (layers F.Cu F.Paste F.Mask))
(pad 28 smd rect (at -16 1.125) (size 1 3) (layers F.Cu F.Paste F.Mask))
(pad 29 smd rect (at -14 -1.125) (size 1 3) (layers F.Cu F.Paste F.Mask))
(pad 30 smd rect (at -12 1.125) (size 1 3) (layers F.Cu F.Paste F.Mask))
(pad 31 smd rect (at -10 -1.125) (size 1 3) (layers F.Cu F.Paste F.Mask))
(pad 32 smd rect (at -8 1.125) (size 1 3) (layers F.Cu F.Paste F.Mask))
(pad 33 smd rect (at -6 -1.125) (size 1 3) (layers F.Cu F.Paste F.Mask))
(pad 34 smd rect (at -4 1.125) (size 1 3) (layers F.Cu F.Paste F.Mask))
(pad 35 smd rect (at -2 -1.125) (size 1 3) (layers F.Cu F.Paste F.Mask))
(pad 36 smd rect (at 0 1.125) (size 1 3) (layers F.Cu F.Paste F.Mask))
(pad 37 smd rect (at 2 -1.125) (size 1 3) (layers F.Cu F.Paste F.Mask))
(pad 38 smd rect (at 4 1.125) (size 1 3) (layers F.Cu F.Paste F.Mask))
(pad 39 smd rect (at 6 -1.125) (size 1 3) (layers F.Cu F.Paste F.Mask))
(pad 40 smd rect (at 8 1.125) (size 1 3) (layers F.Cu F.Paste F.Mask))
(pad 41 smd rect (at 10 -1.125) (size 1 3) (layers F.Cu F.Paste F.Mask))
(pad 42 smd rect (at 12 1.125) (size 1 3) (layers F.Cu F.Paste F.Mask))
(pad 43 smd rect (at 14 -1.125) (size 1 3) (layers F.Cu F.Paste F.Mask))
(pad 44 smd rect (at 16 1.125) (size 1 3) (layers F.Cu F.Paste F.Mask))
(pad 45 smd rect (at 18 -1.125) (size 1 3) (layers F.Cu F.Paste F.Mask))
(pad 46 smd rect (at 20 1.125) (size 1 3) (layers F.Cu F.Paste F.Mask))
(pad 47 smd rect (at 22 -1.125) (size 1 3) (layers F.Cu F.Paste F.Mask))
(pad 48 smd rect (at 24 1.125) (size 1 3) (layers F.Cu F.Paste F.Mask))
(pad 49 smd rect (at 26 -1.125) (size 1 3) (layers F.Cu F.Paste F.Mask))
(pad 50 smd rect (at 28 1.125) (size 1 3) (layers F.Cu F.Paste F.Mask))
(pad 51 smd rect (at 30 -1.125) (size 1 3) (layers F.Cu F.Paste F.Mask))
(pad 52 smd rect (at 32 1.125) (size 1 3) (layers F.Cu F.Paste F.Mask))
(pad 53 smd rect (at 34 -1.125) (size 1 3) (layers F.Cu F.Paste F.Mask))
(pad 54 smd rect (at 36 1.125) (size 1 3) (layers F.Cu F.Paste F.Mask))
(pad 55 smd rect (at 38 -1.125) (size 1 3) (layers F.Cu F.Paste F.Mask))
(pad 56 smd rect (at 40 1.125) (size 1 3) (layers F.Cu F.Paste F.Mask))
(pad 57 smd rect (at 42 -1.125) (size 1 3) (layers F.Cu F.Paste F.Mask))
(pad 58 smd rect (at 44 1.125) (size 1 3) (layers F.Cu F.Paste F.Mask))
(pad 59 smd rect (at 46 -1.125) (size 1 3) (layers F.Cu F.Paste F.Mask))
(pad 60 smd rect (at 48 1.125) (size 1 3) (layers F.Cu F.Paste F.Mask))
(pad 61 smd rect (at 50 -1.125) (size 1 3) (layers F.Cu F.Paste F.Mask))
(pad 62 smd rect (at 52 1.125) (size 1 3) (layers F.Cu F.Paste F.Mask))
(pad 63 smd rect (at 54 -1.125) (size 1 3) (layers F.Cu F.Paste F.Mask))
(pad 64 smd rect (at 56 1.125) (size 1 3) (layers F.Cu F.Paste F.Mask))
(pad 65 smd rect (at 58 -1.125) (size 1 3) (layers F.Cu F.Paste F.Mask))
(pad 66 smd rect (at 60 1.125) (size 1 3) (layers F.Cu F.Paste F.Mask))
(pad 67 smd rect (at 62 -1.125) (size 1 3) (layers F.Cu F.Paste F.Mask))
(pad 68 smd rect (at 64 1.125) (size 1 3) (layers F.Cu F.Paste F.Mask))
(pad 69 smd rect (at 66 -1.125) (size 1 3) (layers F.Cu F.Paste F.Mask))
(pad 70 smd rect (at 68 1.125) (size 1 3) (layers F.Cu F.Paste F.Mask))
(pad 71 smd rect (at 70 -1.125) (size 1 3) (layers F.Cu F.Paste F.Mask))
)

