(module "Pin_Header_Straight_1x65_PITCH_2.54_SMT" (layer F.Cu) (tedit 54E7ACBD)
(fp_text reference REF** (at 0 4) (layer F.SilkS)
  (effects (font (size 1.5 1.5) (thickness 0.15)))
)
(fp_text value "Pin_Header_Straight_1x65_PITCH_2.54_SMT" (at 0 -4) (layer F.Fab)
  (effects (font (size 1.5 1.5) (thickness 0.15)))
)
(pad 1 smd rect (at -81.27999999999999 -1.42875) (size 1.27 3.81) (layers F.Cu F.Paste F.Mask))
(pad 2 smd rect (at -78.73999999999998 1.42875) (size 1.27 3.81) (layers F.Cu F.Paste F.Mask))
(pad 3 smd rect (at -76.19999999999997 -1.42875) (size 1.27 3.81) (layers F.Cu F.Paste F.Mask))
(pad 4 smd rect (at -73.65999999999997 1.42875) (size 1.27 3.81) (layers F.Cu F.Paste F.Mask))
(pad 5 smd rect (at -71.11999999999996 -1.42875) (size 1.27 3.81) (layers F.Cu F.Paste F.Mask))
(pad 6 smd rect (at -68.57999999999996 1.42875) (size 1.27 3.81) (layers F.Cu F.Paste F.Mask))
(pad 7 smd rect (at -66.03999999999995 -1.42875) (size 1.27 3.81) (layers F.Cu F.Paste F.Mask))
(pad 8 smd rect (at -63.49999999999995 1.42875) (size 1.27 3.81) (layers F.Cu F.Paste F.Mask))
(pad 9 smd rect (at -60.95999999999995 -1.42875) (size 1.27 3.81) (layers F.Cu F.Paste F.Mask))
(pad 10 smd rect (at -58.41999999999995 1.42875) (size 1.27 3.81) (layers F.Cu F.Paste F.Mask))
(pad 11 smd rect (at -55.87999999999995 -1.42875) (size 1.27 3.81) (layers F.Cu F.Paste F.Mask))
(pad 12 smd rect (at -53.339999999999954 1.42875) (size 1.27 3.81) (layers F.Cu F.Paste F.Mask))
(pad 13 smd rect (at -50.799999999999955 -1.42875) (size 1.27 3.81) (layers F.Cu F.Paste F.Mask))
(pad 14 smd rect (at -48.259999999999955 1.42875) (size 1.27 3.81) (layers F.Cu F.Paste F.Mask))
(pad 15 smd rect (at -45.719999999999956 -1.42875) (size 1.27 3.81) (layers F.Cu F.Paste F.Mask))
(pad 16 smd rect (at -43.17999999999996 1.42875) (size 1.27 3.81) (layers F.Cu F.Paste F.Mask))
(pad 17 smd rect (at -40.63999999999996 -1.42875) (size 1.27 3.81) (layers F.Cu F.Paste F.Mask))
(pad 18 smd rect (at -38.09999999999996 1.42875) (size 1.27 3.81) (layers F.Cu F.Paste F.Mask))
(pad 19 smd rect (at -35.55999999999996 -1.42875) (size 1.27 3.81) (layers F.Cu F.Paste F.Mask))
(pad 20 smd rect (at -33.01999999999996 1.42875) (size 1.27 3.81) (layers F.Cu F.Paste F.Mask))
(pad 21 smd rect (at -30.47999999999996 -1.42875) (size 1.27 3.81) (layers F.Cu F.Paste F.Mask))
(pad 22 smd rect (at -27.939999999999962 1.42875) (size 1.27 3.81) (layers F.Cu F.Paste F.Mask))
(pad 23 smd rect (at -25.399999999999963 -1.42875) (size 1.27 3.81) (layers F.Cu F.Paste F.Mask))
(pad 24 smd rect (at -22.859999999999964 1.42875) (size 1.27 3.81) (layers F.Cu F.Paste F.Mask))
(pad 25 smd rect (at -20.319999999999965 -1.42875) (size 1.27 3.81) (layers F.Cu F.Paste F.Mask))
(pad 26 smd rect (at -17.779999999999966 1.42875) (size 1.27 3.81) (layers F.Cu F.Paste F.Mask))
(pad 27 smd rect (at -15.239999999999966 -1.42875) (size 1.27 3.81) (layers F.Cu F.Paste F.Mask))
(pad 28 smd rect (at -12.699999999999967 1.42875) (size 1.27 3.81) (layers F.Cu F.Paste F.Mask))
(pad 29 smd rect (at -10.159999999999968 -1.42875) (size 1.27 3.81) (layers F.Cu F.Paste F.Mask))
(pad 30 smd rect (at -7.619999999999968 1.42875) (size 1.27 3.81) (layers F.Cu F.Paste F.Mask))
(pad 31 smd rect (at -5.079999999999968 -1.42875) (size 1.27 3.81) (layers F.Cu F.Paste F.Mask))
(pad 32 smd rect (at -2.539999999999968 1.42875) (size 1.27 3.81) (layers F.Cu F.Paste F.Mask))
(pad 33 smd rect (at 3.197442310920451e-14 -1.42875) (size 1.27 3.81) (layers F.Cu F.Paste F.Mask))
(pad 34 smd rect (at 2.540000000000032 1.42875) (size 1.27 3.81) (layers F.Cu F.Paste F.Mask))
(pad 35 smd rect (at 5.080000000000032 -1.42875) (size 1.27 3.81) (layers F.Cu F.Paste F.Mask))
(pad 36 smd rect (at 7.620000000000032 1.42875) (size 1.27 3.81) (layers F.Cu F.Paste F.Mask))
(pad 37 smd rect (at 10.160000000000032 -1.42875) (size 1.27 3.81) (layers F.Cu F.Paste F.Mask))
(pad 38 smd rect (at 12.700000000000031 1.42875) (size 1.27 3.81) (layers F.Cu F.Paste F.Mask))
(pad 39 smd rect (at 15.24000000000003 -1.42875) (size 1.27 3.81) (layers F.Cu F.Paste F.Mask))
(pad 40 smd rect (at 17.78000000000003 1.42875) (size 1.27 3.81) (layers F.Cu F.Paste F.Mask))
(pad 41 smd rect (at 20.32000000000003 -1.42875) (size 1.27 3.81) (layers F.Cu F.Paste F.Mask))
(pad 42 smd rect (at 22.860000000000028 1.42875) (size 1.27 3.81) (layers F.Cu F.Paste F.Mask))
(pad 43 smd rect (at 25.400000000000027 -1.42875) (size 1.27 3.81) (layers F.Cu F.Paste F.Mask))
(pad 44 smd rect (at 27.940000000000026 1.42875) (size 1.27 3.81) (layers F.Cu F.Paste F.Mask))
(pad 45 smd rect (at 30.480000000000025 -1.42875) (size 1.27 3.81) (layers F.Cu F.Paste F.Mask))
(pad 46 smd rect (at 33.020000000000024 1.42875) (size 1.27 3.81) (layers F.Cu F.Paste F.Mask))
(pad 47 smd rect (at 35.560000000000024 -1.42875) (size 1.27 3.81) (layers F.Cu F.Paste F.Mask))
(pad 48 smd rect (at 38.10000000000002 1.42875) (size 1.27 3.81) (layers F.Cu F.Paste F.Mask))
(pad 49 smd rect (at 40.64000000000002 -1.42875) (size 1.27 3.81) (layers F.Cu F.Paste F.Mask))
(pad 50 smd rect (at 43.18000000000002 1.42875) (size 1.27 3.81) (layers F.Cu F.Paste F.Mask))
(pad 51 smd rect (at 45.72000000000002 -1.42875) (size 1.27 3.81) (layers F.Cu F.Paste F.Mask))
(pad 52 smd rect (at 48.26000000000002 1.42875) (size 1.27 3.81) (layers F.Cu F.Paste F.Mask))
(pad 53 smd rect (at 50.80000000000002 -1.42875) (size 1.27 3.81) (layers F.Cu F.Paste F.Mask))
(pad 54 smd rect (at 53.34000000000002 1.42875) (size 1.27 3.81) (layers F.Cu F.Paste F.Mask))
(pad 55 smd rect (at 55.88000000000002 -1.42875) (size 1.27 3.81) (layers F.Cu F.Paste F.Mask))
(pad 56 smd rect (at 58.420000000000016 1.42875) (size 1.27 3.81) (layers F.Cu F.Paste F.Mask))
(pad 57 smd rect (at 60.960000000000015 -1.42875) (size 1.27 3.81) (layers F.Cu F.Paste F.Mask))
(pad 58 smd rect (at 63.500000000000014 1.42875) (size 1.27 3.81) (layers F.Cu F.Paste F.Mask))
(pad 59 smd rect (at 66.04000000000002 -1.42875) (size 1.27 3.81) (layers F.Cu F.Paste F.Mask))
(pad 60 smd rect (at 68.58000000000003 1.42875) (size 1.27 3.81) (layers F.Cu F.Paste F.Mask))
(pad 61 smd rect (at 71.12000000000003 -1.42875) (size 1.27 3.81) (layers F.Cu F.Paste F.Mask))
(pad 62 smd rect (at 73.66000000000004 1.42875) (size 1.27 3.81) (layers F.Cu F.Paste F.Mask))
(pad 63 smd rect (at 76.20000000000005 -1.42875) (size 1.27 3.81) (layers F.Cu F.Paste F.Mask))
(pad 64 smd rect (at 78.74000000000005 1.42875) (size 1.27 3.81) (layers F.Cu F.Paste F.Mask))
(pad 65 smd rect (at 81.28000000000006 -1.42875) (size 1.27 3.81) (layers F.Cu F.Paste F.Mask))
)

