(module "Pin_Header_Straight_1x186_PITCH_1.27_SMT" (layer F.Cu) (tedit 54E7ACBD)
(fp_text reference REF** (at 0 4) (layer F.SilkS)
  (effects (font (size 1.5 1.5) (thickness 0.15)))
)
(fp_text value "Pin_Header_Straight_1x186_PITCH_1.27_SMT" (at 0 -4) (layer F.Fab)
  (effects (font (size 1.5 1.5) (thickness 0.15)))
)
(pad 1 smd rect (at -117.47500000000001 -0.714375) (size 0.635 1.905) (layers F.Cu F.Paste F.Mask))
(pad 2 smd rect (at -116.20500000000001 0.714375) (size 0.635 1.905) (layers F.Cu F.Paste F.Mask))
(pad 3 smd rect (at -114.93500000000002 -0.714375) (size 0.635 1.905) (layers F.Cu F.Paste F.Mask))
(pad 4 smd rect (at -113.66500000000002 0.714375) (size 0.635 1.905) (layers F.Cu F.Paste F.Mask))
(pad 5 smd rect (at -112.39500000000002 -0.714375) (size 0.635 1.905) (layers F.Cu F.Paste F.Mask))
(pad 6 smd rect (at -111.12500000000003 0.714375) (size 0.635 1.905) (layers F.Cu F.Paste F.Mask))
(pad 7 smd rect (at -109.85500000000003 -0.714375) (size 0.635 1.905) (layers F.Cu F.Paste F.Mask))
(pad 8 smd rect (at -108.58500000000004 0.714375) (size 0.635 1.905) (layers F.Cu F.Paste F.Mask))
(pad 9 smd rect (at -107.31500000000004 -0.714375) (size 0.635 1.905) (layers F.Cu F.Paste F.Mask))
(pad 10 smd rect (at -106.04500000000004 0.714375) (size 0.635 1.905) (layers F.Cu F.Paste F.Mask))
(pad 11 smd rect (at -104.77500000000005 -0.714375) (size 0.635 1.905) (layers F.Cu F.Paste F.Mask))
(pad 12 smd rect (at -103.50500000000005 0.714375) (size 0.635 1.905) (layers F.Cu F.Paste F.Mask))
(pad 13 smd rect (at -102.23500000000006 -0.714375) (size 0.635 1.905) (layers F.Cu F.Paste F.Mask))
(pad 14 smd rect (at -100.96500000000006 0.714375) (size 0.635 1.905) (layers F.Cu F.Paste F.Mask))
(pad 15 smd rect (at -99.69500000000006 -0.714375) (size 0.635 1.905) (layers F.Cu F.Paste F.Mask))
(pad 16 smd rect (at -98.42500000000007 0.714375) (size 0.635 1.905) (layers F.Cu F.Paste F.Mask))
(pad 17 smd rect (at -97.15500000000007 -0.714375) (size 0.635 1.905) (layers F.Cu F.Paste F.Mask))
(pad 18 smd rect (at -95.88500000000008 0.714375) (size 0.635 1.905) (layers F.Cu F.Paste F.Mask))
(pad 19 smd rect (at -94.61500000000008 -0.714375) (size 0.635 1.905) (layers F.Cu F.Paste F.Mask))
(pad 20 smd rect (at -93.34500000000008 0.714375) (size 0.635 1.905) (layers F.Cu F.Paste F.Mask))
(pad 21 smd rect (at -92.07500000000009 -0.714375) (size 0.635 1.905) (layers F.Cu F.Paste F.Mask))
(pad 22 smd rect (at -90.80500000000009 0.714375) (size 0.635 1.905) (layers F.Cu F.Paste F.Mask))
(pad 23 smd rect (at -89.5350000000001 -0.714375) (size 0.635 1.905) (layers F.Cu F.Paste F.Mask))
(pad 24 smd rect (at -88.2650000000001 0.714375) (size 0.635 1.905) (layers F.Cu F.Paste F.Mask))
(pad 25 smd rect (at -86.9950000000001 -0.714375) (size 0.635 1.905) (layers F.Cu F.Paste F.Mask))
(pad 26 smd rect (at -85.72500000000011 0.714375) (size 0.635 1.905) (layers F.Cu F.Paste F.Mask))
(pad 27 smd rect (at -84.45500000000011 -0.714375) (size 0.635 1.905) (layers F.Cu F.Paste F.Mask))
(pad 28 smd rect (at -83.18500000000012 0.714375) (size 0.635 1.905) (layers F.Cu F.Paste F.Mask))
(pad 29 smd rect (at -81.91500000000012 -0.714375) (size 0.635 1.905) (layers F.Cu F.Paste F.Mask))
(pad 30 smd rect (at -80.64500000000012 0.714375) (size 0.635 1.905) (layers F.Cu F.Paste F.Mask))
(pad 31 smd rect (at -79.37500000000013 -0.714375) (size 0.635 1.905) (layers F.Cu F.Paste F.Mask))
(pad 32 smd rect (at -78.10500000000013 0.714375) (size 0.635 1.905) (layers F.Cu F.Paste F.Mask))
(pad 33 smd rect (at -76.83500000000014 -0.714375) (size 0.635 1.905) (layers F.Cu F.Paste F.Mask))
(pad 34 smd rect (at -75.56500000000014 0.714375) (size 0.635 1.905) (layers F.Cu F.Paste F.Mask))
(pad 35 smd rect (at -74.29500000000014 -0.714375) (size 0.635 1.905) (layers F.Cu F.Paste F.Mask))
(pad 36 smd rect (at -73.02500000000015 0.714375) (size 0.635 1.905) (layers F.Cu F.Paste F.Mask))
(pad 37 smd rect (at -71.75500000000015 -0.714375) (size 0.635 1.905) (layers F.Cu F.Paste F.Mask))
(pad 38 smd rect (at -70.48500000000016 0.714375) (size 0.635 1.905) (layers F.Cu F.Paste F.Mask))
(pad 39 smd rect (at -69.21500000000016 -0.714375) (size 0.635 1.905) (layers F.Cu F.Paste F.Mask))
(pad 40 smd rect (at -67.94500000000016 0.714375) (size 0.635 1.905) (layers F.Cu F.Paste F.Mask))
(pad 41 smd rect (at -66.67500000000017 -0.714375) (size 0.635 1.905) (layers F.Cu F.Paste F.Mask))
(pad 42 smd rect (at -65.40500000000017 0.714375) (size 0.635 1.905) (layers F.Cu F.Paste F.Mask))
(pad 43 smd rect (at -64.13500000000018 -0.714375) (size 0.635 1.905) (layers F.Cu F.Paste F.Mask))
(pad 44 smd rect (at -62.86500000000017 0.714375) (size 0.635 1.905) (layers F.Cu F.Paste F.Mask))
(pad 45 smd rect (at -61.59500000000017 -0.714375) (size 0.635 1.905) (layers F.Cu F.Paste F.Mask))
(pad 46 smd rect (at -60.325000000000166 0.714375) (size 0.635 1.905) (layers F.Cu F.Paste F.Mask))
(pad 47 smd rect (at -59.05500000000016 -0.714375) (size 0.635 1.905) (layers F.Cu F.Paste F.Mask))
(pad 48 smd rect (at -57.78500000000016 0.714375) (size 0.635 1.905) (layers F.Cu F.Paste F.Mask))
(pad 49 smd rect (at -56.51500000000016 -0.714375) (size 0.635 1.905) (layers F.Cu F.Paste F.Mask))
(pad 50 smd rect (at -55.245000000000154 0.714375) (size 0.635 1.905) (layers F.Cu F.Paste F.Mask))
(pad 51 smd rect (at -53.97500000000015 -0.714375) (size 0.635 1.905) (layers F.Cu F.Paste F.Mask))
(pad 52 smd rect (at -52.70500000000015 0.714375) (size 0.635 1.905) (layers F.Cu F.Paste F.Mask))
(pad 53 smd rect (at -51.435000000000144 -0.714375) (size 0.635 1.905) (layers F.Cu F.Paste F.Mask))
(pad 54 smd rect (at -50.16500000000014 0.714375) (size 0.635 1.905) (layers F.Cu F.Paste F.Mask))
(pad 55 smd rect (at -48.89500000000014 -0.714375) (size 0.635 1.905) (layers F.Cu F.Paste F.Mask))
(pad 56 smd rect (at -47.625000000000135 0.714375) (size 0.635 1.905) (layers F.Cu F.Paste F.Mask))
(pad 57 smd rect (at -46.35500000000013 -0.714375) (size 0.635 1.905) (layers F.Cu F.Paste F.Mask))
(pad 58 smd rect (at -45.08500000000013 0.714375) (size 0.635 1.905) (layers F.Cu F.Paste F.Mask))
(pad 59 smd rect (at -43.815000000000126 -0.714375) (size 0.635 1.905) (layers F.Cu F.Paste F.Mask))
(pad 60 smd rect (at -42.54500000000012 0.714375) (size 0.635 1.905) (layers F.Cu F.Paste F.Mask))
(pad 61 smd rect (at -41.27500000000012 -0.714375) (size 0.635 1.905) (layers F.Cu F.Paste F.Mask))
(pad 62 smd rect (at -40.005000000000116 0.714375) (size 0.635 1.905) (layers F.Cu F.Paste F.Mask))
(pad 63 smd rect (at -38.73500000000011 -0.714375) (size 0.635 1.905) (layers F.Cu F.Paste F.Mask))
(pad 64 smd rect (at -37.46500000000011 0.714375) (size 0.635 1.905) (layers F.Cu F.Paste F.Mask))
(pad 65 smd rect (at -36.19500000000011 -0.714375) (size 0.635 1.905) (layers F.Cu F.Paste F.Mask))
(pad 66 smd rect (at -34.925000000000104 0.714375) (size 0.635 1.905) (layers F.Cu F.Paste F.Mask))
(pad 67 smd rect (at -33.6550000000001 -0.714375) (size 0.635 1.905) (layers F.Cu F.Paste F.Mask))
(pad 68 smd rect (at -32.3850000000001 0.714375) (size 0.635 1.905) (layers F.Cu F.Paste F.Mask))
(pad 69 smd rect (at -31.115000000000098 -0.714375) (size 0.635 1.905) (layers F.Cu F.Paste F.Mask))
(pad 70 smd rect (at -29.8450000000001 0.714375) (size 0.635 1.905) (layers F.Cu F.Paste F.Mask))
(pad 71 smd rect (at -28.5750000000001 -0.714375) (size 0.635 1.905) (layers F.Cu F.Paste F.Mask))
(pad 72 smd rect (at -27.3050000000001 0.714375) (size 0.635 1.905) (layers F.Cu F.Paste F.Mask))
(pad 73 smd rect (at -26.0350000000001 -0.714375) (size 0.635 1.905) (layers F.Cu F.Paste F.Mask))
(pad 74 smd rect (at -24.7650000000001 0.714375) (size 0.635 1.905) (layers F.Cu F.Paste F.Mask))
(pad 75 smd rect (at -23.4950000000001 -0.714375) (size 0.635 1.905) (layers F.Cu F.Paste F.Mask))
(pad 76 smd rect (at -22.2250000000001 0.714375) (size 0.635 1.905) (layers F.Cu F.Paste F.Mask))
(pad 77 smd rect (at -20.9550000000001 -0.714375) (size 0.635 1.905) (layers F.Cu F.Paste F.Mask))
(pad 78 smd rect (at -19.6850000000001 0.714375) (size 0.635 1.905) (layers F.Cu F.Paste F.Mask))
(pad 79 smd rect (at -18.415000000000102 -0.714375) (size 0.635 1.905) (layers F.Cu F.Paste F.Mask))
(pad 80 smd rect (at -17.145000000000103 0.714375) (size 0.635 1.905) (layers F.Cu F.Paste F.Mask))
(pad 81 smd rect (at -15.875000000000103 -0.714375) (size 0.635 1.905) (layers F.Cu F.Paste F.Mask))
(pad 82 smd rect (at -14.605000000000103 0.714375) (size 0.635 1.905) (layers F.Cu F.Paste F.Mask))
(pad 83 smd rect (at -13.335000000000104 -0.714375) (size 0.635 1.905) (layers F.Cu F.Paste F.Mask))
(pad 84 smd rect (at -12.065000000000104 0.714375) (size 0.635 1.905) (layers F.Cu F.Paste F.Mask))
(pad 85 smd rect (at -10.795000000000105 -0.714375) (size 0.635 1.905) (layers F.Cu F.Paste F.Mask))
(pad 86 smd rect (at -9.525000000000105 0.714375) (size 0.635 1.905) (layers F.Cu F.Paste F.Mask))
(pad 87 smd rect (at -8.255000000000106 -0.714375) (size 0.635 1.905) (layers F.Cu F.Paste F.Mask))
(pad 88 smd rect (at -6.985000000000106 0.714375) (size 0.635 1.905) (layers F.Cu F.Paste F.Mask))
(pad 89 smd rect (at -5.715000000000106 -0.714375) (size 0.635 1.905) (layers F.Cu F.Paste F.Mask))
(pad 90 smd rect (at -4.445000000000107 0.714375) (size 0.635 1.905) (layers F.Cu F.Paste F.Mask))
(pad 91 smd rect (at -3.175000000000107 -0.714375) (size 0.635 1.905) (layers F.Cu F.Paste F.Mask))
(pad 92 smd rect (at -1.9050000000001068 0.714375) (size 0.635 1.905) (layers F.Cu F.Paste F.Mask))
(pad 93 smd rect (at -0.6350000000001068 -0.714375) (size 0.635 1.905) (layers F.Cu F.Paste F.Mask))
(pad 94 smd rect (at 0.6349999999998932 0.714375) (size 0.635 1.905) (layers F.Cu F.Paste F.Mask))
(pad 95 smd rect (at 1.9049999999998932 -0.714375) (size 0.635 1.905) (layers F.Cu F.Paste F.Mask))
(pad 96 smd rect (at 3.1749999999998932 0.714375) (size 0.635 1.905) (layers F.Cu F.Paste F.Mask))
(pad 97 smd rect (at 4.444999999999894 -0.714375) (size 0.635 1.905) (layers F.Cu F.Paste F.Mask))
(pad 98 smd rect (at 5.714999999999893 0.714375) (size 0.635 1.905) (layers F.Cu F.Paste F.Mask))
(pad 99 smd rect (at 6.984999999999893 -0.714375) (size 0.635 1.905) (layers F.Cu F.Paste F.Mask))
(pad 100 smd rect (at 8.254999999999892 0.714375) (size 0.635 1.905) (layers F.Cu F.Paste F.Mask))
(pad 101 smd rect (at 9.524999999999892 -0.714375) (size 0.635 1.905) (layers F.Cu F.Paste F.Mask))
(pad 102 smd rect (at 10.794999999999892 0.714375) (size 0.635 1.905) (layers F.Cu F.Paste F.Mask))
(pad 103 smd rect (at 12.064999999999891 -0.714375) (size 0.635 1.905) (layers F.Cu F.Paste F.Mask))
(pad 104 smd rect (at 13.33499999999989 0.714375) (size 0.635 1.905) (layers F.Cu F.Paste F.Mask))
(pad 105 smd rect (at 14.60499999999989 -0.714375) (size 0.635 1.905) (layers F.Cu F.Paste F.Mask))
(pad 106 smd rect (at 15.87499999999989 0.714375) (size 0.635 1.905) (layers F.Cu F.Paste F.Mask))
(pad 107 smd rect (at 17.14499999999989 -0.714375) (size 0.635 1.905) (layers F.Cu F.Paste F.Mask))
(pad 108 smd rect (at 18.41499999999989 0.714375) (size 0.635 1.905) (layers F.Cu F.Paste F.Mask))
(pad 109 smd rect (at 19.68499999999989 -0.714375) (size 0.635 1.905) (layers F.Cu F.Paste F.Mask))
(pad 110 smd rect (at 20.954999999999888 0.714375) (size 0.635 1.905) (layers F.Cu F.Paste F.Mask))
(pad 111 smd rect (at 22.224999999999888 -0.714375) (size 0.635 1.905) (layers F.Cu F.Paste F.Mask))
(pad 112 smd rect (at 23.494999999999887 0.714375) (size 0.635 1.905) (layers F.Cu F.Paste F.Mask))
(pad 113 smd rect (at 24.764999999999887 -0.714375) (size 0.635 1.905) (layers F.Cu F.Paste F.Mask))
(pad 114 smd rect (at 26.034999999999886 0.714375) (size 0.635 1.905) (layers F.Cu F.Paste F.Mask))
(pad 115 smd rect (at 27.304999999999886 -0.714375) (size 0.635 1.905) (layers F.Cu F.Paste F.Mask))
(pad 116 smd rect (at 28.574999999999886 0.714375) (size 0.635 1.905) (layers F.Cu F.Paste F.Mask))
(pad 117 smd rect (at 29.844999999999885 -0.714375) (size 0.635 1.905) (layers F.Cu F.Paste F.Mask))
(pad 118 smd rect (at 31.114999999999885 0.714375) (size 0.635 1.905) (layers F.Cu F.Paste F.Mask))
(pad 119 smd rect (at 32.384999999999884 -0.714375) (size 0.635 1.905) (layers F.Cu F.Paste F.Mask))
(pad 120 smd rect (at 33.65499999999989 0.714375) (size 0.635 1.905) (layers F.Cu F.Paste F.Mask))
(pad 121 smd rect (at 34.92499999999989 -0.714375) (size 0.635 1.905) (layers F.Cu F.Paste F.Mask))
(pad 122 smd rect (at 36.194999999999894 0.714375) (size 0.635 1.905) (layers F.Cu F.Paste F.Mask))
(pad 123 smd rect (at 37.4649999999999 -0.714375) (size 0.635 1.905) (layers F.Cu F.Paste F.Mask))
(pad 124 smd rect (at 38.7349999999999 0.714375) (size 0.635 1.905) (layers F.Cu F.Paste F.Mask))
(pad 125 smd rect (at 40.0049999999999 -0.714375) (size 0.635 1.905) (layers F.Cu F.Paste F.Mask))
(pad 126 smd rect (at 41.274999999999906 0.714375) (size 0.635 1.905) (layers F.Cu F.Paste F.Mask))
(pad 127 smd rect (at 42.54499999999991 -0.714375) (size 0.635 1.905) (layers F.Cu F.Paste F.Mask))
(pad 128 smd rect (at 43.81499999999991 0.714375) (size 0.635 1.905) (layers F.Cu F.Paste F.Mask))
(pad 129 smd rect (at 45.084999999999916 -0.714375) (size 0.635 1.905) (layers F.Cu F.Paste F.Mask))
(pad 130 smd rect (at 46.35499999999992 0.714375) (size 0.635 1.905) (layers F.Cu F.Paste F.Mask))
(pad 131 smd rect (at 47.62499999999992 -0.714375) (size 0.635 1.905) (layers F.Cu F.Paste F.Mask))
(pad 132 smd rect (at 48.894999999999925 0.714375) (size 0.635 1.905) (layers F.Cu F.Paste F.Mask))
(pad 133 smd rect (at 50.16499999999993 -0.714375) (size 0.635 1.905) (layers F.Cu F.Paste F.Mask))
(pad 134 smd rect (at 51.43499999999993 0.714375) (size 0.635 1.905) (layers F.Cu F.Paste F.Mask))
(pad 135 smd rect (at 52.704999999999934 -0.714375) (size 0.635 1.905) (layers F.Cu F.Paste F.Mask))
(pad 136 smd rect (at 53.97499999999994 0.714375) (size 0.635 1.905) (layers F.Cu F.Paste F.Mask))
(pad 137 smd rect (at 55.24499999999994 -0.714375) (size 0.635 1.905) (layers F.Cu F.Paste F.Mask))
(pad 138 smd rect (at 56.514999999999944 0.714375) (size 0.635 1.905) (layers F.Cu F.Paste F.Mask))
(pad 139 smd rect (at 57.78499999999995 -0.714375) (size 0.635 1.905) (layers F.Cu F.Paste F.Mask))
(pad 140 smd rect (at 59.05499999999995 0.714375) (size 0.635 1.905) (layers F.Cu F.Paste F.Mask))
(pad 141 smd rect (at 60.32499999999995 -0.714375) (size 0.635 1.905) (layers F.Cu F.Paste F.Mask))
(pad 142 smd rect (at 61.594999999999956 0.714375) (size 0.635 1.905) (layers F.Cu F.Paste F.Mask))
(pad 143 smd rect (at 62.86499999999996 -0.714375) (size 0.635 1.905) (layers F.Cu F.Paste F.Mask))
(pad 144 smd rect (at 64.13499999999996 0.714375) (size 0.635 1.905) (layers F.Cu F.Paste F.Mask))
(pad 145 smd rect (at 65.40499999999996 -0.714375) (size 0.635 1.905) (layers F.Cu F.Paste F.Mask))
(pad 146 smd rect (at 66.67499999999995 0.714375) (size 0.635 1.905) (layers F.Cu F.Paste F.Mask))
(pad 147 smd rect (at 67.94499999999995 -0.714375) (size 0.635 1.905) (layers F.Cu F.Paste F.Mask))
(pad 148 smd rect (at 69.21499999999995 0.714375) (size 0.635 1.905) (layers F.Cu F.Paste F.Mask))
(pad 149 smd rect (at 70.48499999999994 -0.714375) (size 0.635 1.905) (layers F.Cu F.Paste F.Mask))
(pad 150 smd rect (at 71.75499999999994 0.714375) (size 0.635 1.905) (layers F.Cu F.Paste F.Mask))
(pad 151 smd rect (at 73.02499999999993 -0.714375) (size 0.635 1.905) (layers F.Cu F.Paste F.Mask))
(pad 152 smd rect (at 74.29499999999993 0.714375) (size 0.635 1.905) (layers F.Cu F.Paste F.Mask))
(pad 153 smd rect (at 75.56499999999993 -0.714375) (size 0.635 1.905) (layers F.Cu F.Paste F.Mask))
(pad 154 smd rect (at 76.83499999999992 0.714375) (size 0.635 1.905) (layers F.Cu F.Paste F.Mask))
(pad 155 smd rect (at 78.10499999999992 -0.714375) (size 0.635 1.905) (layers F.Cu F.Paste F.Mask))
(pad 156 smd rect (at 79.37499999999991 0.714375) (size 0.635 1.905) (layers F.Cu F.Paste F.Mask))
(pad 157 smd rect (at 80.64499999999991 -0.714375) (size 0.635 1.905) (layers F.Cu F.Paste F.Mask))
(pad 158 smd rect (at 81.9149999999999 0.714375) (size 0.635 1.905) (layers F.Cu F.Paste F.Mask))
(pad 159 smd rect (at 83.1849999999999 -0.714375) (size 0.635 1.905) (layers F.Cu F.Paste F.Mask))
(pad 160 smd rect (at 84.4549999999999 0.714375) (size 0.635 1.905) (layers F.Cu F.Paste F.Mask))
(pad 161 smd rect (at 85.7249999999999 -0.714375) (size 0.635 1.905) (layers F.Cu F.Paste F.Mask))
(pad 162 smd rect (at 86.99499999999989 0.714375) (size 0.635 1.905) (layers F.Cu F.Paste F.Mask))
(pad 163 smd rect (at 88.26499999999989 -0.714375) (size 0.635 1.905) (layers F.Cu F.Paste F.Mask))
(pad 164 smd rect (at 89.53499999999988 0.714375) (size 0.635 1.905) (layers F.Cu F.Paste F.Mask))
(pad 165 smd rect (at 90.80499999999988 -0.714375) (size 0.635 1.905) (layers F.Cu F.Paste F.Mask))
(pad 166 smd rect (at 92.07499999999987 0.714375) (size 0.635 1.905) (layers F.Cu F.Paste F.Mask))
(pad 167 smd rect (at 93.34499999999987 -0.714375) (size 0.635 1.905) (layers F.Cu F.Paste F.Mask))
(pad 168 smd rect (at 94.61499999999987 0.714375) (size 0.635 1.905) (layers F.Cu F.Paste F.Mask))
(pad 169 smd rect (at 95.88499999999986 -0.714375) (size 0.635 1.905) (layers F.Cu F.Paste F.Mask))
(pad 170 smd rect (at 97.15499999999986 0.714375) (size 0.635 1.905) (layers F.Cu F.Paste F.Mask))
(pad 171 smd rect (at 98.42499999999986 -0.714375) (size 0.635 1.905) (layers F.Cu F.Paste F.Mask))
(pad 172 smd rect (at 99.69499999999985 0.714375) (size 0.635 1.905) (layers F.Cu F.Paste F.Mask))
(pad 173 smd rect (at 100.96499999999985 -0.714375) (size 0.635 1.905) (layers F.Cu F.Paste F.Mask))
(pad 174 smd rect (at 102.23499999999984 0.714375) (size 0.635 1.905) (layers F.Cu F.Paste F.Mask))
(pad 175 smd rect (at 103.50499999999984 -0.714375) (size 0.635 1.905) (layers F.Cu F.Paste F.Mask))
(pad 176 smd rect (at 104.77499999999984 0.714375) (size 0.635 1.905) (layers F.Cu F.Paste F.Mask))
(pad 177 smd rect (at 106.04499999999983 -0.714375) (size 0.635 1.905) (layers F.Cu F.Paste F.Mask))
(pad 178 smd rect (at 107.31499999999983 0.714375) (size 0.635 1.905) (layers F.Cu F.Paste F.Mask))
(pad 179 smd rect (at 108.58499999999982 -0.714375) (size 0.635 1.905) (layers F.Cu F.Paste F.Mask))
(pad 180 smd rect (at 109.85499999999982 0.714375) (size 0.635 1.905) (layers F.Cu F.Paste F.Mask))
(pad 181 smd rect (at 111.12499999999982 -0.714375) (size 0.635 1.905) (layers F.Cu F.Paste F.Mask))
(pad 182 smd rect (at 112.39499999999981 0.714375) (size 0.635 1.905) (layers F.Cu F.Paste F.Mask))
(pad 183 smd rect (at 113.66499999999981 -0.714375) (size 0.635 1.905) (layers F.Cu F.Paste F.Mask))
(pad 184 smd rect (at 114.9349999999998 0.714375) (size 0.635 1.905) (layers F.Cu F.Paste F.Mask))
(pad 185 smd rect (at 116.2049999999998 -0.714375) (size 0.635 1.905) (layers F.Cu F.Paste F.Mask))
(pad 186 smd rect (at 117.4749999999998 0.714375) (size 0.635 1.905) (layers F.Cu F.Paste F.Mask))
)

