(module "Pin_Header_Straight_1x92_PITCH_1.27_SMT" (layer F.Cu) (tedit 54E7ACBD)
(fp_text reference REF** (at 0 4) (layer F.SilkS)
  (effects (font (size 1.5 1.5) (thickness 0.15)))
)
(fp_text value "Pin_Header_Straight_1x92_PITCH_1.27_SMT" (at 0 -4) (layer F.Fab)
  (effects (font (size 1.5 1.5) (thickness 0.15)))
)
(pad 1 smd rect (at -57.785 -0.714375) (size 0.635 1.905) (layers F.Cu F.Paste F.Mask))
(pad 2 smd rect (at -56.51499999999999 0.714375) (size 0.635 1.905) (layers F.Cu F.Paste F.Mask))
(pad 3 smd rect (at -55.24499999999999 -0.714375) (size 0.635 1.905) (layers F.Cu F.Paste F.Mask))
(pad 4 smd rect (at -53.97499999999999 0.714375) (size 0.635 1.905) (layers F.Cu F.Paste F.Mask))
(pad 5 smd rect (at -52.704999999999984 -0.714375) (size 0.635 1.905) (layers F.Cu F.Paste F.Mask))
(pad 6 smd rect (at -51.43499999999998 0.714375) (size 0.635 1.905) (layers F.Cu F.Paste F.Mask))
(pad 7 smd rect (at -50.16499999999998 -0.714375) (size 0.635 1.905) (layers F.Cu F.Paste F.Mask))
(pad 8 smd rect (at -48.894999999999975 0.714375) (size 0.635 1.905) (layers F.Cu F.Paste F.Mask))
(pad 9 smd rect (at -47.62499999999997 -0.714375) (size 0.635 1.905) (layers F.Cu F.Paste F.Mask))
(pad 10 smd rect (at -46.35499999999997 0.714375) (size 0.635 1.905) (layers F.Cu F.Paste F.Mask))
(pad 11 smd rect (at -45.084999999999965 -0.714375) (size 0.635 1.905) (layers F.Cu F.Paste F.Mask))
(pad 12 smd rect (at -43.81499999999996 0.714375) (size 0.635 1.905) (layers F.Cu F.Paste F.Mask))
(pad 13 smd rect (at -42.54499999999996 -0.714375) (size 0.635 1.905) (layers F.Cu F.Paste F.Mask))
(pad 14 smd rect (at -41.274999999999956 0.714375) (size 0.635 1.905) (layers F.Cu F.Paste F.Mask))
(pad 15 smd rect (at -40.00499999999995 -0.714375) (size 0.635 1.905) (layers F.Cu F.Paste F.Mask))
(pad 16 smd rect (at -38.73499999999995 0.714375) (size 0.635 1.905) (layers F.Cu F.Paste F.Mask))
(pad 17 smd rect (at -37.46499999999995 -0.714375) (size 0.635 1.905) (layers F.Cu F.Paste F.Mask))
(pad 18 smd rect (at -36.19499999999994 0.714375) (size 0.635 1.905) (layers F.Cu F.Paste F.Mask))
(pad 19 smd rect (at -34.92499999999994 -0.714375) (size 0.635 1.905) (layers F.Cu F.Paste F.Mask))
(pad 20 smd rect (at -33.65499999999994 0.714375) (size 0.635 1.905) (layers F.Cu F.Paste F.Mask))
(pad 21 smd rect (at -32.384999999999934 -0.714375) (size 0.635 1.905) (layers F.Cu F.Paste F.Mask))
(pad 22 smd rect (at -31.114999999999934 0.714375) (size 0.635 1.905) (layers F.Cu F.Paste F.Mask))
(pad 23 smd rect (at -29.844999999999935 -0.714375) (size 0.635 1.905) (layers F.Cu F.Paste F.Mask))
(pad 24 smd rect (at -28.574999999999935 0.714375) (size 0.635 1.905) (layers F.Cu F.Paste F.Mask))
(pad 25 smd rect (at -27.304999999999936 -0.714375) (size 0.635 1.905) (layers F.Cu F.Paste F.Mask))
(pad 26 smd rect (at -26.034999999999936 0.714375) (size 0.635 1.905) (layers F.Cu F.Paste F.Mask))
(pad 27 smd rect (at -24.764999999999937 -0.714375) (size 0.635 1.905) (layers F.Cu F.Paste F.Mask))
(pad 28 smd rect (at -23.494999999999937 0.714375) (size 0.635 1.905) (layers F.Cu F.Paste F.Mask))
(pad 29 smd rect (at -22.224999999999937 -0.714375) (size 0.635 1.905) (layers F.Cu F.Paste F.Mask))
(pad 30 smd rect (at -20.954999999999938 0.714375) (size 0.635 1.905) (layers F.Cu F.Paste F.Mask))
(pad 31 smd rect (at -19.68499999999994 -0.714375) (size 0.635 1.905) (layers F.Cu F.Paste F.Mask))
(pad 32 smd rect (at -18.41499999999994 0.714375) (size 0.635 1.905) (layers F.Cu F.Paste F.Mask))
(pad 33 smd rect (at -17.14499999999994 -0.714375) (size 0.635 1.905) (layers F.Cu F.Paste F.Mask))
(pad 34 smd rect (at -15.87499999999994 0.714375) (size 0.635 1.905) (layers F.Cu F.Paste F.Mask))
(pad 35 smd rect (at -14.60499999999994 -0.714375) (size 0.635 1.905) (layers F.Cu F.Paste F.Mask))
(pad 36 smd rect (at -13.33499999999994 0.714375) (size 0.635 1.905) (layers F.Cu F.Paste F.Mask))
(pad 37 smd rect (at -12.06499999999994 -0.714375) (size 0.635 1.905) (layers F.Cu F.Paste F.Mask))
(pad 38 smd rect (at -10.794999999999941 0.714375) (size 0.635 1.905) (layers F.Cu F.Paste F.Mask))
(pad 39 smd rect (at -9.524999999999942 -0.714375) (size 0.635 1.905) (layers F.Cu F.Paste F.Mask))
(pad 40 smd rect (at -8.254999999999942 0.714375) (size 0.635 1.905) (layers F.Cu F.Paste F.Mask))
(pad 41 smd rect (at -6.984999999999943 -0.714375) (size 0.635 1.905) (layers F.Cu F.Paste F.Mask))
(pad 42 smd rect (at -5.714999999999943 0.714375) (size 0.635 1.905) (layers F.Cu F.Paste F.Mask))
(pad 43 smd rect (at -4.444999999999943 -0.714375) (size 0.635 1.905) (layers F.Cu F.Paste F.Mask))
(pad 44 smd rect (at -3.1749999999999434 0.714375) (size 0.635 1.905) (layers F.Cu F.Paste F.Mask))
(pad 45 smd rect (at -1.9049999999999434 -0.714375) (size 0.635 1.905) (layers F.Cu F.Paste F.Mask))
(pad 46 smd rect (at -0.6349999999999434 0.714375) (size 0.635 1.905) (layers F.Cu F.Paste F.Mask))
(pad 47 smd rect (at 0.6350000000000566 -0.714375) (size 0.635 1.905) (layers F.Cu F.Paste F.Mask))
(pad 48 smd rect (at 1.9050000000000566 0.714375) (size 0.635 1.905) (layers F.Cu F.Paste F.Mask))
(pad 49 smd rect (at 3.1750000000000567 -0.714375) (size 0.635 1.905) (layers F.Cu F.Paste F.Mask))
(pad 50 smd rect (at 4.445000000000057 0.714375) (size 0.635 1.905) (layers F.Cu F.Paste F.Mask))
(pad 51 smd rect (at 5.715000000000057 -0.714375) (size 0.635 1.905) (layers F.Cu F.Paste F.Mask))
(pad 52 smd rect (at 6.985000000000056 0.714375) (size 0.635 1.905) (layers F.Cu F.Paste F.Mask))
(pad 53 smd rect (at 8.255000000000056 -0.714375) (size 0.635 1.905) (layers F.Cu F.Paste F.Mask))
(pad 54 smd rect (at 9.525000000000055 0.714375) (size 0.635 1.905) (layers F.Cu F.Paste F.Mask))
(pad 55 smd rect (at 10.795000000000055 -0.714375) (size 0.635 1.905) (layers F.Cu F.Paste F.Mask))
(pad 56 smd rect (at 12.065000000000055 0.714375) (size 0.635 1.905) (layers F.Cu F.Paste F.Mask))
(pad 57 smd rect (at 13.335000000000054 -0.714375) (size 0.635 1.905) (layers F.Cu F.Paste F.Mask))
(pad 58 smd rect (at 14.605000000000054 0.714375) (size 0.635 1.905) (layers F.Cu F.Paste F.Mask))
(pad 59 smd rect (at 15.875000000000053 -0.714375) (size 0.635 1.905) (layers F.Cu F.Paste F.Mask))
(pad 60 smd rect (at 17.145000000000053 0.714375) (size 0.635 1.905) (layers F.Cu F.Paste F.Mask))
(pad 61 smd rect (at 18.415000000000052 -0.714375) (size 0.635 1.905) (layers F.Cu F.Paste F.Mask))
(pad 62 smd rect (at 19.685000000000052 0.714375) (size 0.635 1.905) (layers F.Cu F.Paste F.Mask))
(pad 63 smd rect (at 20.95500000000005 -0.714375) (size 0.635 1.905) (layers F.Cu F.Paste F.Mask))
(pad 64 smd rect (at 22.22500000000005 0.714375) (size 0.635 1.905) (layers F.Cu F.Paste F.Mask))
(pad 65 smd rect (at 23.49500000000005 -0.714375) (size 0.635 1.905) (layers F.Cu F.Paste F.Mask))
(pad 66 smd rect (at 24.76500000000005 0.714375) (size 0.635 1.905) (layers F.Cu F.Paste F.Mask))
(pad 67 smd rect (at 26.03500000000005 -0.714375) (size 0.635 1.905) (layers F.Cu F.Paste F.Mask))
(pad 68 smd rect (at 27.30500000000005 0.714375) (size 0.635 1.905) (layers F.Cu F.Paste F.Mask))
(pad 69 smd rect (at 28.57500000000005 -0.714375) (size 0.635 1.905) (layers F.Cu F.Paste F.Mask))
(pad 70 smd rect (at 29.84500000000005 0.714375) (size 0.635 1.905) (layers F.Cu F.Paste F.Mask))
(pad 71 smd rect (at 31.115000000000048 -0.714375) (size 0.635 1.905) (layers F.Cu F.Paste F.Mask))
(pad 72 smd rect (at 32.38500000000005 0.714375) (size 0.635 1.905) (layers F.Cu F.Paste F.Mask))
(pad 73 smd rect (at 33.65500000000005 -0.714375) (size 0.635 1.905) (layers F.Cu F.Paste F.Mask))
(pad 74 smd rect (at 34.925000000000054 0.714375) (size 0.635 1.905) (layers F.Cu F.Paste F.Mask))
(pad 75 smd rect (at 36.19500000000006 -0.714375) (size 0.635 1.905) (layers F.Cu F.Paste F.Mask))
(pad 76 smd rect (at 37.46500000000006 0.714375) (size 0.635 1.905) (layers F.Cu F.Paste F.Mask))
(pad 77 smd rect (at 38.73500000000006 -0.714375) (size 0.635 1.905) (layers F.Cu F.Paste F.Mask))
(pad 78 smd rect (at 40.00500000000007 0.714375) (size 0.635 1.905) (layers F.Cu F.Paste F.Mask))
(pad 79 smd rect (at 41.27500000000007 -0.714375) (size 0.635 1.905) (layers F.Cu F.Paste F.Mask))
(pad 80 smd rect (at 42.54500000000007 0.714375) (size 0.635 1.905) (layers F.Cu F.Paste F.Mask))
(pad 81 smd rect (at 43.815000000000076 -0.714375) (size 0.635 1.905) (layers F.Cu F.Paste F.Mask))
(pad 82 smd rect (at 45.08500000000008 0.714375) (size 0.635 1.905) (layers F.Cu F.Paste F.Mask))
(pad 83 smd rect (at 46.35500000000008 -0.714375) (size 0.635 1.905) (layers F.Cu F.Paste F.Mask))
(pad 84 smd rect (at 47.625000000000085 0.714375) (size 0.635 1.905) (layers F.Cu F.Paste F.Mask))
(pad 85 smd rect (at 48.89500000000009 -0.714375) (size 0.635 1.905) (layers F.Cu F.Paste F.Mask))
(pad 86 smd rect (at 50.16500000000009 0.714375) (size 0.635 1.905) (layers F.Cu F.Paste F.Mask))
(pad 87 smd rect (at 51.435000000000095 -0.714375) (size 0.635 1.905) (layers F.Cu F.Paste F.Mask))
(pad 88 smd rect (at 52.7050000000001 0.714375) (size 0.635 1.905) (layers F.Cu F.Paste F.Mask))
(pad 89 smd rect (at 53.9750000000001 -0.714375) (size 0.635 1.905) (layers F.Cu F.Paste F.Mask))
(pad 90 smd rect (at 55.245000000000104 0.714375) (size 0.635 1.905) (layers F.Cu F.Paste F.Mask))
(pad 91 smd rect (at 56.51500000000011 -0.714375) (size 0.635 1.905) (layers F.Cu F.Paste F.Mask))
(pad 92 smd rect (at 57.78500000000011 0.714375) (size 0.635 1.905) (layers F.Cu F.Paste F.Mask))
)

