(module "Pin_Header_Straight_1x30_PITCH_2_SMT" (layer F.Cu) (tedit 54E7ACBD)
(fp_text reference REF** (at 0 4) (layer F.SilkS)
  (effects (font (size 1.5 1.5) (thickness 0.15)))
)
(fp_text value "Pin_Header_Straight_1x30_PITCH_2_SMT" (at 0 -4) (layer F.Fab)
  (effects (font (size 1.5 1.5) (thickness 0.15)))
)
(fp_line (start -30 -1) (end  30 -1) (layer F.SilkS) (width 0.15))
(fp_line (start  30 -1) (end  30  1) (layer F.SilkS) (width 0.15))
(fp_line (start  30  1) (end -30  1) (layer F.SilkS) (width 0.15))
(fp_line (start -30  1) (end -30 -1) (layer F.SilkS) (width 0.15))
(pad 1 smd rect (at -29 -1.125) (size 1 3) (layers F.Cu F.Paste F.Mask))
(pad 2 smd rect (at -27 1.125) (size 1 3) (layers F.Cu F.Paste F.Mask))
(pad 3 smd rect (at -25 -1.125) (size 1 3) (layers F.Cu F.Paste F.Mask))
(pad 4 smd rect (at -23 1.125) (size 1 3) (layers F.Cu F.Paste F.Mask))
(pad 5 smd rect (at -21 -1.125) (size 1 3) (layers F.Cu F.Paste F.Mask))
(pad 6 smd rect (at -19 1.125) (size 1 3) (layers F.Cu F.Paste F.Mask))
(pad 7 smd rect (at -17 -1.125) (size 1 3) (layers F.Cu F.Paste F.Mask))
(pad 8 smd rect (at -15 1.125) (size 1 3) (layers F.Cu F.Paste F.Mask))
(pad 9 smd rect (at -13 -1.125) (size 1 3) (layers F.Cu F.Paste F.Mask))
(pad 10 smd rect (at -11 1.125) (size 1 3) (layers F.Cu F.Paste F.Mask))
(pad 11 smd rect (at -9 -1.125) (size 1 3) (layers F.Cu F.Paste F.Mask))
(pad 12 smd rect (at -7 1.125) (size 1 3) (layers F.Cu F.Paste F.Mask))
(pad 13 smd rect (at -5 -1.125) (size 1 3) (layers F.Cu F.Paste F.Mask))
(pad 14 smd rect (at -3 1.125) (size 1 3) (layers F.Cu F.Paste F.Mask))
(pad 15 smd rect (at -1 -1.125) (size 1 3) (layers F.Cu F.Paste F.Mask))
(pad 16 smd rect (at 1 1.125) (size 1 3) (layers F.Cu F.Paste F.Mask))
(pad 17 smd rect (at 3 -1.125) (size 1 3) (layers F.Cu F.Paste F.Mask))
(pad 18 smd rect (at 5 1.125) (size 1 3) (layers F.Cu F.Paste F.Mask))
(pad 19 smd rect (at 7 -1.125) (size 1 3) (layers F.Cu F.Paste F.Mask))
(pad 20 smd rect (at 9 1.125) (size 1 3) (layers F.Cu F.Paste F.Mask))
(pad 21 smd rect (at 11 -1.125) (size 1 3) (layers F.Cu F.Paste F.Mask))
(pad 22 smd rect (at 13 1.125) (size 1 3) (layers F.Cu F.Paste F.Mask))
(pad 23 smd rect (at 15 -1.125) (size 1 3) (layers F.Cu F.Paste F.Mask))
(pad 24 smd rect (at 17 1.125) (size 1 3) (layers F.Cu F.Paste F.Mask))
(pad 25 smd rect (at 19 -1.125) (size 1 3) (layers F.Cu F.Paste F.Mask))
(pad 26 smd rect (at 21 1.125) (size 1 3) (layers F.Cu F.Paste F.Mask))
(pad 27 smd rect (at 23 -1.125) (size 1 3) (layers F.Cu F.Paste F.Mask))
(pad 28 smd rect (at 25 1.125) (size 1 3) (layers F.Cu F.Paste F.Mask))
(pad 29 smd rect (at 27 -1.125) (size 1 3) (layers F.Cu F.Paste F.Mask))
(pad 30 smd rect (at 29 1.125) (size 1 3) (layers F.Cu F.Paste F.Mask))
)

