(module "Pin_Header_Straight_1x183_PITCH_1.27_SMT" (layer F.Cu) (tedit 54E7ACBD)
(fp_text reference REF** (at 0 4) (layer F.SilkS)
  (effects (font (size 1.5 1.5) (thickness 0.15)))
)
(fp_text value "Pin_Header_Straight_1x183_PITCH_1.27_SMT" (at 0 -4) (layer F.Fab)
  (effects (font (size 1.5 1.5) (thickness 0.15)))
)
(pad 1 smd rect (at -115.57000000000001 -0.714375) (size 0.635 1.905) (layers F.Cu F.Paste F.Mask))
(pad 2 smd rect (at -114.30000000000001 0.714375) (size 0.635 1.905) (layers F.Cu F.Paste F.Mask))
(pad 3 smd rect (at -113.03000000000002 -0.714375) (size 0.635 1.905) (layers F.Cu F.Paste F.Mask))
(pad 4 smd rect (at -111.76000000000002 0.714375) (size 0.635 1.905) (layers F.Cu F.Paste F.Mask))
(pad 5 smd rect (at -110.49000000000002 -0.714375) (size 0.635 1.905) (layers F.Cu F.Paste F.Mask))
(pad 6 smd rect (at -109.22000000000003 0.714375) (size 0.635 1.905) (layers F.Cu F.Paste F.Mask))
(pad 7 smd rect (at -107.95000000000003 -0.714375) (size 0.635 1.905) (layers F.Cu F.Paste F.Mask))
(pad 8 smd rect (at -106.68000000000004 0.714375) (size 0.635 1.905) (layers F.Cu F.Paste F.Mask))
(pad 9 smd rect (at -105.41000000000004 -0.714375) (size 0.635 1.905) (layers F.Cu F.Paste F.Mask))
(pad 10 smd rect (at -104.14000000000004 0.714375) (size 0.635 1.905) (layers F.Cu F.Paste F.Mask))
(pad 11 smd rect (at -102.87000000000005 -0.714375) (size 0.635 1.905) (layers F.Cu F.Paste F.Mask))
(pad 12 smd rect (at -101.60000000000005 0.714375) (size 0.635 1.905) (layers F.Cu F.Paste F.Mask))
(pad 13 smd rect (at -100.33000000000006 -0.714375) (size 0.635 1.905) (layers F.Cu F.Paste F.Mask))
(pad 14 smd rect (at -99.06000000000006 0.714375) (size 0.635 1.905) (layers F.Cu F.Paste F.Mask))
(pad 15 smd rect (at -97.79000000000006 -0.714375) (size 0.635 1.905) (layers F.Cu F.Paste F.Mask))
(pad 16 smd rect (at -96.52000000000007 0.714375) (size 0.635 1.905) (layers F.Cu F.Paste F.Mask))
(pad 17 smd rect (at -95.25000000000007 -0.714375) (size 0.635 1.905) (layers F.Cu F.Paste F.Mask))
(pad 18 smd rect (at -93.98000000000008 0.714375) (size 0.635 1.905) (layers F.Cu F.Paste F.Mask))
(pad 19 smd rect (at -92.71000000000008 -0.714375) (size 0.635 1.905) (layers F.Cu F.Paste F.Mask))
(pad 20 smd rect (at -91.44000000000008 0.714375) (size 0.635 1.905) (layers F.Cu F.Paste F.Mask))
(pad 21 smd rect (at -90.17000000000009 -0.714375) (size 0.635 1.905) (layers F.Cu F.Paste F.Mask))
(pad 22 smd rect (at -88.90000000000009 0.714375) (size 0.635 1.905) (layers F.Cu F.Paste F.Mask))
(pad 23 smd rect (at -87.6300000000001 -0.714375) (size 0.635 1.905) (layers F.Cu F.Paste F.Mask))
(pad 24 smd rect (at -86.3600000000001 0.714375) (size 0.635 1.905) (layers F.Cu F.Paste F.Mask))
(pad 25 smd rect (at -85.0900000000001 -0.714375) (size 0.635 1.905) (layers F.Cu F.Paste F.Mask))
(pad 26 smd rect (at -83.8200000000001 0.714375) (size 0.635 1.905) (layers F.Cu F.Paste F.Mask))
(pad 27 smd rect (at -82.55000000000011 -0.714375) (size 0.635 1.905) (layers F.Cu F.Paste F.Mask))
(pad 28 smd rect (at -81.28000000000011 0.714375) (size 0.635 1.905) (layers F.Cu F.Paste F.Mask))
(pad 29 smd rect (at -80.01000000000012 -0.714375) (size 0.635 1.905) (layers F.Cu F.Paste F.Mask))
(pad 30 smd rect (at -78.74000000000012 0.714375) (size 0.635 1.905) (layers F.Cu F.Paste F.Mask))
(pad 31 smd rect (at -77.47000000000013 -0.714375) (size 0.635 1.905) (layers F.Cu F.Paste F.Mask))
(pad 32 smd rect (at -76.20000000000013 0.714375) (size 0.635 1.905) (layers F.Cu F.Paste F.Mask))
(pad 33 smd rect (at -74.93000000000013 -0.714375) (size 0.635 1.905) (layers F.Cu F.Paste F.Mask))
(pad 34 smd rect (at -73.66000000000014 0.714375) (size 0.635 1.905) (layers F.Cu F.Paste F.Mask))
(pad 35 smd rect (at -72.39000000000014 -0.714375) (size 0.635 1.905) (layers F.Cu F.Paste F.Mask))
(pad 36 smd rect (at -71.12000000000015 0.714375) (size 0.635 1.905) (layers F.Cu F.Paste F.Mask))
(pad 37 smd rect (at -69.85000000000015 -0.714375) (size 0.635 1.905) (layers F.Cu F.Paste F.Mask))
(pad 38 smd rect (at -68.58000000000015 0.714375) (size 0.635 1.905) (layers F.Cu F.Paste F.Mask))
(pad 39 smd rect (at -67.31000000000016 -0.714375) (size 0.635 1.905) (layers F.Cu F.Paste F.Mask))
(pad 40 smd rect (at -66.04000000000016 0.714375) (size 0.635 1.905) (layers F.Cu F.Paste F.Mask))
(pad 41 smd rect (at -64.77000000000017 -0.714375) (size 0.635 1.905) (layers F.Cu F.Paste F.Mask))
(pad 42 smd rect (at -63.50000000000016 0.714375) (size 0.635 1.905) (layers F.Cu F.Paste F.Mask))
(pad 43 smd rect (at -62.23000000000016 -0.714375) (size 0.635 1.905) (layers F.Cu F.Paste F.Mask))
(pad 44 smd rect (at -60.96000000000016 0.714375) (size 0.635 1.905) (layers F.Cu F.Paste F.Mask))
(pad 45 smd rect (at -59.690000000000154 -0.714375) (size 0.635 1.905) (layers F.Cu F.Paste F.Mask))
(pad 46 smd rect (at -58.42000000000015 0.714375) (size 0.635 1.905) (layers F.Cu F.Paste F.Mask))
(pad 47 smd rect (at -57.15000000000015 -0.714375) (size 0.635 1.905) (layers F.Cu F.Paste F.Mask))
(pad 48 smd rect (at -55.880000000000145 0.714375) (size 0.635 1.905) (layers F.Cu F.Paste F.Mask))
(pad 49 smd rect (at -54.61000000000014 -0.714375) (size 0.635 1.905) (layers F.Cu F.Paste F.Mask))
(pad 50 smd rect (at -53.34000000000014 0.714375) (size 0.635 1.905) (layers F.Cu F.Paste F.Mask))
(pad 51 smd rect (at -52.070000000000135 -0.714375) (size 0.635 1.905) (layers F.Cu F.Paste F.Mask))
(pad 52 smd rect (at -50.80000000000013 0.714375) (size 0.635 1.905) (layers F.Cu F.Paste F.Mask))
(pad 53 smd rect (at -49.53000000000013 -0.714375) (size 0.635 1.905) (layers F.Cu F.Paste F.Mask))
(pad 54 smd rect (at -48.260000000000126 0.714375) (size 0.635 1.905) (layers F.Cu F.Paste F.Mask))
(pad 55 smd rect (at -46.99000000000012 -0.714375) (size 0.635 1.905) (layers F.Cu F.Paste F.Mask))
(pad 56 smd rect (at -45.72000000000012 0.714375) (size 0.635 1.905) (layers F.Cu F.Paste F.Mask))
(pad 57 smd rect (at -44.45000000000012 -0.714375) (size 0.635 1.905) (layers F.Cu F.Paste F.Mask))
(pad 58 smd rect (at -43.18000000000011 0.714375) (size 0.635 1.905) (layers F.Cu F.Paste F.Mask))
(pad 59 smd rect (at -41.91000000000011 -0.714375) (size 0.635 1.905) (layers F.Cu F.Paste F.Mask))
(pad 60 smd rect (at -40.64000000000011 0.714375) (size 0.635 1.905) (layers F.Cu F.Paste F.Mask))
(pad 61 smd rect (at -39.370000000000104 -0.714375) (size 0.635 1.905) (layers F.Cu F.Paste F.Mask))
(pad 62 smd rect (at -38.1000000000001 0.714375) (size 0.635 1.905) (layers F.Cu F.Paste F.Mask))
(pad 63 smd rect (at -36.8300000000001 -0.714375) (size 0.635 1.905) (layers F.Cu F.Paste F.Mask))
(pad 64 smd rect (at -35.560000000000095 0.714375) (size 0.635 1.905) (layers F.Cu F.Paste F.Mask))
(pad 65 smd rect (at -34.29000000000009 -0.714375) (size 0.635 1.905) (layers F.Cu F.Paste F.Mask))
(pad 66 smd rect (at -33.02000000000009 0.714375) (size 0.635 1.905) (layers F.Cu F.Paste F.Mask))
(pad 67 smd rect (at -31.75000000000009 -0.714375) (size 0.635 1.905) (layers F.Cu F.Paste F.Mask))
(pad 68 smd rect (at -30.48000000000009 0.714375) (size 0.635 1.905) (layers F.Cu F.Paste F.Mask))
(pad 69 smd rect (at -29.21000000000009 -0.714375) (size 0.635 1.905) (layers F.Cu F.Paste F.Mask))
(pad 70 smd rect (at -27.94000000000009 0.714375) (size 0.635 1.905) (layers F.Cu F.Paste F.Mask))
(pad 71 smd rect (at -26.67000000000009 -0.714375) (size 0.635 1.905) (layers F.Cu F.Paste F.Mask))
(pad 72 smd rect (at -25.40000000000009 0.714375) (size 0.635 1.905) (layers F.Cu F.Paste F.Mask))
(pad 73 smd rect (at -24.13000000000009 -0.714375) (size 0.635 1.905) (layers F.Cu F.Paste F.Mask))
(pad 74 smd rect (at -22.860000000000092 0.714375) (size 0.635 1.905) (layers F.Cu F.Paste F.Mask))
(pad 75 smd rect (at -21.590000000000092 -0.714375) (size 0.635 1.905) (layers F.Cu F.Paste F.Mask))
(pad 76 smd rect (at -20.320000000000093 0.714375) (size 0.635 1.905) (layers F.Cu F.Paste F.Mask))
(pad 77 smd rect (at -19.050000000000093 -0.714375) (size 0.635 1.905) (layers F.Cu F.Paste F.Mask))
(pad 78 smd rect (at -17.780000000000094 0.714375) (size 0.635 1.905) (layers F.Cu F.Paste F.Mask))
(pad 79 smd rect (at -16.510000000000094 -0.714375) (size 0.635 1.905) (layers F.Cu F.Paste F.Mask))
(pad 80 smd rect (at -15.240000000000094 0.714375) (size 0.635 1.905) (layers F.Cu F.Paste F.Mask))
(pad 81 smd rect (at -13.970000000000095 -0.714375) (size 0.635 1.905) (layers F.Cu F.Paste F.Mask))
(pad 82 smd rect (at -12.700000000000095 0.714375) (size 0.635 1.905) (layers F.Cu F.Paste F.Mask))
(pad 83 smd rect (at -11.430000000000096 -0.714375) (size 0.635 1.905) (layers F.Cu F.Paste F.Mask))
(pad 84 smd rect (at -10.160000000000096 0.714375) (size 0.635 1.905) (layers F.Cu F.Paste F.Mask))
(pad 85 smd rect (at -8.890000000000096 -0.714375) (size 0.635 1.905) (layers F.Cu F.Paste F.Mask))
(pad 86 smd rect (at -7.620000000000097 0.714375) (size 0.635 1.905) (layers F.Cu F.Paste F.Mask))
(pad 87 smd rect (at -6.350000000000097 -0.714375) (size 0.635 1.905) (layers F.Cu F.Paste F.Mask))
(pad 88 smd rect (at -5.080000000000098 0.714375) (size 0.635 1.905) (layers F.Cu F.Paste F.Mask))
(pad 89 smd rect (at -3.8100000000000978 -0.714375) (size 0.635 1.905) (layers F.Cu F.Paste F.Mask))
(pad 90 smd rect (at -2.5400000000000977 0.714375) (size 0.635 1.905) (layers F.Cu F.Paste F.Mask))
(pad 91 smd rect (at -1.2700000000000977 -0.714375) (size 0.635 1.905) (layers F.Cu F.Paste F.Mask))
(pad 92 smd rect (at -9.769962616701378e-14 0.714375) (size 0.635 1.905) (layers F.Cu F.Paste F.Mask))
(pad 93 smd rect (at 1.2699999999999023 -0.714375) (size 0.635 1.905) (layers F.Cu F.Paste F.Mask))
(pad 94 smd rect (at 2.5399999999999023 0.714375) (size 0.635 1.905) (layers F.Cu F.Paste F.Mask))
(pad 95 smd rect (at 3.8099999999999024 -0.714375) (size 0.635 1.905) (layers F.Cu F.Paste F.Mask))
(pad 96 smd rect (at 5.079999999999902 0.714375) (size 0.635 1.905) (layers F.Cu F.Paste F.Mask))
(pad 97 smd rect (at 6.349999999999902 -0.714375) (size 0.635 1.905) (layers F.Cu F.Paste F.Mask))
(pad 98 smd rect (at 7.6199999999999015 0.714375) (size 0.635 1.905) (layers F.Cu F.Paste F.Mask))
(pad 99 smd rect (at 8.889999999999901 -0.714375) (size 0.635 1.905) (layers F.Cu F.Paste F.Mask))
(pad 100 smd rect (at 10.1599999999999 0.714375) (size 0.635 1.905) (layers F.Cu F.Paste F.Mask))
(pad 101 smd rect (at 11.4299999999999 -0.714375) (size 0.635 1.905) (layers F.Cu F.Paste F.Mask))
(pad 102 smd rect (at 12.6999999999999 0.714375) (size 0.635 1.905) (layers F.Cu F.Paste F.Mask))
(pad 103 smd rect (at 13.9699999999999 -0.714375) (size 0.635 1.905) (layers F.Cu F.Paste F.Mask))
(pad 104 smd rect (at 15.239999999999899 0.714375) (size 0.635 1.905) (layers F.Cu F.Paste F.Mask))
(pad 105 smd rect (at 16.5099999999999 -0.714375) (size 0.635 1.905) (layers F.Cu F.Paste F.Mask))
(pad 106 smd rect (at 17.779999999999898 0.714375) (size 0.635 1.905) (layers F.Cu F.Paste F.Mask))
(pad 107 smd rect (at 19.049999999999898 -0.714375) (size 0.635 1.905) (layers F.Cu F.Paste F.Mask))
(pad 108 smd rect (at 20.319999999999897 0.714375) (size 0.635 1.905) (layers F.Cu F.Paste F.Mask))
(pad 109 smd rect (at 21.589999999999897 -0.714375) (size 0.635 1.905) (layers F.Cu F.Paste F.Mask))
(pad 110 smd rect (at 22.859999999999896 0.714375) (size 0.635 1.905) (layers F.Cu F.Paste F.Mask))
(pad 111 smd rect (at 24.129999999999896 -0.714375) (size 0.635 1.905) (layers F.Cu F.Paste F.Mask))
(pad 112 smd rect (at 25.399999999999896 0.714375) (size 0.635 1.905) (layers F.Cu F.Paste F.Mask))
(pad 113 smd rect (at 26.669999999999895 -0.714375) (size 0.635 1.905) (layers F.Cu F.Paste F.Mask))
(pad 114 smd rect (at 27.939999999999895 0.714375) (size 0.635 1.905) (layers F.Cu F.Paste F.Mask))
(pad 115 smd rect (at 29.209999999999894 -0.714375) (size 0.635 1.905) (layers F.Cu F.Paste F.Mask))
(pad 116 smd rect (at 30.479999999999894 0.714375) (size 0.635 1.905) (layers F.Cu F.Paste F.Mask))
(pad 117 smd rect (at 31.749999999999893 -0.714375) (size 0.635 1.905) (layers F.Cu F.Paste F.Mask))
(pad 118 smd rect (at 33.0199999999999 0.714375) (size 0.635 1.905) (layers F.Cu F.Paste F.Mask))
(pad 119 smd rect (at 34.2899999999999 -0.714375) (size 0.635 1.905) (layers F.Cu F.Paste F.Mask))
(pad 120 smd rect (at 35.5599999999999 0.714375) (size 0.635 1.905) (layers F.Cu F.Paste F.Mask))
(pad 121 smd rect (at 36.829999999999906 -0.714375) (size 0.635 1.905) (layers F.Cu F.Paste F.Mask))
(pad 122 smd rect (at 38.09999999999991 0.714375) (size 0.635 1.905) (layers F.Cu F.Paste F.Mask))
(pad 123 smd rect (at 39.36999999999991 -0.714375) (size 0.635 1.905) (layers F.Cu F.Paste F.Mask))
(pad 124 smd rect (at 40.639999999999915 0.714375) (size 0.635 1.905) (layers F.Cu F.Paste F.Mask))
(pad 125 smd rect (at 41.90999999999992 -0.714375) (size 0.635 1.905) (layers F.Cu F.Paste F.Mask))
(pad 126 smd rect (at 43.17999999999992 0.714375) (size 0.635 1.905) (layers F.Cu F.Paste F.Mask))
(pad 127 smd rect (at 44.449999999999925 -0.714375) (size 0.635 1.905) (layers F.Cu F.Paste F.Mask))
(pad 128 smd rect (at 45.71999999999993 0.714375) (size 0.635 1.905) (layers F.Cu F.Paste F.Mask))
(pad 129 smd rect (at 46.98999999999993 -0.714375) (size 0.635 1.905) (layers F.Cu F.Paste F.Mask))
(pad 130 smd rect (at 48.259999999999934 0.714375) (size 0.635 1.905) (layers F.Cu F.Paste F.Mask))
(pad 131 smd rect (at 49.52999999999994 -0.714375) (size 0.635 1.905) (layers F.Cu F.Paste F.Mask))
(pad 132 smd rect (at 50.79999999999994 0.714375) (size 0.635 1.905) (layers F.Cu F.Paste F.Mask))
(pad 133 smd rect (at 52.06999999999994 -0.714375) (size 0.635 1.905) (layers F.Cu F.Paste F.Mask))
(pad 134 smd rect (at 53.33999999999995 0.714375) (size 0.635 1.905) (layers F.Cu F.Paste F.Mask))
(pad 135 smd rect (at 54.60999999999995 -0.714375) (size 0.635 1.905) (layers F.Cu F.Paste F.Mask))
(pad 136 smd rect (at 55.87999999999995 0.714375) (size 0.635 1.905) (layers F.Cu F.Paste F.Mask))
(pad 137 smd rect (at 57.149999999999956 -0.714375) (size 0.635 1.905) (layers F.Cu F.Paste F.Mask))
(pad 138 smd rect (at 58.41999999999996 0.714375) (size 0.635 1.905) (layers F.Cu F.Paste F.Mask))
(pad 139 smd rect (at 59.68999999999996 -0.714375) (size 0.635 1.905) (layers F.Cu F.Paste F.Mask))
(pad 140 smd rect (at 60.959999999999965 0.714375) (size 0.635 1.905) (layers F.Cu F.Paste F.Mask))
(pad 141 smd rect (at 62.22999999999997 -0.714375) (size 0.635 1.905) (layers F.Cu F.Paste F.Mask))
(pad 142 smd rect (at 63.49999999999997 0.714375) (size 0.635 1.905) (layers F.Cu F.Paste F.Mask))
(pad 143 smd rect (at 64.76999999999997 -0.714375) (size 0.635 1.905) (layers F.Cu F.Paste F.Mask))
(pad 144 smd rect (at 66.03999999999996 0.714375) (size 0.635 1.905) (layers F.Cu F.Paste F.Mask))
(pad 145 smd rect (at 67.30999999999996 -0.714375) (size 0.635 1.905) (layers F.Cu F.Paste F.Mask))
(pad 146 smd rect (at 68.57999999999996 0.714375) (size 0.635 1.905) (layers F.Cu F.Paste F.Mask))
(pad 147 smd rect (at 69.84999999999995 -0.714375) (size 0.635 1.905) (layers F.Cu F.Paste F.Mask))
(pad 148 smd rect (at 71.11999999999995 0.714375) (size 0.635 1.905) (layers F.Cu F.Paste F.Mask))
(pad 149 smd rect (at 72.38999999999994 -0.714375) (size 0.635 1.905) (layers F.Cu F.Paste F.Mask))
(pad 150 smd rect (at 73.65999999999994 0.714375) (size 0.635 1.905) (layers F.Cu F.Paste F.Mask))
(pad 151 smd rect (at 74.92999999999994 -0.714375) (size 0.635 1.905) (layers F.Cu F.Paste F.Mask))
(pad 152 smd rect (at 76.19999999999993 0.714375) (size 0.635 1.905) (layers F.Cu F.Paste F.Mask))
(pad 153 smd rect (at 77.46999999999993 -0.714375) (size 0.635 1.905) (layers F.Cu F.Paste F.Mask))
(pad 154 smd rect (at 78.73999999999992 0.714375) (size 0.635 1.905) (layers F.Cu F.Paste F.Mask))
(pad 155 smd rect (at 80.00999999999992 -0.714375) (size 0.635 1.905) (layers F.Cu F.Paste F.Mask))
(pad 156 smd rect (at 81.27999999999992 0.714375) (size 0.635 1.905) (layers F.Cu F.Paste F.Mask))
(pad 157 smd rect (at 82.54999999999991 -0.714375) (size 0.635 1.905) (layers F.Cu F.Paste F.Mask))
(pad 158 smd rect (at 83.81999999999991 0.714375) (size 0.635 1.905) (layers F.Cu F.Paste F.Mask))
(pad 159 smd rect (at 85.0899999999999 -0.714375) (size 0.635 1.905) (layers F.Cu F.Paste F.Mask))
(pad 160 smd rect (at 86.3599999999999 0.714375) (size 0.635 1.905) (layers F.Cu F.Paste F.Mask))
(pad 161 smd rect (at 87.6299999999999 -0.714375) (size 0.635 1.905) (layers F.Cu F.Paste F.Mask))
(pad 162 smd rect (at 88.89999999999989 0.714375) (size 0.635 1.905) (layers F.Cu F.Paste F.Mask))
(pad 163 smd rect (at 90.16999999999989 -0.714375) (size 0.635 1.905) (layers F.Cu F.Paste F.Mask))
(pad 164 smd rect (at 91.43999999999988 0.714375) (size 0.635 1.905) (layers F.Cu F.Paste F.Mask))
(pad 165 smd rect (at 92.70999999999988 -0.714375) (size 0.635 1.905) (layers F.Cu F.Paste F.Mask))
(pad 166 smd rect (at 93.97999999999988 0.714375) (size 0.635 1.905) (layers F.Cu F.Paste F.Mask))
(pad 167 smd rect (at 95.24999999999987 -0.714375) (size 0.635 1.905) (layers F.Cu F.Paste F.Mask))
(pad 168 smd rect (at 96.51999999999987 0.714375) (size 0.635 1.905) (layers F.Cu F.Paste F.Mask))
(pad 169 smd rect (at 97.78999999999986 -0.714375) (size 0.635 1.905) (layers F.Cu F.Paste F.Mask))
(pad 170 smd rect (at 99.05999999999986 0.714375) (size 0.635 1.905) (layers F.Cu F.Paste F.Mask))
(pad 171 smd rect (at 100.32999999999986 -0.714375) (size 0.635 1.905) (layers F.Cu F.Paste F.Mask))
(pad 172 smd rect (at 101.59999999999985 0.714375) (size 0.635 1.905) (layers F.Cu F.Paste F.Mask))
(pad 173 smd rect (at 102.86999999999985 -0.714375) (size 0.635 1.905) (layers F.Cu F.Paste F.Mask))
(pad 174 smd rect (at 104.13999999999984 0.714375) (size 0.635 1.905) (layers F.Cu F.Paste F.Mask))
(pad 175 smd rect (at 105.40999999999984 -0.714375) (size 0.635 1.905) (layers F.Cu F.Paste F.Mask))
(pad 176 smd rect (at 106.67999999999984 0.714375) (size 0.635 1.905) (layers F.Cu F.Paste F.Mask))
(pad 177 smd rect (at 107.94999999999983 -0.714375) (size 0.635 1.905) (layers F.Cu F.Paste F.Mask))
(pad 178 smd rect (at 109.21999999999983 0.714375) (size 0.635 1.905) (layers F.Cu F.Paste F.Mask))
(pad 179 smd rect (at 110.48999999999982 -0.714375) (size 0.635 1.905) (layers F.Cu F.Paste F.Mask))
(pad 180 smd rect (at 111.75999999999982 0.714375) (size 0.635 1.905) (layers F.Cu F.Paste F.Mask))
(pad 181 smd rect (at 113.02999999999982 -0.714375) (size 0.635 1.905) (layers F.Cu F.Paste F.Mask))
(pad 182 smd rect (at 114.29999999999981 0.714375) (size 0.635 1.905) (layers F.Cu F.Paste F.Mask))
(pad 183 smd rect (at 115.56999999999981 -0.714375) (size 0.635 1.905) (layers F.Cu F.Paste F.Mask))
)

