(module "Pin_Header_Straight_1x177_PITCH_2_SMT" (layer F.Cu) (tedit 54E7ACBD)
(fp_text reference REF** (at 0 4) (layer F.SilkS)
  (effects (font (size 1.5 1.5) (thickness 0.15)))
)
(fp_text value "Pin_Header_Straight_1x177_PITCH_2_SMT" (at 0 -4) (layer F.Fab)
  (effects (font (size 1.5 1.5) (thickness 0.15)))
)
(pad 1 smd rect (at -176 -1.125) (size 1 3) (layers F.Cu F.Paste F.Mask))
(pad 2 smd rect (at -174 1.125) (size 1 3) (layers F.Cu F.Paste F.Mask))
(pad 3 smd rect (at -172 -1.125) (size 1 3) (layers F.Cu F.Paste F.Mask))
(pad 4 smd rect (at -170 1.125) (size 1 3) (layers F.Cu F.Paste F.Mask))
(pad 5 smd rect (at -168 -1.125) (size 1 3) (layers F.Cu F.Paste F.Mask))
(pad 6 smd rect (at -166 1.125) (size 1 3) (layers F.Cu F.Paste F.Mask))
(pad 7 smd rect (at -164 -1.125) (size 1 3) (layers F.Cu F.Paste F.Mask))
(pad 8 smd rect (at -162 1.125) (size 1 3) (layers F.Cu F.Paste F.Mask))
(pad 9 smd rect (at -160 -1.125) (size 1 3) (layers F.Cu F.Paste F.Mask))
(pad 10 smd rect (at -158 1.125) (size 1 3) (layers F.Cu F.Paste F.Mask))
(pad 11 smd rect (at -156 -1.125) (size 1 3) (layers F.Cu F.Paste F.Mask))
(pad 12 smd rect (at -154 1.125) (size 1 3) (layers F.Cu F.Paste F.Mask))
(pad 13 smd rect (at -152 -1.125) (size 1 3) (layers F.Cu F.Paste F.Mask))
(pad 14 smd rect (at -150 1.125) (size 1 3) (layers F.Cu F.Paste F.Mask))
(pad 15 smd rect (at -148 -1.125) (size 1 3) (layers F.Cu F.Paste F.Mask))
(pad 16 smd rect (at -146 1.125) (size 1 3) (layers F.Cu F.Paste F.Mask))
(pad 17 smd rect (at -144 -1.125) (size 1 3) (layers F.Cu F.Paste F.Mask))
(pad 18 smd rect (at -142 1.125) (size 1 3) (layers F.Cu F.Paste F.Mask))
(pad 19 smd rect (at -140 -1.125) (size 1 3) (layers F.Cu F.Paste F.Mask))
(pad 20 smd rect (at -138 1.125) (size 1 3) (layers F.Cu F.Paste F.Mask))
(pad 21 smd rect (at -136 -1.125) (size 1 3) (layers F.Cu F.Paste F.Mask))
(pad 22 smd rect (at -134 1.125) (size 1 3) (layers F.Cu F.Paste F.Mask))
(pad 23 smd rect (at -132 -1.125) (size 1 3) (layers F.Cu F.Paste F.Mask))
(pad 24 smd rect (at -130 1.125) (size 1 3) (layers F.Cu F.Paste F.Mask))
(pad 25 smd rect (at -128 -1.125) (size 1 3) (layers F.Cu F.Paste F.Mask))
(pad 26 smd rect (at -126 1.125) (size 1 3) (layers F.Cu F.Paste F.Mask))
(pad 27 smd rect (at -124 -1.125) (size 1 3) (layers F.Cu F.Paste F.Mask))
(pad 28 smd rect (at -122 1.125) (size 1 3) (layers F.Cu F.Paste F.Mask))
(pad 29 smd rect (at -120 -1.125) (size 1 3) (layers F.Cu F.Paste F.Mask))
(pad 30 smd rect (at -118 1.125) (size 1 3) (layers F.Cu F.Paste F.Mask))
(pad 31 smd rect (at -116 -1.125) (size 1 3) (layers F.Cu F.Paste F.Mask))
(pad 32 smd rect (at -114 1.125) (size 1 3) (layers F.Cu F.Paste F.Mask))
(pad 33 smd rect (at -112 -1.125) (size 1 3) (layers F.Cu F.Paste F.Mask))
(pad 34 smd rect (at -110 1.125) (size 1 3) (layers F.Cu F.Paste F.Mask))
(pad 35 smd rect (at -108 -1.125) (size 1 3) (layers F.Cu F.Paste F.Mask))
(pad 36 smd rect (at -106 1.125) (size 1 3) (layers F.Cu F.Paste F.Mask))
(pad 37 smd rect (at -104 -1.125) (size 1 3) (layers F.Cu F.Paste F.Mask))
(pad 38 smd rect (at -102 1.125) (size 1 3) (layers F.Cu F.Paste F.Mask))
(pad 39 smd rect (at -100 -1.125) (size 1 3) (layers F.Cu F.Paste F.Mask))
(pad 40 smd rect (at -98 1.125) (size 1 3) (layers F.Cu F.Paste F.Mask))
(pad 41 smd rect (at -96 -1.125) (size 1 3) (layers F.Cu F.Paste F.Mask))
(pad 42 smd rect (at -94 1.125) (size 1 3) (layers F.Cu F.Paste F.Mask))
(pad 43 smd rect (at -92 -1.125) (size 1 3) (layers F.Cu F.Paste F.Mask))
(pad 44 smd rect (at -90 1.125) (size 1 3) (layers F.Cu F.Paste F.Mask))
(pad 45 smd rect (at -88 -1.125) (size 1 3) (layers F.Cu F.Paste F.Mask))
(pad 46 smd rect (at -86 1.125) (size 1 3) (layers F.Cu F.Paste F.Mask))
(pad 47 smd rect (at -84 -1.125) (size 1 3) (layers F.Cu F.Paste F.Mask))
(pad 48 smd rect (at -82 1.125) (size 1 3) (layers F.Cu F.Paste F.Mask))
(pad 49 smd rect (at -80 -1.125) (size 1 3) (layers F.Cu F.Paste F.Mask))
(pad 50 smd rect (at -78 1.125) (size 1 3) (layers F.Cu F.Paste F.Mask))
(pad 51 smd rect (at -76 -1.125) (size 1 3) (layers F.Cu F.Paste F.Mask))
(pad 52 smd rect (at -74 1.125) (size 1 3) (layers F.Cu F.Paste F.Mask))
(pad 53 smd rect (at -72 -1.125) (size 1 3) (layers F.Cu F.Paste F.Mask))
(pad 54 smd rect (at -70 1.125) (size 1 3) (layers F.Cu F.Paste F.Mask))
(pad 55 smd rect (at -68 -1.125) (size 1 3) (layers F.Cu F.Paste F.Mask))
(pad 56 smd rect (at -66 1.125) (size 1 3) (layers F.Cu F.Paste F.Mask))
(pad 57 smd rect (at -64 -1.125) (size 1 3) (layers F.Cu F.Paste F.Mask))
(pad 58 smd rect (at -62 1.125) (size 1 3) (layers F.Cu F.Paste F.Mask))
(pad 59 smd rect (at -60 -1.125) (size 1 3) (layers F.Cu F.Paste F.Mask))
(pad 60 smd rect (at -58 1.125) (size 1 3) (layers F.Cu F.Paste F.Mask))
(pad 61 smd rect (at -56 -1.125) (size 1 3) (layers F.Cu F.Paste F.Mask))
(pad 62 smd rect (at -54 1.125) (size 1 3) (layers F.Cu F.Paste F.Mask))
(pad 63 smd rect (at -52 -1.125) (size 1 3) (layers F.Cu F.Paste F.Mask))
(pad 64 smd rect (at -50 1.125) (size 1 3) (layers F.Cu F.Paste F.Mask))
(pad 65 smd rect (at -48 -1.125) (size 1 3) (layers F.Cu F.Paste F.Mask))
(pad 66 smd rect (at -46 1.125) (size 1 3) (layers F.Cu F.Paste F.Mask))
(pad 67 smd rect (at -44 -1.125) (size 1 3) (layers F.Cu F.Paste F.Mask))
(pad 68 smd rect (at -42 1.125) (size 1 3) (layers F.Cu F.Paste F.Mask))
(pad 69 smd rect (at -40 -1.125) (size 1 3) (layers F.Cu F.Paste F.Mask))
(pad 70 smd rect (at -38 1.125) (size 1 3) (layers F.Cu F.Paste F.Mask))
(pad 71 smd rect (at -36 -1.125) (size 1 3) (layers F.Cu F.Paste F.Mask))
(pad 72 smd rect (at -34 1.125) (size 1 3) (layers F.Cu F.Paste F.Mask))
(pad 73 smd rect (at -32 -1.125) (size 1 3) (layers F.Cu F.Paste F.Mask))
(pad 74 smd rect (at -30 1.125) (size 1 3) (layers F.Cu F.Paste F.Mask))
(pad 75 smd rect (at -28 -1.125) (size 1 3) (layers F.Cu F.Paste F.Mask))
(pad 76 smd rect (at -26 1.125) (size 1 3) (layers F.Cu F.Paste F.Mask))
(pad 77 smd rect (at -24 -1.125) (size 1 3) (layers F.Cu F.Paste F.Mask))
(pad 78 smd rect (at -22 1.125) (size 1 3) (layers F.Cu F.Paste F.Mask))
(pad 79 smd rect (at -20 -1.125) (size 1 3) (layers F.Cu F.Paste F.Mask))
(pad 80 smd rect (at -18 1.125) (size 1 3) (layers F.Cu F.Paste F.Mask))
(pad 81 smd rect (at -16 -1.125) (size 1 3) (layers F.Cu F.Paste F.Mask))
(pad 82 smd rect (at -14 1.125) (size 1 3) (layers F.Cu F.Paste F.Mask))
(pad 83 smd rect (at -12 -1.125) (size 1 3) (layers F.Cu F.Paste F.Mask))
(pad 84 smd rect (at -10 1.125) (size 1 3) (layers F.Cu F.Paste F.Mask))
(pad 85 smd rect (at -8 -1.125) (size 1 3) (layers F.Cu F.Paste F.Mask))
(pad 86 smd rect (at -6 1.125) (size 1 3) (layers F.Cu F.Paste F.Mask))
(pad 87 smd rect (at -4 -1.125) (size 1 3) (layers F.Cu F.Paste F.Mask))
(pad 88 smd rect (at -2 1.125) (size 1 3) (layers F.Cu F.Paste F.Mask))
(pad 89 smd rect (at 0 -1.125) (size 1 3) (layers F.Cu F.Paste F.Mask))
(pad 90 smd rect (at 2 1.125) (size 1 3) (layers F.Cu F.Paste F.Mask))
(pad 91 smd rect (at 4 -1.125) (size 1 3) (layers F.Cu F.Paste F.Mask))
(pad 92 smd rect (at 6 1.125) (size 1 3) (layers F.Cu F.Paste F.Mask))
(pad 93 smd rect (at 8 -1.125) (size 1 3) (layers F.Cu F.Paste F.Mask))
(pad 94 smd rect (at 10 1.125) (size 1 3) (layers F.Cu F.Paste F.Mask))
(pad 95 smd rect (at 12 -1.125) (size 1 3) (layers F.Cu F.Paste F.Mask))
(pad 96 smd rect (at 14 1.125) (size 1 3) (layers F.Cu F.Paste F.Mask))
(pad 97 smd rect (at 16 -1.125) (size 1 3) (layers F.Cu F.Paste F.Mask))
(pad 98 smd rect (at 18 1.125) (size 1 3) (layers F.Cu F.Paste F.Mask))
(pad 99 smd rect (at 20 -1.125) (size 1 3) (layers F.Cu F.Paste F.Mask))
(pad 100 smd rect (at 22 1.125) (size 1 3) (layers F.Cu F.Paste F.Mask))
(pad 101 smd rect (at 24 -1.125) (size 1 3) (layers F.Cu F.Paste F.Mask))
(pad 102 smd rect (at 26 1.125) (size 1 3) (layers F.Cu F.Paste F.Mask))
(pad 103 smd rect (at 28 -1.125) (size 1 3) (layers F.Cu F.Paste F.Mask))
(pad 104 smd rect (at 30 1.125) (size 1 3) (layers F.Cu F.Paste F.Mask))
(pad 105 smd rect (at 32 -1.125) (size 1 3) (layers F.Cu F.Paste F.Mask))
(pad 106 smd rect (at 34 1.125) (size 1 3) (layers F.Cu F.Paste F.Mask))
(pad 107 smd rect (at 36 -1.125) (size 1 3) (layers F.Cu F.Paste F.Mask))
(pad 108 smd rect (at 38 1.125) (size 1 3) (layers F.Cu F.Paste F.Mask))
(pad 109 smd rect (at 40 -1.125) (size 1 3) (layers F.Cu F.Paste F.Mask))
(pad 110 smd rect (at 42 1.125) (size 1 3) (layers F.Cu F.Paste F.Mask))
(pad 111 smd rect (at 44 -1.125) (size 1 3) (layers F.Cu F.Paste F.Mask))
(pad 112 smd rect (at 46 1.125) (size 1 3) (layers F.Cu F.Paste F.Mask))
(pad 113 smd rect (at 48 -1.125) (size 1 3) (layers F.Cu F.Paste F.Mask))
(pad 114 smd rect (at 50 1.125) (size 1 3) (layers F.Cu F.Paste F.Mask))
(pad 115 smd rect (at 52 -1.125) (size 1 3) (layers F.Cu F.Paste F.Mask))
(pad 116 smd rect (at 54 1.125) (size 1 3) (layers F.Cu F.Paste F.Mask))
(pad 117 smd rect (at 56 -1.125) (size 1 3) (layers F.Cu F.Paste F.Mask))
(pad 118 smd rect (at 58 1.125) (size 1 3) (layers F.Cu F.Paste F.Mask))
(pad 119 smd rect (at 60 -1.125) (size 1 3) (layers F.Cu F.Paste F.Mask))
(pad 120 smd rect (at 62 1.125) (size 1 3) (layers F.Cu F.Paste F.Mask))
(pad 121 smd rect (at 64 -1.125) (size 1 3) (layers F.Cu F.Paste F.Mask))
(pad 122 smd rect (at 66 1.125) (size 1 3) (layers F.Cu F.Paste F.Mask))
(pad 123 smd rect (at 68 -1.125) (size 1 3) (layers F.Cu F.Paste F.Mask))
(pad 124 smd rect (at 70 1.125) (size 1 3) (layers F.Cu F.Paste F.Mask))
(pad 125 smd rect (at 72 -1.125) (size 1 3) (layers F.Cu F.Paste F.Mask))
(pad 126 smd rect (at 74 1.125) (size 1 3) (layers F.Cu F.Paste F.Mask))
(pad 127 smd rect (at 76 -1.125) (size 1 3) (layers F.Cu F.Paste F.Mask))
(pad 128 smd rect (at 78 1.125) (size 1 3) (layers F.Cu F.Paste F.Mask))
(pad 129 smd rect (at 80 -1.125) (size 1 3) (layers F.Cu F.Paste F.Mask))
(pad 130 smd rect (at 82 1.125) (size 1 3) (layers F.Cu F.Paste F.Mask))
(pad 131 smd rect (at 84 -1.125) (size 1 3) (layers F.Cu F.Paste F.Mask))
(pad 132 smd rect (at 86 1.125) (size 1 3) (layers F.Cu F.Paste F.Mask))
(pad 133 smd rect (at 88 -1.125) (size 1 3) (layers F.Cu F.Paste F.Mask))
(pad 134 smd rect (at 90 1.125) (size 1 3) (layers F.Cu F.Paste F.Mask))
(pad 135 smd rect (at 92 -1.125) (size 1 3) (layers F.Cu F.Paste F.Mask))
(pad 136 smd rect (at 94 1.125) (size 1 3) (layers F.Cu F.Paste F.Mask))
(pad 137 smd rect (at 96 -1.125) (size 1 3) (layers F.Cu F.Paste F.Mask))
(pad 138 smd rect (at 98 1.125) (size 1 3) (layers F.Cu F.Paste F.Mask))
(pad 139 smd rect (at 100 -1.125) (size 1 3) (layers F.Cu F.Paste F.Mask))
(pad 140 smd rect (at 102 1.125) (size 1 3) (layers F.Cu F.Paste F.Mask))
(pad 141 smd rect (at 104 -1.125) (size 1 3) (layers F.Cu F.Paste F.Mask))
(pad 142 smd rect (at 106 1.125) (size 1 3) (layers F.Cu F.Paste F.Mask))
(pad 143 smd rect (at 108 -1.125) (size 1 3) (layers F.Cu F.Paste F.Mask))
(pad 144 smd rect (at 110 1.125) (size 1 3) (layers F.Cu F.Paste F.Mask))
(pad 145 smd rect (at 112 -1.125) (size 1 3) (layers F.Cu F.Paste F.Mask))
(pad 146 smd rect (at 114 1.125) (size 1 3) (layers F.Cu F.Paste F.Mask))
(pad 147 smd rect (at 116 -1.125) (size 1 3) (layers F.Cu F.Paste F.Mask))
(pad 148 smd rect (at 118 1.125) (size 1 3) (layers F.Cu F.Paste F.Mask))
(pad 149 smd rect (at 120 -1.125) (size 1 3) (layers F.Cu F.Paste F.Mask))
(pad 150 smd rect (at 122 1.125) (size 1 3) (layers F.Cu F.Paste F.Mask))
(pad 151 smd rect (at 124 -1.125) (size 1 3) (layers F.Cu F.Paste F.Mask))
(pad 152 smd rect (at 126 1.125) (size 1 3) (layers F.Cu F.Paste F.Mask))
(pad 153 smd rect (at 128 -1.125) (size 1 3) (layers F.Cu F.Paste F.Mask))
(pad 154 smd rect (at 130 1.125) (size 1 3) (layers F.Cu F.Paste F.Mask))
(pad 155 smd rect (at 132 -1.125) (size 1 3) (layers F.Cu F.Paste F.Mask))
(pad 156 smd rect (at 134 1.125) (size 1 3) (layers F.Cu F.Paste F.Mask))
(pad 157 smd rect (at 136 -1.125) (size 1 3) (layers F.Cu F.Paste F.Mask))
(pad 158 smd rect (at 138 1.125) (size 1 3) (layers F.Cu F.Paste F.Mask))
(pad 159 smd rect (at 140 -1.125) (size 1 3) (layers F.Cu F.Paste F.Mask))
(pad 160 smd rect (at 142 1.125) (size 1 3) (layers F.Cu F.Paste F.Mask))
(pad 161 smd rect (at 144 -1.125) (size 1 3) (layers F.Cu F.Paste F.Mask))
(pad 162 smd rect (at 146 1.125) (size 1 3) (layers F.Cu F.Paste F.Mask))
(pad 163 smd rect (at 148 -1.125) (size 1 3) (layers F.Cu F.Paste F.Mask))
(pad 164 smd rect (at 150 1.125) (size 1 3) (layers F.Cu F.Paste F.Mask))
(pad 165 smd rect (at 152 -1.125) (size 1 3) (layers F.Cu F.Paste F.Mask))
(pad 166 smd rect (at 154 1.125) (size 1 3) (layers F.Cu F.Paste F.Mask))
(pad 167 smd rect (at 156 -1.125) (size 1 3) (layers F.Cu F.Paste F.Mask))
(pad 168 smd rect (at 158 1.125) (size 1 3) (layers F.Cu F.Paste F.Mask))
(pad 169 smd rect (at 160 -1.125) (size 1 3) (layers F.Cu F.Paste F.Mask))
(pad 170 smd rect (at 162 1.125) (size 1 3) (layers F.Cu F.Paste F.Mask))
(pad 171 smd rect (at 164 -1.125) (size 1 3) (layers F.Cu F.Paste F.Mask))
(pad 172 smd rect (at 166 1.125) (size 1 3) (layers F.Cu F.Paste F.Mask))
(pad 173 smd rect (at 168 -1.125) (size 1 3) (layers F.Cu F.Paste F.Mask))
(pad 174 smd rect (at 170 1.125) (size 1 3) (layers F.Cu F.Paste F.Mask))
(pad 175 smd rect (at 172 -1.125) (size 1 3) (layers F.Cu F.Paste F.Mask))
(pad 176 smd rect (at 174 1.125) (size 1 3) (layers F.Cu F.Paste F.Mask))
(pad 177 smd rect (at 176 -1.125) (size 1 3) (layers F.Cu F.Paste F.Mask))
)

