(module "Pin_Header_Straight_1x180_PITCH_1.27_SMT" (layer F.Cu) (tedit 54E7ACBD)
(fp_text reference REF** (at 0 4) (layer F.SilkS)
  (effects (font (size 1.5 1.5) (thickness 0.15)))
)
(fp_text value "Pin_Header_Straight_1x180_PITCH_1.27_SMT" (at 0 -4) (layer F.Fab)
  (effects (font (size 1.5 1.5) (thickness 0.15)))
)
(pad 1 smd rect (at -113.665 -0.714375) (size 0.635 1.905) (layers F.Cu F.Paste F.Mask))
(pad 2 smd rect (at -112.39500000000001 0.714375) (size 0.635 1.905) (layers F.Cu F.Paste F.Mask))
(pad 3 smd rect (at -111.12500000000001 -0.714375) (size 0.635 1.905) (layers F.Cu F.Paste F.Mask))
(pad 4 smd rect (at -109.85500000000002 0.714375) (size 0.635 1.905) (layers F.Cu F.Paste F.Mask))
(pad 5 smd rect (at -108.58500000000002 -0.714375) (size 0.635 1.905) (layers F.Cu F.Paste F.Mask))
(pad 6 smd rect (at -107.31500000000003 0.714375) (size 0.635 1.905) (layers F.Cu F.Paste F.Mask))
(pad 7 smd rect (at -106.04500000000003 -0.714375) (size 0.635 1.905) (layers F.Cu F.Paste F.Mask))
(pad 8 smd rect (at -104.77500000000003 0.714375) (size 0.635 1.905) (layers F.Cu F.Paste F.Mask))
(pad 9 smd rect (at -103.50500000000004 -0.714375) (size 0.635 1.905) (layers F.Cu F.Paste F.Mask))
(pad 10 smd rect (at -102.23500000000004 0.714375) (size 0.635 1.905) (layers F.Cu F.Paste F.Mask))
(pad 11 smd rect (at -100.96500000000005 -0.714375) (size 0.635 1.905) (layers F.Cu F.Paste F.Mask))
(pad 12 smd rect (at -99.69500000000005 0.714375) (size 0.635 1.905) (layers F.Cu F.Paste F.Mask))
(pad 13 smd rect (at -98.42500000000005 -0.714375) (size 0.635 1.905) (layers F.Cu F.Paste F.Mask))
(pad 14 smd rect (at -97.15500000000006 0.714375) (size 0.635 1.905) (layers F.Cu F.Paste F.Mask))
(pad 15 smd rect (at -95.88500000000006 -0.714375) (size 0.635 1.905) (layers F.Cu F.Paste F.Mask))
(pad 16 smd rect (at -94.61500000000007 0.714375) (size 0.635 1.905) (layers F.Cu F.Paste F.Mask))
(pad 17 smd rect (at -93.34500000000007 -0.714375) (size 0.635 1.905) (layers F.Cu F.Paste F.Mask))
(pad 18 smd rect (at -92.07500000000007 0.714375) (size 0.635 1.905) (layers F.Cu F.Paste F.Mask))
(pad 19 smd rect (at -90.80500000000008 -0.714375) (size 0.635 1.905) (layers F.Cu F.Paste F.Mask))
(pad 20 smd rect (at -89.53500000000008 0.714375) (size 0.635 1.905) (layers F.Cu F.Paste F.Mask))
(pad 21 smd rect (at -88.26500000000009 -0.714375) (size 0.635 1.905) (layers F.Cu F.Paste F.Mask))
(pad 22 smd rect (at -86.99500000000009 0.714375) (size 0.635 1.905) (layers F.Cu F.Paste F.Mask))
(pad 23 smd rect (at -85.7250000000001 -0.714375) (size 0.635 1.905) (layers F.Cu F.Paste F.Mask))
(pad 24 smd rect (at -84.4550000000001 0.714375) (size 0.635 1.905) (layers F.Cu F.Paste F.Mask))
(pad 25 smd rect (at -83.1850000000001 -0.714375) (size 0.635 1.905) (layers F.Cu F.Paste F.Mask))
(pad 26 smd rect (at -81.9150000000001 0.714375) (size 0.635 1.905) (layers F.Cu F.Paste F.Mask))
(pad 27 smd rect (at -80.64500000000011 -0.714375) (size 0.635 1.905) (layers F.Cu F.Paste F.Mask))
(pad 28 smd rect (at -79.37500000000011 0.714375) (size 0.635 1.905) (layers F.Cu F.Paste F.Mask))
(pad 29 smd rect (at -78.10500000000012 -0.714375) (size 0.635 1.905) (layers F.Cu F.Paste F.Mask))
(pad 30 smd rect (at -76.83500000000012 0.714375) (size 0.635 1.905) (layers F.Cu F.Paste F.Mask))
(pad 31 smd rect (at -75.56500000000013 -0.714375) (size 0.635 1.905) (layers F.Cu F.Paste F.Mask))
(pad 32 smd rect (at -74.29500000000013 0.714375) (size 0.635 1.905) (layers F.Cu F.Paste F.Mask))
(pad 33 smd rect (at -73.02500000000013 -0.714375) (size 0.635 1.905) (layers F.Cu F.Paste F.Mask))
(pad 34 smd rect (at -71.75500000000014 0.714375) (size 0.635 1.905) (layers F.Cu F.Paste F.Mask))
(pad 35 smd rect (at -70.48500000000014 -0.714375) (size 0.635 1.905) (layers F.Cu F.Paste F.Mask))
(pad 36 smd rect (at -69.21500000000015 0.714375) (size 0.635 1.905) (layers F.Cu F.Paste F.Mask))
(pad 37 smd rect (at -67.94500000000015 -0.714375) (size 0.635 1.905) (layers F.Cu F.Paste F.Mask))
(pad 38 smd rect (at -66.67500000000015 0.714375) (size 0.635 1.905) (layers F.Cu F.Paste F.Mask))
(pad 39 smd rect (at -65.40500000000016 -0.714375) (size 0.635 1.905) (layers F.Cu F.Paste F.Mask))
(pad 40 smd rect (at -64.13500000000016 0.714375) (size 0.635 1.905) (layers F.Cu F.Paste F.Mask))
(pad 41 smd rect (at -62.86500000000016 -0.714375) (size 0.635 1.905) (layers F.Cu F.Paste F.Mask))
(pad 42 smd rect (at -61.595000000000155 0.714375) (size 0.635 1.905) (layers F.Cu F.Paste F.Mask))
(pad 43 smd rect (at -60.32500000000015 -0.714375) (size 0.635 1.905) (layers F.Cu F.Paste F.Mask))
(pad 44 smd rect (at -59.05500000000015 0.714375) (size 0.635 1.905) (layers F.Cu F.Paste F.Mask))
(pad 45 smd rect (at -57.785000000000146 -0.714375) (size 0.635 1.905) (layers F.Cu F.Paste F.Mask))
(pad 46 smd rect (at -56.51500000000014 0.714375) (size 0.635 1.905) (layers F.Cu F.Paste F.Mask))
(pad 47 smd rect (at -55.24500000000014 -0.714375) (size 0.635 1.905) (layers F.Cu F.Paste F.Mask))
(pad 48 smd rect (at -53.975000000000136 0.714375) (size 0.635 1.905) (layers F.Cu F.Paste F.Mask))
(pad 49 smd rect (at -52.70500000000013 -0.714375) (size 0.635 1.905) (layers F.Cu F.Paste F.Mask))
(pad 50 smd rect (at -51.43500000000013 0.714375) (size 0.635 1.905) (layers F.Cu F.Paste F.Mask))
(pad 51 smd rect (at -50.16500000000013 -0.714375) (size 0.635 1.905) (layers F.Cu F.Paste F.Mask))
(pad 52 smd rect (at -48.895000000000124 0.714375) (size 0.635 1.905) (layers F.Cu F.Paste F.Mask))
(pad 53 smd rect (at -47.62500000000012 -0.714375) (size 0.635 1.905) (layers F.Cu F.Paste F.Mask))
(pad 54 smd rect (at -46.35500000000012 0.714375) (size 0.635 1.905) (layers F.Cu F.Paste F.Mask))
(pad 55 smd rect (at -45.085000000000115 -0.714375) (size 0.635 1.905) (layers F.Cu F.Paste F.Mask))
(pad 56 smd rect (at -43.81500000000011 0.714375) (size 0.635 1.905) (layers F.Cu F.Paste F.Mask))
(pad 57 smd rect (at -42.54500000000011 -0.714375) (size 0.635 1.905) (layers F.Cu F.Paste F.Mask))
(pad 58 smd rect (at -41.275000000000105 0.714375) (size 0.635 1.905) (layers F.Cu F.Paste F.Mask))
(pad 59 smd rect (at -40.0050000000001 -0.714375) (size 0.635 1.905) (layers F.Cu F.Paste F.Mask))
(pad 60 smd rect (at -38.7350000000001 0.714375) (size 0.635 1.905) (layers F.Cu F.Paste F.Mask))
(pad 61 smd rect (at -37.465000000000096 -0.714375) (size 0.635 1.905) (layers F.Cu F.Paste F.Mask))
(pad 62 smd rect (at -36.19500000000009 0.714375) (size 0.635 1.905) (layers F.Cu F.Paste F.Mask))
(pad 63 smd rect (at -34.92500000000009 -0.714375) (size 0.635 1.905) (layers F.Cu F.Paste F.Mask))
(pad 64 smd rect (at -33.655000000000086 0.714375) (size 0.635 1.905) (layers F.Cu F.Paste F.Mask))
(pad 65 smd rect (at -32.38500000000008 -0.714375) (size 0.635 1.905) (layers F.Cu F.Paste F.Mask))
(pad 66 smd rect (at -31.115000000000084 0.714375) (size 0.635 1.905) (layers F.Cu F.Paste F.Mask))
(pad 67 smd rect (at -29.845000000000084 -0.714375) (size 0.635 1.905) (layers F.Cu F.Paste F.Mask))
(pad 68 smd rect (at -28.575000000000085 0.714375) (size 0.635 1.905) (layers F.Cu F.Paste F.Mask))
(pad 69 smd rect (at -27.305000000000085 -0.714375) (size 0.635 1.905) (layers F.Cu F.Paste F.Mask))
(pad 70 smd rect (at -26.035000000000085 0.714375) (size 0.635 1.905) (layers F.Cu F.Paste F.Mask))
(pad 71 smd rect (at -24.765000000000086 -0.714375) (size 0.635 1.905) (layers F.Cu F.Paste F.Mask))
(pad 72 smd rect (at -23.495000000000086 0.714375) (size 0.635 1.905) (layers F.Cu F.Paste F.Mask))
(pad 73 smd rect (at -22.225000000000087 -0.714375) (size 0.635 1.905) (layers F.Cu F.Paste F.Mask))
(pad 74 smd rect (at -20.955000000000087 0.714375) (size 0.635 1.905) (layers F.Cu F.Paste F.Mask))
(pad 75 smd rect (at -19.685000000000088 -0.714375) (size 0.635 1.905) (layers F.Cu F.Paste F.Mask))
(pad 76 smd rect (at -18.415000000000088 0.714375) (size 0.635 1.905) (layers F.Cu F.Paste F.Mask))
(pad 77 smd rect (at -17.14500000000009 -0.714375) (size 0.635 1.905) (layers F.Cu F.Paste F.Mask))
(pad 78 smd rect (at -15.875000000000089 0.714375) (size 0.635 1.905) (layers F.Cu F.Paste F.Mask))
(pad 79 smd rect (at -14.60500000000009 -0.714375) (size 0.635 1.905) (layers F.Cu F.Paste F.Mask))
(pad 80 smd rect (at -13.33500000000009 0.714375) (size 0.635 1.905) (layers F.Cu F.Paste F.Mask))
(pad 81 smd rect (at -12.06500000000009 -0.714375) (size 0.635 1.905) (layers F.Cu F.Paste F.Mask))
(pad 82 smd rect (at -10.79500000000009 0.714375) (size 0.635 1.905) (layers F.Cu F.Paste F.Mask))
(pad 83 smd rect (at -9.525000000000091 -0.714375) (size 0.635 1.905) (layers F.Cu F.Paste F.Mask))
(pad 84 smd rect (at -8.255000000000091 0.714375) (size 0.635 1.905) (layers F.Cu F.Paste F.Mask))
(pad 85 smd rect (at -6.985000000000092 -0.714375) (size 0.635 1.905) (layers F.Cu F.Paste F.Mask))
(pad 86 smd rect (at -5.715000000000092 0.714375) (size 0.635 1.905) (layers F.Cu F.Paste F.Mask))
(pad 87 smd rect (at -4.445000000000093 -0.714375) (size 0.635 1.905) (layers F.Cu F.Paste F.Mask))
(pad 88 smd rect (at -3.1750000000000926 0.714375) (size 0.635 1.905) (layers F.Cu F.Paste F.Mask))
(pad 89 smd rect (at -1.9050000000000926 -0.714375) (size 0.635 1.905) (layers F.Cu F.Paste F.Mask))
(pad 90 smd rect (at -0.6350000000000926 0.714375) (size 0.635 1.905) (layers F.Cu F.Paste F.Mask))
(pad 91 smd rect (at 0.6349999999999074 -0.714375) (size 0.635 1.905) (layers F.Cu F.Paste F.Mask))
(pad 92 smd rect (at 1.9049999999999074 0.714375) (size 0.635 1.905) (layers F.Cu F.Paste F.Mask))
(pad 93 smd rect (at 3.1749999999999075 -0.714375) (size 0.635 1.905) (layers F.Cu F.Paste F.Mask))
(pad 94 smd rect (at 4.444999999999908 0.714375) (size 0.635 1.905) (layers F.Cu F.Paste F.Mask))
(pad 95 smd rect (at 5.7149999999999075 -0.714375) (size 0.635 1.905) (layers F.Cu F.Paste F.Mask))
(pad 96 smd rect (at 6.984999999999907 0.714375) (size 0.635 1.905) (layers F.Cu F.Paste F.Mask))
(pad 97 smd rect (at 8.254999999999907 -0.714375) (size 0.635 1.905) (layers F.Cu F.Paste F.Mask))
(pad 98 smd rect (at 9.524999999999906 0.714375) (size 0.635 1.905) (layers F.Cu F.Paste F.Mask))
(pad 99 smd rect (at 10.794999999999906 -0.714375) (size 0.635 1.905) (layers F.Cu F.Paste F.Mask))
(pad 100 smd rect (at 12.064999999999905 0.714375) (size 0.635 1.905) (layers F.Cu F.Paste F.Mask))
(pad 101 smd rect (at 13.334999999999905 -0.714375) (size 0.635 1.905) (layers F.Cu F.Paste F.Mask))
(pad 102 smd rect (at 14.604999999999905 0.714375) (size 0.635 1.905) (layers F.Cu F.Paste F.Mask))
(pad 103 smd rect (at 15.874999999999904 -0.714375) (size 0.635 1.905) (layers F.Cu F.Paste F.Mask))
(pad 104 smd rect (at 17.144999999999904 0.714375) (size 0.635 1.905) (layers F.Cu F.Paste F.Mask))
(pad 105 smd rect (at 18.414999999999903 -0.714375) (size 0.635 1.905) (layers F.Cu F.Paste F.Mask))
(pad 106 smd rect (at 19.684999999999903 0.714375) (size 0.635 1.905) (layers F.Cu F.Paste F.Mask))
(pad 107 smd rect (at 20.954999999999902 -0.714375) (size 0.635 1.905) (layers F.Cu F.Paste F.Mask))
(pad 108 smd rect (at 22.224999999999902 0.714375) (size 0.635 1.905) (layers F.Cu F.Paste F.Mask))
(pad 109 smd rect (at 23.4949999999999 -0.714375) (size 0.635 1.905) (layers F.Cu F.Paste F.Mask))
(pad 110 smd rect (at 24.7649999999999 0.714375) (size 0.635 1.905) (layers F.Cu F.Paste F.Mask))
(pad 111 smd rect (at 26.0349999999999 -0.714375) (size 0.635 1.905) (layers F.Cu F.Paste F.Mask))
(pad 112 smd rect (at 27.3049999999999 0.714375) (size 0.635 1.905) (layers F.Cu F.Paste F.Mask))
(pad 113 smd rect (at 28.5749999999999 -0.714375) (size 0.635 1.905) (layers F.Cu F.Paste F.Mask))
(pad 114 smd rect (at 29.8449999999999 0.714375) (size 0.635 1.905) (layers F.Cu F.Paste F.Mask))
(pad 115 smd rect (at 31.1149999999999 -0.714375) (size 0.635 1.905) (layers F.Cu F.Paste F.Mask))
(pad 116 smd rect (at 32.3849999999999 0.714375) (size 0.635 1.905) (layers F.Cu F.Paste F.Mask))
(pad 117 smd rect (at 33.6549999999999 -0.714375) (size 0.635 1.905) (layers F.Cu F.Paste F.Mask))
(pad 118 smd rect (at 34.924999999999905 0.714375) (size 0.635 1.905) (layers F.Cu F.Paste F.Mask))
(pad 119 smd rect (at 36.19499999999991 -0.714375) (size 0.635 1.905) (layers F.Cu F.Paste F.Mask))
(pad 120 smd rect (at 37.46499999999991 0.714375) (size 0.635 1.905) (layers F.Cu F.Paste F.Mask))
(pad 121 smd rect (at 38.734999999999914 -0.714375) (size 0.635 1.905) (layers F.Cu F.Paste F.Mask))
(pad 122 smd rect (at 40.00499999999992 0.714375) (size 0.635 1.905) (layers F.Cu F.Paste F.Mask))
(pad 123 smd rect (at 41.27499999999992 -0.714375) (size 0.635 1.905) (layers F.Cu F.Paste F.Mask))
(pad 124 smd rect (at 42.54499999999992 0.714375) (size 0.635 1.905) (layers F.Cu F.Paste F.Mask))
(pad 125 smd rect (at 43.81499999999993 -0.714375) (size 0.635 1.905) (layers F.Cu F.Paste F.Mask))
(pad 126 smd rect (at 45.08499999999993 0.714375) (size 0.635 1.905) (layers F.Cu F.Paste F.Mask))
(pad 127 smd rect (at 46.35499999999993 -0.714375) (size 0.635 1.905) (layers F.Cu F.Paste F.Mask))
(pad 128 smd rect (at 47.624999999999936 0.714375) (size 0.635 1.905) (layers F.Cu F.Paste F.Mask))
(pad 129 smd rect (at 48.89499999999994 -0.714375) (size 0.635 1.905) (layers F.Cu F.Paste F.Mask))
(pad 130 smd rect (at 50.16499999999994 0.714375) (size 0.635 1.905) (layers F.Cu F.Paste F.Mask))
(pad 131 smd rect (at 51.434999999999945 -0.714375) (size 0.635 1.905) (layers F.Cu F.Paste F.Mask))
(pad 132 smd rect (at 52.70499999999995 0.714375) (size 0.635 1.905) (layers F.Cu F.Paste F.Mask))
(pad 133 smd rect (at 53.97499999999995 -0.714375) (size 0.635 1.905) (layers F.Cu F.Paste F.Mask))
(pad 134 smd rect (at 55.244999999999955 0.714375) (size 0.635 1.905) (layers F.Cu F.Paste F.Mask))
(pad 135 smd rect (at 56.51499999999996 -0.714375) (size 0.635 1.905) (layers F.Cu F.Paste F.Mask))
(pad 136 smd rect (at 57.78499999999996 0.714375) (size 0.635 1.905) (layers F.Cu F.Paste F.Mask))
(pad 137 smd rect (at 59.054999999999964 -0.714375) (size 0.635 1.905) (layers F.Cu F.Paste F.Mask))
(pad 138 smd rect (at 60.32499999999997 0.714375) (size 0.635 1.905) (layers F.Cu F.Paste F.Mask))
(pad 139 smd rect (at 61.59499999999997 -0.714375) (size 0.635 1.905) (layers F.Cu F.Paste F.Mask))
(pad 140 smd rect (at 62.864999999999974 0.714375) (size 0.635 1.905) (layers F.Cu F.Paste F.Mask))
(pad 141 smd rect (at 64.13499999999998 -0.714375) (size 0.635 1.905) (layers F.Cu F.Paste F.Mask))
(pad 142 smd rect (at 65.40499999999997 0.714375) (size 0.635 1.905) (layers F.Cu F.Paste F.Mask))
(pad 143 smd rect (at 66.67499999999997 -0.714375) (size 0.635 1.905) (layers F.Cu F.Paste F.Mask))
(pad 144 smd rect (at 67.94499999999996 0.714375) (size 0.635 1.905) (layers F.Cu F.Paste F.Mask))
(pad 145 smd rect (at 69.21499999999996 -0.714375) (size 0.635 1.905) (layers F.Cu F.Paste F.Mask))
(pad 146 smd rect (at 70.48499999999996 0.714375) (size 0.635 1.905) (layers F.Cu F.Paste F.Mask))
(pad 147 smd rect (at 71.75499999999995 -0.714375) (size 0.635 1.905) (layers F.Cu F.Paste F.Mask))
(pad 148 smd rect (at 73.02499999999995 0.714375) (size 0.635 1.905) (layers F.Cu F.Paste F.Mask))
(pad 149 smd rect (at 74.29499999999994 -0.714375) (size 0.635 1.905) (layers F.Cu F.Paste F.Mask))
(pad 150 smd rect (at 75.56499999999994 0.714375) (size 0.635 1.905) (layers F.Cu F.Paste F.Mask))
(pad 151 smd rect (at 76.83499999999994 -0.714375) (size 0.635 1.905) (layers F.Cu F.Paste F.Mask))
(pad 152 smd rect (at 78.10499999999993 0.714375) (size 0.635 1.905) (layers F.Cu F.Paste F.Mask))
(pad 153 smd rect (at 79.37499999999993 -0.714375) (size 0.635 1.905) (layers F.Cu F.Paste F.Mask))
(pad 154 smd rect (at 80.64499999999992 0.714375) (size 0.635 1.905) (layers F.Cu F.Paste F.Mask))
(pad 155 smd rect (at 81.91499999999992 -0.714375) (size 0.635 1.905) (layers F.Cu F.Paste F.Mask))
(pad 156 smd rect (at 83.18499999999992 0.714375) (size 0.635 1.905) (layers F.Cu F.Paste F.Mask))
(pad 157 smd rect (at 84.45499999999991 -0.714375) (size 0.635 1.905) (layers F.Cu F.Paste F.Mask))
(pad 158 smd rect (at 85.72499999999991 0.714375) (size 0.635 1.905) (layers F.Cu F.Paste F.Mask))
(pad 159 smd rect (at 86.9949999999999 -0.714375) (size 0.635 1.905) (layers F.Cu F.Paste F.Mask))
(pad 160 smd rect (at 88.2649999999999 0.714375) (size 0.635 1.905) (layers F.Cu F.Paste F.Mask))
(pad 161 smd rect (at 89.5349999999999 -0.714375) (size 0.635 1.905) (layers F.Cu F.Paste F.Mask))
(pad 162 smd rect (at 90.8049999999999 0.714375) (size 0.635 1.905) (layers F.Cu F.Paste F.Mask))
(pad 163 smd rect (at 92.07499999999989 -0.714375) (size 0.635 1.905) (layers F.Cu F.Paste F.Mask))
(pad 164 smd rect (at 93.34499999999989 0.714375) (size 0.635 1.905) (layers F.Cu F.Paste F.Mask))
(pad 165 smd rect (at 94.61499999999988 -0.714375) (size 0.635 1.905) (layers F.Cu F.Paste F.Mask))
(pad 166 smd rect (at 95.88499999999988 0.714375) (size 0.635 1.905) (layers F.Cu F.Paste F.Mask))
(pad 167 smd rect (at 97.15499999999987 -0.714375) (size 0.635 1.905) (layers F.Cu F.Paste F.Mask))
(pad 168 smd rect (at 98.42499999999987 0.714375) (size 0.635 1.905) (layers F.Cu F.Paste F.Mask))
(pad 169 smd rect (at 99.69499999999987 -0.714375) (size 0.635 1.905) (layers F.Cu F.Paste F.Mask))
(pad 170 smd rect (at 100.96499999999986 0.714375) (size 0.635 1.905) (layers F.Cu F.Paste F.Mask))
(pad 171 smd rect (at 102.23499999999986 -0.714375) (size 0.635 1.905) (layers F.Cu F.Paste F.Mask))
(pad 172 smd rect (at 103.50499999999985 0.714375) (size 0.635 1.905) (layers F.Cu F.Paste F.Mask))
(pad 173 smd rect (at 104.77499999999985 -0.714375) (size 0.635 1.905) (layers F.Cu F.Paste F.Mask))
(pad 174 smd rect (at 106.04499999999985 0.714375) (size 0.635 1.905) (layers F.Cu F.Paste F.Mask))
(pad 175 smd rect (at 107.31499999999984 -0.714375) (size 0.635 1.905) (layers F.Cu F.Paste F.Mask))
(pad 176 smd rect (at 108.58499999999984 0.714375) (size 0.635 1.905) (layers F.Cu F.Paste F.Mask))
(pad 177 smd rect (at 109.85499999999983 -0.714375) (size 0.635 1.905) (layers F.Cu F.Paste F.Mask))
(pad 178 smd rect (at 111.12499999999983 0.714375) (size 0.635 1.905) (layers F.Cu F.Paste F.Mask))
(pad 179 smd rect (at 112.39499999999983 -0.714375) (size 0.635 1.905) (layers F.Cu F.Paste F.Mask))
(pad 180 smd rect (at 113.66499999999982 0.714375) (size 0.635 1.905) (layers F.Cu F.Paste F.Mask))
)

