(module "Pin_Header_Straight_1x56_PITCH_1.27_SMT" (layer F.Cu) (tedit 54E7ACBD)
(fp_text reference REF** (at 0 4) (layer F.SilkS)
  (effects (font (size 1.5 1.5) (thickness 0.15)))
)
(fp_text value "Pin_Header_Straight_1x56_PITCH_1.27_SMT" (at 0 -4) (layer F.Fab)
  (effects (font (size 1.5 1.5) (thickness 0.15)))
)
(pad 1 smd rect (at -34.925 -0.714375) (size 0.635 1.905) (layers F.Cu F.Paste F.Mask))
(pad 2 smd rect (at -33.654999999999994 0.714375) (size 0.635 1.905) (layers F.Cu F.Paste F.Mask))
(pad 3 smd rect (at -32.38499999999999 -0.714375) (size 0.635 1.905) (layers F.Cu F.Paste F.Mask))
(pad 4 smd rect (at -31.11499999999999 0.714375) (size 0.635 1.905) (layers F.Cu F.Paste F.Mask))
(pad 5 smd rect (at -29.84499999999999 -0.714375) (size 0.635 1.905) (layers F.Cu F.Paste F.Mask))
(pad 6 smd rect (at -28.574999999999992 0.714375) (size 0.635 1.905) (layers F.Cu F.Paste F.Mask))
(pad 7 smd rect (at -27.304999999999993 -0.714375) (size 0.635 1.905) (layers F.Cu F.Paste F.Mask))
(pad 8 smd rect (at -26.034999999999993 0.714375) (size 0.635 1.905) (layers F.Cu F.Paste F.Mask))
(pad 9 smd rect (at -24.764999999999993 -0.714375) (size 0.635 1.905) (layers F.Cu F.Paste F.Mask))
(pad 10 smd rect (at -23.494999999999994 0.714375) (size 0.635 1.905) (layers F.Cu F.Paste F.Mask))
(pad 11 smd rect (at -22.224999999999994 -0.714375) (size 0.635 1.905) (layers F.Cu F.Paste F.Mask))
(pad 12 smd rect (at -20.954999999999995 0.714375) (size 0.635 1.905) (layers F.Cu F.Paste F.Mask))
(pad 13 smd rect (at -19.684999999999995 -0.714375) (size 0.635 1.905) (layers F.Cu F.Paste F.Mask))
(pad 14 smd rect (at -18.414999999999996 0.714375) (size 0.635 1.905) (layers F.Cu F.Paste F.Mask))
(pad 15 smd rect (at -17.144999999999996 -0.714375) (size 0.635 1.905) (layers F.Cu F.Paste F.Mask))
(pad 16 smd rect (at -15.874999999999996 0.714375) (size 0.635 1.905) (layers F.Cu F.Paste F.Mask))
(pad 17 smd rect (at -14.604999999999997 -0.714375) (size 0.635 1.905) (layers F.Cu F.Paste F.Mask))
(pad 18 smd rect (at -13.334999999999997 0.714375) (size 0.635 1.905) (layers F.Cu F.Paste F.Mask))
(pad 19 smd rect (at -12.064999999999998 -0.714375) (size 0.635 1.905) (layers F.Cu F.Paste F.Mask))
(pad 20 smd rect (at -10.794999999999998 0.714375) (size 0.635 1.905) (layers F.Cu F.Paste F.Mask))
(pad 21 smd rect (at -9.524999999999999 -0.714375) (size 0.635 1.905) (layers F.Cu F.Paste F.Mask))
(pad 22 smd rect (at -8.254999999999999 0.714375) (size 0.635 1.905) (layers F.Cu F.Paste F.Mask))
(pad 23 smd rect (at -6.984999999999999 -0.714375) (size 0.635 1.905) (layers F.Cu F.Paste F.Mask))
(pad 24 smd rect (at -5.715 0.714375) (size 0.635 1.905) (layers F.Cu F.Paste F.Mask))
(pad 25 smd rect (at -4.445 -0.714375) (size 0.635 1.905) (layers F.Cu F.Paste F.Mask))
(pad 26 smd rect (at -3.1750000000000003 0.714375) (size 0.635 1.905) (layers F.Cu F.Paste F.Mask))
(pad 27 smd rect (at -1.9050000000000002 -0.714375) (size 0.635 1.905) (layers F.Cu F.Paste F.Mask))
(pad 28 smd rect (at -0.6350000000000002 0.714375) (size 0.635 1.905) (layers F.Cu F.Paste F.Mask))
(pad 29 smd rect (at 0.6349999999999998 -0.714375) (size 0.635 1.905) (layers F.Cu F.Paste F.Mask))
(pad 30 smd rect (at 1.9049999999999998 0.714375) (size 0.635 1.905) (layers F.Cu F.Paste F.Mask))
(pad 31 smd rect (at 3.175 -0.714375) (size 0.635 1.905) (layers F.Cu F.Paste F.Mask))
(pad 32 smd rect (at 4.445 0.714375) (size 0.635 1.905) (layers F.Cu F.Paste F.Mask))
(pad 33 smd rect (at 5.715 -0.714375) (size 0.635 1.905) (layers F.Cu F.Paste F.Mask))
(pad 34 smd rect (at 6.984999999999999 0.714375) (size 0.635 1.905) (layers F.Cu F.Paste F.Mask))
(pad 35 smd rect (at 8.254999999999999 -0.714375) (size 0.635 1.905) (layers F.Cu F.Paste F.Mask))
(pad 36 smd rect (at 9.524999999999999 0.714375) (size 0.635 1.905) (layers F.Cu F.Paste F.Mask))
(pad 37 smd rect (at 10.794999999999998 -0.714375) (size 0.635 1.905) (layers F.Cu F.Paste F.Mask))
(pad 38 smd rect (at 12.064999999999998 0.714375) (size 0.635 1.905) (layers F.Cu F.Paste F.Mask))
(pad 39 smd rect (at 13.334999999999997 -0.714375) (size 0.635 1.905) (layers F.Cu F.Paste F.Mask))
(pad 40 smd rect (at 14.604999999999997 0.714375) (size 0.635 1.905) (layers F.Cu F.Paste F.Mask))
(pad 41 smd rect (at 15.874999999999996 -0.714375) (size 0.635 1.905) (layers F.Cu F.Paste F.Mask))
(pad 42 smd rect (at 17.144999999999996 0.714375) (size 0.635 1.905) (layers F.Cu F.Paste F.Mask))
(pad 43 smd rect (at 18.414999999999996 -0.714375) (size 0.635 1.905) (layers F.Cu F.Paste F.Mask))
(pad 44 smd rect (at 19.684999999999995 0.714375) (size 0.635 1.905) (layers F.Cu F.Paste F.Mask))
(pad 45 smd rect (at 20.954999999999995 -0.714375) (size 0.635 1.905) (layers F.Cu F.Paste F.Mask))
(pad 46 smd rect (at 22.224999999999994 0.714375) (size 0.635 1.905) (layers F.Cu F.Paste F.Mask))
(pad 47 smd rect (at 23.494999999999994 -0.714375) (size 0.635 1.905) (layers F.Cu F.Paste F.Mask))
(pad 48 smd rect (at 24.764999999999993 0.714375) (size 0.635 1.905) (layers F.Cu F.Paste F.Mask))
(pad 49 smd rect (at 26.034999999999993 -0.714375) (size 0.635 1.905) (layers F.Cu F.Paste F.Mask))
(pad 50 smd rect (at 27.304999999999993 0.714375) (size 0.635 1.905) (layers F.Cu F.Paste F.Mask))
(pad 51 smd rect (at 28.574999999999992 -0.714375) (size 0.635 1.905) (layers F.Cu F.Paste F.Mask))
(pad 52 smd rect (at 29.84499999999999 0.714375) (size 0.635 1.905) (layers F.Cu F.Paste F.Mask))
(pad 53 smd rect (at 31.11499999999999 -0.714375) (size 0.635 1.905) (layers F.Cu F.Paste F.Mask))
(pad 54 smd rect (at 32.38499999999999 0.714375) (size 0.635 1.905) (layers F.Cu F.Paste F.Mask))
(pad 55 smd rect (at 33.654999999999994 -0.714375) (size 0.635 1.905) (layers F.Cu F.Paste F.Mask))
(pad 56 smd rect (at 34.925 0.714375) (size 0.635 1.905) (layers F.Cu F.Paste F.Mask))
)

