(module "Pin_Header_Straight_1x162_PITCH_1.27_SMT" (layer F.Cu) (tedit 54E7ACBD)
(fp_text reference REF** (at 0 4) (layer F.SilkS)
  (effects (font (size 1.5 1.5) (thickness 0.15)))
)
(fp_text value "Pin_Header_Straight_1x162_PITCH_1.27_SMT" (at 0 -4) (layer F.Fab)
  (effects (font (size 1.5 1.5) (thickness 0.15)))
)
(pad 1 smd rect (at -102.23500000000001 -0.714375) (size 0.635 1.905) (layers F.Cu F.Paste F.Mask))
(pad 2 smd rect (at -100.96500000000002 0.714375) (size 0.635 1.905) (layers F.Cu F.Paste F.Mask))
(pad 3 smd rect (at -99.69500000000002 -0.714375) (size 0.635 1.905) (layers F.Cu F.Paste F.Mask))
(pad 4 smd rect (at -98.42500000000003 0.714375) (size 0.635 1.905) (layers F.Cu F.Paste F.Mask))
(pad 5 smd rect (at -97.15500000000003 -0.714375) (size 0.635 1.905) (layers F.Cu F.Paste F.Mask))
(pad 6 smd rect (at -95.88500000000003 0.714375) (size 0.635 1.905) (layers F.Cu F.Paste F.Mask))
(pad 7 smd rect (at -94.61500000000004 -0.714375) (size 0.635 1.905) (layers F.Cu F.Paste F.Mask))
(pad 8 smd rect (at -93.34500000000004 0.714375) (size 0.635 1.905) (layers F.Cu F.Paste F.Mask))
(pad 9 smd rect (at -92.07500000000005 -0.714375) (size 0.635 1.905) (layers F.Cu F.Paste F.Mask))
(pad 10 smd rect (at -90.80500000000005 0.714375) (size 0.635 1.905) (layers F.Cu F.Paste F.Mask))
(pad 11 smd rect (at -89.53500000000005 -0.714375) (size 0.635 1.905) (layers F.Cu F.Paste F.Mask))
(pad 12 smd rect (at -88.26500000000006 0.714375) (size 0.635 1.905) (layers F.Cu F.Paste F.Mask))
(pad 13 smd rect (at -86.99500000000006 -0.714375) (size 0.635 1.905) (layers F.Cu F.Paste F.Mask))
(pad 14 smd rect (at -85.72500000000007 0.714375) (size 0.635 1.905) (layers F.Cu F.Paste F.Mask))
(pad 15 smd rect (at -84.45500000000007 -0.714375) (size 0.635 1.905) (layers F.Cu F.Paste F.Mask))
(pad 16 smd rect (at -83.18500000000007 0.714375) (size 0.635 1.905) (layers F.Cu F.Paste F.Mask))
(pad 17 smd rect (at -81.91500000000008 -0.714375) (size 0.635 1.905) (layers F.Cu F.Paste F.Mask))
(pad 18 smd rect (at -80.64500000000008 0.714375) (size 0.635 1.905) (layers F.Cu F.Paste F.Mask))
(pad 19 smd rect (at -79.37500000000009 -0.714375) (size 0.635 1.905) (layers F.Cu F.Paste F.Mask))
(pad 20 smd rect (at -78.10500000000009 0.714375) (size 0.635 1.905) (layers F.Cu F.Paste F.Mask))
(pad 21 smd rect (at -76.8350000000001 -0.714375) (size 0.635 1.905) (layers F.Cu F.Paste F.Mask))
(pad 22 smd rect (at -75.5650000000001 0.714375) (size 0.635 1.905) (layers F.Cu F.Paste F.Mask))
(pad 23 smd rect (at -74.2950000000001 -0.714375) (size 0.635 1.905) (layers F.Cu F.Paste F.Mask))
(pad 24 smd rect (at -73.0250000000001 0.714375) (size 0.635 1.905) (layers F.Cu F.Paste F.Mask))
(pad 25 smd rect (at -71.75500000000011 -0.714375) (size 0.635 1.905) (layers F.Cu F.Paste F.Mask))
(pad 26 smd rect (at -70.48500000000011 0.714375) (size 0.635 1.905) (layers F.Cu F.Paste F.Mask))
(pad 27 smd rect (at -69.21500000000012 -0.714375) (size 0.635 1.905) (layers F.Cu F.Paste F.Mask))
(pad 28 smd rect (at -67.94500000000012 0.714375) (size 0.635 1.905) (layers F.Cu F.Paste F.Mask))
(pad 29 smd rect (at -66.67500000000013 -0.714375) (size 0.635 1.905) (layers F.Cu F.Paste F.Mask))
(pad 30 smd rect (at -65.40500000000013 0.714375) (size 0.635 1.905) (layers F.Cu F.Paste F.Mask))
(pad 31 smd rect (at -64.13500000000013 -0.714375) (size 0.635 1.905) (layers F.Cu F.Paste F.Mask))
(pad 32 smd rect (at -62.86500000000013 0.714375) (size 0.635 1.905) (layers F.Cu F.Paste F.Mask))
(pad 33 smd rect (at -61.59500000000013 -0.714375) (size 0.635 1.905) (layers F.Cu F.Paste F.Mask))
(pad 34 smd rect (at -60.325000000000124 0.714375) (size 0.635 1.905) (layers F.Cu F.Paste F.Mask))
(pad 35 smd rect (at -59.05500000000012 -0.714375) (size 0.635 1.905) (layers F.Cu F.Paste F.Mask))
(pad 36 smd rect (at -57.78500000000012 0.714375) (size 0.635 1.905) (layers F.Cu F.Paste F.Mask))
(pad 37 smd rect (at -56.515000000000114 -0.714375) (size 0.635 1.905) (layers F.Cu F.Paste F.Mask))
(pad 38 smd rect (at -55.24500000000011 0.714375) (size 0.635 1.905) (layers F.Cu F.Paste F.Mask))
(pad 39 smd rect (at -53.97500000000011 -0.714375) (size 0.635 1.905) (layers F.Cu F.Paste F.Mask))
(pad 40 smd rect (at -52.705000000000105 0.714375) (size 0.635 1.905) (layers F.Cu F.Paste F.Mask))
(pad 41 smd rect (at -51.4350000000001 -0.714375) (size 0.635 1.905) (layers F.Cu F.Paste F.Mask))
(pad 42 smd rect (at -50.1650000000001 0.714375) (size 0.635 1.905) (layers F.Cu F.Paste F.Mask))
(pad 43 smd rect (at -48.895000000000095 -0.714375) (size 0.635 1.905) (layers F.Cu F.Paste F.Mask))
(pad 44 smd rect (at -47.62500000000009 0.714375) (size 0.635 1.905) (layers F.Cu F.Paste F.Mask))
(pad 45 smd rect (at -46.35500000000009 -0.714375) (size 0.635 1.905) (layers F.Cu F.Paste F.Mask))
(pad 46 smd rect (at -45.085000000000086 0.714375) (size 0.635 1.905) (layers F.Cu F.Paste F.Mask))
(pad 47 smd rect (at -43.81500000000008 -0.714375) (size 0.635 1.905) (layers F.Cu F.Paste F.Mask))
(pad 48 smd rect (at -42.54500000000008 0.714375) (size 0.635 1.905) (layers F.Cu F.Paste F.Mask))
(pad 49 smd rect (at -41.27500000000008 -0.714375) (size 0.635 1.905) (layers F.Cu F.Paste F.Mask))
(pad 50 smd rect (at -40.005000000000074 0.714375) (size 0.635 1.905) (layers F.Cu F.Paste F.Mask))
(pad 51 smd rect (at -38.73500000000007 -0.714375) (size 0.635 1.905) (layers F.Cu F.Paste F.Mask))
(pad 52 smd rect (at -37.46500000000007 0.714375) (size 0.635 1.905) (layers F.Cu F.Paste F.Mask))
(pad 53 smd rect (at -36.195000000000064 -0.714375) (size 0.635 1.905) (layers F.Cu F.Paste F.Mask))
(pad 54 smd rect (at -34.92500000000006 0.714375) (size 0.635 1.905) (layers F.Cu F.Paste F.Mask))
(pad 55 smd rect (at -33.65500000000006 -0.714375) (size 0.635 1.905) (layers F.Cu F.Paste F.Mask))
(pad 56 smd rect (at -32.385000000000055 0.714375) (size 0.635 1.905) (layers F.Cu F.Paste F.Mask))
(pad 57 smd rect (at -31.115000000000055 -0.714375) (size 0.635 1.905) (layers F.Cu F.Paste F.Mask))
(pad 58 smd rect (at -29.845000000000056 0.714375) (size 0.635 1.905) (layers F.Cu F.Paste F.Mask))
(pad 59 smd rect (at -28.575000000000056 -0.714375) (size 0.635 1.905) (layers F.Cu F.Paste F.Mask))
(pad 60 smd rect (at -27.305000000000057 0.714375) (size 0.635 1.905) (layers F.Cu F.Paste F.Mask))
(pad 61 smd rect (at -26.035000000000057 -0.714375) (size 0.635 1.905) (layers F.Cu F.Paste F.Mask))
(pad 62 smd rect (at -24.765000000000057 0.714375) (size 0.635 1.905) (layers F.Cu F.Paste F.Mask))
(pad 63 smd rect (at -23.495000000000058 -0.714375) (size 0.635 1.905) (layers F.Cu F.Paste F.Mask))
(pad 64 smd rect (at -22.22500000000006 0.714375) (size 0.635 1.905) (layers F.Cu F.Paste F.Mask))
(pad 65 smd rect (at -20.95500000000006 -0.714375) (size 0.635 1.905) (layers F.Cu F.Paste F.Mask))
(pad 66 smd rect (at -19.68500000000006 0.714375) (size 0.635 1.905) (layers F.Cu F.Paste F.Mask))
(pad 67 smd rect (at -18.41500000000006 -0.714375) (size 0.635 1.905) (layers F.Cu F.Paste F.Mask))
(pad 68 smd rect (at -17.14500000000006 0.714375) (size 0.635 1.905) (layers F.Cu F.Paste F.Mask))
(pad 69 smd rect (at -15.87500000000006 -0.714375) (size 0.635 1.905) (layers F.Cu F.Paste F.Mask))
(pad 70 smd rect (at -14.60500000000006 0.714375) (size 0.635 1.905) (layers F.Cu F.Paste F.Mask))
(pad 71 smd rect (at -13.335000000000061 -0.714375) (size 0.635 1.905) (layers F.Cu F.Paste F.Mask))
(pad 72 smd rect (at -12.065000000000062 0.714375) (size 0.635 1.905) (layers F.Cu F.Paste F.Mask))
(pad 73 smd rect (at -10.795000000000062 -0.714375) (size 0.635 1.905) (layers F.Cu F.Paste F.Mask))
(pad 74 smd rect (at -9.525000000000063 0.714375) (size 0.635 1.905) (layers F.Cu F.Paste F.Mask))
(pad 75 smd rect (at -8.255000000000063 -0.714375) (size 0.635 1.905) (layers F.Cu F.Paste F.Mask))
(pad 76 smd rect (at -6.985000000000063 0.714375) (size 0.635 1.905) (layers F.Cu F.Paste F.Mask))
(pad 77 smd rect (at -5.715000000000064 -0.714375) (size 0.635 1.905) (layers F.Cu F.Paste F.Mask))
(pad 78 smd rect (at -4.445000000000064 0.714375) (size 0.635 1.905) (layers F.Cu F.Paste F.Mask))
(pad 79 smd rect (at -3.175000000000064 -0.714375) (size 0.635 1.905) (layers F.Cu F.Paste F.Mask))
(pad 80 smd rect (at -1.9050000000000642 0.714375) (size 0.635 1.905) (layers F.Cu F.Paste F.Mask))
(pad 81 smd rect (at -0.6350000000000642 -0.714375) (size 0.635 1.905) (layers F.Cu F.Paste F.Mask))
(pad 82 smd rect (at 0.6349999999999358 0.714375) (size 0.635 1.905) (layers F.Cu F.Paste F.Mask))
(pad 83 smd rect (at 1.9049999999999359 -0.714375) (size 0.635 1.905) (layers F.Cu F.Paste F.Mask))
(pad 84 smd rect (at 3.174999999999936 0.714375) (size 0.635 1.905) (layers F.Cu F.Paste F.Mask))
(pad 85 smd rect (at 4.444999999999936 -0.714375) (size 0.635 1.905) (layers F.Cu F.Paste F.Mask))
(pad 86 smd rect (at 5.714999999999936 0.714375) (size 0.635 1.905) (layers F.Cu F.Paste F.Mask))
(pad 87 smd rect (at 6.9849999999999355 -0.714375) (size 0.635 1.905) (layers F.Cu F.Paste F.Mask))
(pad 88 smd rect (at 8.254999999999935 0.714375) (size 0.635 1.905) (layers F.Cu F.Paste F.Mask))
(pad 89 smd rect (at 9.524999999999935 -0.714375) (size 0.635 1.905) (layers F.Cu F.Paste F.Mask))
(pad 90 smd rect (at 10.794999999999934 0.714375) (size 0.635 1.905) (layers F.Cu F.Paste F.Mask))
(pad 91 smd rect (at 12.064999999999934 -0.714375) (size 0.635 1.905) (layers F.Cu F.Paste F.Mask))
(pad 92 smd rect (at 13.334999999999933 0.714375) (size 0.635 1.905) (layers F.Cu F.Paste F.Mask))
(pad 93 smd rect (at 14.604999999999933 -0.714375) (size 0.635 1.905) (layers F.Cu F.Paste F.Mask))
(pad 94 smd rect (at 15.874999999999932 0.714375) (size 0.635 1.905) (layers F.Cu F.Paste F.Mask))
(pad 95 smd rect (at 17.144999999999932 -0.714375) (size 0.635 1.905) (layers F.Cu F.Paste F.Mask))
(pad 96 smd rect (at 18.41499999999993 0.714375) (size 0.635 1.905) (layers F.Cu F.Paste F.Mask))
(pad 97 smd rect (at 19.68499999999993 -0.714375) (size 0.635 1.905) (layers F.Cu F.Paste F.Mask))
(pad 98 smd rect (at 20.95499999999993 0.714375) (size 0.635 1.905) (layers F.Cu F.Paste F.Mask))
(pad 99 smd rect (at 22.22499999999993 -0.714375) (size 0.635 1.905) (layers F.Cu F.Paste F.Mask))
(pad 100 smd rect (at 23.49499999999993 0.714375) (size 0.635 1.905) (layers F.Cu F.Paste F.Mask))
(pad 101 smd rect (at 24.76499999999993 -0.714375) (size 0.635 1.905) (layers F.Cu F.Paste F.Mask))
(pad 102 smd rect (at 26.03499999999993 0.714375) (size 0.635 1.905) (layers F.Cu F.Paste F.Mask))
(pad 103 smd rect (at 27.30499999999993 -0.714375) (size 0.635 1.905) (layers F.Cu F.Paste F.Mask))
(pad 104 smd rect (at 28.57499999999993 0.714375) (size 0.635 1.905) (layers F.Cu F.Paste F.Mask))
(pad 105 smd rect (at 29.844999999999928 -0.714375) (size 0.635 1.905) (layers F.Cu F.Paste F.Mask))
(pad 106 smd rect (at 31.114999999999927 0.714375) (size 0.635 1.905) (layers F.Cu F.Paste F.Mask))
(pad 107 smd rect (at 32.38499999999993 -0.714375) (size 0.635 1.905) (layers F.Cu F.Paste F.Mask))
(pad 108 smd rect (at 33.65499999999993 0.714375) (size 0.635 1.905) (layers F.Cu F.Paste F.Mask))
(pad 109 smd rect (at 34.92499999999993 -0.714375) (size 0.635 1.905) (layers F.Cu F.Paste F.Mask))
(pad 110 smd rect (at 36.194999999999936 0.714375) (size 0.635 1.905) (layers F.Cu F.Paste F.Mask))
(pad 111 smd rect (at 37.46499999999994 -0.714375) (size 0.635 1.905) (layers F.Cu F.Paste F.Mask))
(pad 112 smd rect (at 38.73499999999994 0.714375) (size 0.635 1.905) (layers F.Cu F.Paste F.Mask))
(pad 113 smd rect (at 40.004999999999946 -0.714375) (size 0.635 1.905) (layers F.Cu F.Paste F.Mask))
(pad 114 smd rect (at 41.27499999999995 0.714375) (size 0.635 1.905) (layers F.Cu F.Paste F.Mask))
(pad 115 smd rect (at 42.54499999999995 -0.714375) (size 0.635 1.905) (layers F.Cu F.Paste F.Mask))
(pad 116 smd rect (at 43.814999999999955 0.714375) (size 0.635 1.905) (layers F.Cu F.Paste F.Mask))
(pad 117 smd rect (at 45.08499999999996 -0.714375) (size 0.635 1.905) (layers F.Cu F.Paste F.Mask))
(pad 118 smd rect (at 46.35499999999996 0.714375) (size 0.635 1.905) (layers F.Cu F.Paste F.Mask))
(pad 119 smd rect (at 47.624999999999964 -0.714375) (size 0.635 1.905) (layers F.Cu F.Paste F.Mask))
(pad 120 smd rect (at 48.89499999999997 0.714375) (size 0.635 1.905) (layers F.Cu F.Paste F.Mask))
(pad 121 smd rect (at 50.16499999999997 -0.714375) (size 0.635 1.905) (layers F.Cu F.Paste F.Mask))
(pad 122 smd rect (at 51.434999999999974 0.714375) (size 0.635 1.905) (layers F.Cu F.Paste F.Mask))
(pad 123 smd rect (at 52.70499999999998 -0.714375) (size 0.635 1.905) (layers F.Cu F.Paste F.Mask))
(pad 124 smd rect (at 53.97499999999998 0.714375) (size 0.635 1.905) (layers F.Cu F.Paste F.Mask))
(pad 125 smd rect (at 55.24499999999998 -0.714375) (size 0.635 1.905) (layers F.Cu F.Paste F.Mask))
(pad 126 smd rect (at 56.514999999999986 0.714375) (size 0.635 1.905) (layers F.Cu F.Paste F.Mask))
(pad 127 smd rect (at 57.78499999999999 -0.714375) (size 0.635 1.905) (layers F.Cu F.Paste F.Mask))
(pad 128 smd rect (at 59.05499999999999 0.714375) (size 0.635 1.905) (layers F.Cu F.Paste F.Mask))
(pad 129 smd rect (at 60.324999999999996 -0.714375) (size 0.635 1.905) (layers F.Cu F.Paste F.Mask))
(pad 130 smd rect (at 61.595 0.714375) (size 0.635 1.905) (layers F.Cu F.Paste F.Mask))
(pad 131 smd rect (at 62.865 -0.714375) (size 0.635 1.905) (layers F.Cu F.Paste F.Mask))
(pad 132 smd rect (at 64.135 0.714375) (size 0.635 1.905) (layers F.Cu F.Paste F.Mask))
(pad 133 smd rect (at 65.405 -0.714375) (size 0.635 1.905) (layers F.Cu F.Paste F.Mask))
(pad 134 smd rect (at 66.675 0.714375) (size 0.635 1.905) (layers F.Cu F.Paste F.Mask))
(pad 135 smd rect (at 67.945 -0.714375) (size 0.635 1.905) (layers F.Cu F.Paste F.Mask))
(pad 136 smd rect (at 69.21499999999999 0.714375) (size 0.635 1.905) (layers F.Cu F.Paste F.Mask))
(pad 137 smd rect (at 70.48499999999999 -0.714375) (size 0.635 1.905) (layers F.Cu F.Paste F.Mask))
(pad 138 smd rect (at 71.75499999999998 0.714375) (size 0.635 1.905) (layers F.Cu F.Paste F.Mask))
(pad 139 smd rect (at 73.02499999999998 -0.714375) (size 0.635 1.905) (layers F.Cu F.Paste F.Mask))
(pad 140 smd rect (at 74.29499999999997 0.714375) (size 0.635 1.905) (layers F.Cu F.Paste F.Mask))
(pad 141 smd rect (at 75.56499999999997 -0.714375) (size 0.635 1.905) (layers F.Cu F.Paste F.Mask))
(pad 142 smd rect (at 76.83499999999997 0.714375) (size 0.635 1.905) (layers F.Cu F.Paste F.Mask))
(pad 143 smd rect (at 78.10499999999996 -0.714375) (size 0.635 1.905) (layers F.Cu F.Paste F.Mask))
(pad 144 smd rect (at 79.37499999999996 0.714375) (size 0.635 1.905) (layers F.Cu F.Paste F.Mask))
(pad 145 smd rect (at 80.64499999999995 -0.714375) (size 0.635 1.905) (layers F.Cu F.Paste F.Mask))
(pad 146 smd rect (at 81.91499999999995 0.714375) (size 0.635 1.905) (layers F.Cu F.Paste F.Mask))
(pad 147 smd rect (at 83.18499999999995 -0.714375) (size 0.635 1.905) (layers F.Cu F.Paste F.Mask))
(pad 148 smd rect (at 84.45499999999994 0.714375) (size 0.635 1.905) (layers F.Cu F.Paste F.Mask))
(pad 149 smd rect (at 85.72499999999994 -0.714375) (size 0.635 1.905) (layers F.Cu F.Paste F.Mask))
(pad 150 smd rect (at 86.99499999999993 0.714375) (size 0.635 1.905) (layers F.Cu F.Paste F.Mask))
(pad 151 smd rect (at 88.26499999999993 -0.714375) (size 0.635 1.905) (layers F.Cu F.Paste F.Mask))
(pad 152 smd rect (at 89.53499999999993 0.714375) (size 0.635 1.905) (layers F.Cu F.Paste F.Mask))
(pad 153 smd rect (at 90.80499999999992 -0.714375) (size 0.635 1.905) (layers F.Cu F.Paste F.Mask))
(pad 154 smd rect (at 92.07499999999992 0.714375) (size 0.635 1.905) (layers F.Cu F.Paste F.Mask))
(pad 155 smd rect (at 93.34499999999991 -0.714375) (size 0.635 1.905) (layers F.Cu F.Paste F.Mask))
(pad 156 smd rect (at 94.61499999999991 0.714375) (size 0.635 1.905) (layers F.Cu F.Paste F.Mask))
(pad 157 smd rect (at 95.8849999999999 -0.714375) (size 0.635 1.905) (layers F.Cu F.Paste F.Mask))
(pad 158 smd rect (at 97.1549999999999 0.714375) (size 0.635 1.905) (layers F.Cu F.Paste F.Mask))
(pad 159 smd rect (at 98.4249999999999 -0.714375) (size 0.635 1.905) (layers F.Cu F.Paste F.Mask))
(pad 160 smd rect (at 99.6949999999999 0.714375) (size 0.635 1.905) (layers F.Cu F.Paste F.Mask))
(pad 161 smd rect (at 100.96499999999989 -0.714375) (size 0.635 1.905) (layers F.Cu F.Paste F.Mask))
(pad 162 smd rect (at 102.23499999999989 0.714375) (size 0.635 1.905) (layers F.Cu F.Paste F.Mask))
)

