(module "Pin_Header_Straight_1x184_PITCH_2.54_SMT" (layer F.Cu) (tedit 54E7ACBD)
(fp_text reference REF** (at 0 4) (layer F.SilkS)
  (effects (font (size 1.5 1.5) (thickness 0.15)))
)
(fp_text value "Pin_Header_Straight_1x184_PITCH_2.54_SMT" (at 0 -4) (layer F.Fab)
  (effects (font (size 1.5 1.5) (thickness 0.15)))
)
(pad 1 smd rect (at -232.41000000000003 -1.42875) (size 1.27 3.81) (layers F.Cu F.Paste F.Mask))
(pad 2 smd rect (at -229.87000000000003 1.42875) (size 1.27 3.81) (layers F.Cu F.Paste F.Mask))
(pad 3 smd rect (at -227.33000000000004 -1.42875) (size 1.27 3.81) (layers F.Cu F.Paste F.Mask))
(pad 4 smd rect (at -224.79000000000005 1.42875) (size 1.27 3.81) (layers F.Cu F.Paste F.Mask))
(pad 5 smd rect (at -222.25000000000006 -1.42875) (size 1.27 3.81) (layers F.Cu F.Paste F.Mask))
(pad 6 smd rect (at -219.71000000000006 1.42875) (size 1.27 3.81) (layers F.Cu F.Paste F.Mask))
(pad 7 smd rect (at -217.17000000000007 -1.42875) (size 1.27 3.81) (layers F.Cu F.Paste F.Mask))
(pad 8 smd rect (at -214.63000000000008 1.42875) (size 1.27 3.81) (layers F.Cu F.Paste F.Mask))
(pad 9 smd rect (at -212.0900000000001 -1.42875) (size 1.27 3.81) (layers F.Cu F.Paste F.Mask))
(pad 10 smd rect (at -209.5500000000001 1.42875) (size 1.27 3.81) (layers F.Cu F.Paste F.Mask))
(pad 11 smd rect (at -207.0100000000001 -1.42875) (size 1.27 3.81) (layers F.Cu F.Paste F.Mask))
(pad 12 smd rect (at -204.4700000000001 1.42875) (size 1.27 3.81) (layers F.Cu F.Paste F.Mask))
(pad 13 smd rect (at -201.93000000000012 -1.42875) (size 1.27 3.81) (layers F.Cu F.Paste F.Mask))
(pad 14 smd rect (at -199.39000000000013 1.42875) (size 1.27 3.81) (layers F.Cu F.Paste F.Mask))
(pad 15 smd rect (at -196.85000000000014 -1.42875) (size 1.27 3.81) (layers F.Cu F.Paste F.Mask))
(pad 16 smd rect (at -194.31000000000014 1.42875) (size 1.27 3.81) (layers F.Cu F.Paste F.Mask))
(pad 17 smd rect (at -191.77000000000015 -1.42875) (size 1.27 3.81) (layers F.Cu F.Paste F.Mask))
(pad 18 smd rect (at -189.23000000000016 1.42875) (size 1.27 3.81) (layers F.Cu F.Paste F.Mask))
(pad 19 smd rect (at -186.69000000000017 -1.42875) (size 1.27 3.81) (layers F.Cu F.Paste F.Mask))
(pad 20 smd rect (at -184.15000000000018 1.42875) (size 1.27 3.81) (layers F.Cu F.Paste F.Mask))
(pad 21 smd rect (at -181.61000000000018 -1.42875) (size 1.27 3.81) (layers F.Cu F.Paste F.Mask))
(pad 22 smd rect (at -179.0700000000002 1.42875) (size 1.27 3.81) (layers F.Cu F.Paste F.Mask))
(pad 23 smd rect (at -176.5300000000002 -1.42875) (size 1.27 3.81) (layers F.Cu F.Paste F.Mask))
(pad 24 smd rect (at -173.9900000000002 1.42875) (size 1.27 3.81) (layers F.Cu F.Paste F.Mask))
(pad 25 smd rect (at -171.45000000000022 -1.42875) (size 1.27 3.81) (layers F.Cu F.Paste F.Mask))
(pad 26 smd rect (at -168.91000000000022 1.42875) (size 1.27 3.81) (layers F.Cu F.Paste F.Mask))
(pad 27 smd rect (at -166.37000000000023 -1.42875) (size 1.27 3.81) (layers F.Cu F.Paste F.Mask))
(pad 28 smd rect (at -163.83000000000024 1.42875) (size 1.27 3.81) (layers F.Cu F.Paste F.Mask))
(pad 29 smd rect (at -161.29000000000025 -1.42875) (size 1.27 3.81) (layers F.Cu F.Paste F.Mask))
(pad 30 smd rect (at -158.75000000000026 1.42875) (size 1.27 3.81) (layers F.Cu F.Paste F.Mask))
(pad 31 smd rect (at -156.21000000000026 -1.42875) (size 1.27 3.81) (layers F.Cu F.Paste F.Mask))
(pad 32 smd rect (at -153.67000000000027 1.42875) (size 1.27 3.81) (layers F.Cu F.Paste F.Mask))
(pad 33 smd rect (at -151.13000000000028 -1.42875) (size 1.27 3.81) (layers F.Cu F.Paste F.Mask))
(pad 34 smd rect (at -148.5900000000003 1.42875) (size 1.27 3.81) (layers F.Cu F.Paste F.Mask))
(pad 35 smd rect (at -146.0500000000003 -1.42875) (size 1.27 3.81) (layers F.Cu F.Paste F.Mask))
(pad 36 smd rect (at -143.5100000000003 1.42875) (size 1.27 3.81) (layers F.Cu F.Paste F.Mask))
(pad 37 smd rect (at -140.9700000000003 -1.42875) (size 1.27 3.81) (layers F.Cu F.Paste F.Mask))
(pad 38 smd rect (at -138.43000000000032 1.42875) (size 1.27 3.81) (layers F.Cu F.Paste F.Mask))
(pad 39 smd rect (at -135.89000000000033 -1.42875) (size 1.27 3.81) (layers F.Cu F.Paste F.Mask))
(pad 40 smd rect (at -133.35000000000034 1.42875) (size 1.27 3.81) (layers F.Cu F.Paste F.Mask))
(pad 41 smd rect (at -130.81000000000034 -1.42875) (size 1.27 3.81) (layers F.Cu F.Paste F.Mask))
(pad 42 smd rect (at -128.27000000000035 1.42875) (size 1.27 3.81) (layers F.Cu F.Paste F.Mask))
(pad 43 smd rect (at -125.73000000000035 -1.42875) (size 1.27 3.81) (layers F.Cu F.Paste F.Mask))
(pad 44 smd rect (at -123.19000000000034 1.42875) (size 1.27 3.81) (layers F.Cu F.Paste F.Mask))
(pad 45 smd rect (at -120.65000000000033 -1.42875) (size 1.27 3.81) (layers F.Cu F.Paste F.Mask))
(pad 46 smd rect (at -118.11000000000033 1.42875) (size 1.27 3.81) (layers F.Cu F.Paste F.Mask))
(pad 47 smd rect (at -115.57000000000032 -1.42875) (size 1.27 3.81) (layers F.Cu F.Paste F.Mask))
(pad 48 smd rect (at -113.03000000000031 1.42875) (size 1.27 3.81) (layers F.Cu F.Paste F.Mask))
(pad 49 smd rect (at -110.49000000000031 -1.42875) (size 1.27 3.81) (layers F.Cu F.Paste F.Mask))
(pad 50 smd rect (at -107.9500000000003 1.42875) (size 1.27 3.81) (layers F.Cu F.Paste F.Mask))
(pad 51 smd rect (at -105.4100000000003 -1.42875) (size 1.27 3.81) (layers F.Cu F.Paste F.Mask))
(pad 52 smd rect (at -102.87000000000029 1.42875) (size 1.27 3.81) (layers F.Cu F.Paste F.Mask))
(pad 53 smd rect (at -100.33000000000028 -1.42875) (size 1.27 3.81) (layers F.Cu F.Paste F.Mask))
(pad 54 smd rect (at -97.79000000000028 1.42875) (size 1.27 3.81) (layers F.Cu F.Paste F.Mask))
(pad 55 smd rect (at -95.25000000000027 -1.42875) (size 1.27 3.81) (layers F.Cu F.Paste F.Mask))
(pad 56 smd rect (at -92.71000000000026 1.42875) (size 1.27 3.81) (layers F.Cu F.Paste F.Mask))
(pad 57 smd rect (at -90.17000000000026 -1.42875) (size 1.27 3.81) (layers F.Cu F.Paste F.Mask))
(pad 58 smd rect (at -87.63000000000025 1.42875) (size 1.27 3.81) (layers F.Cu F.Paste F.Mask))
(pad 59 smd rect (at -85.09000000000024 -1.42875) (size 1.27 3.81) (layers F.Cu F.Paste F.Mask))
(pad 60 smd rect (at -82.55000000000024 1.42875) (size 1.27 3.81) (layers F.Cu F.Paste F.Mask))
(pad 61 smd rect (at -80.01000000000023 -1.42875) (size 1.27 3.81) (layers F.Cu F.Paste F.Mask))
(pad 62 smd rect (at -77.47000000000023 1.42875) (size 1.27 3.81) (layers F.Cu F.Paste F.Mask))
(pad 63 smd rect (at -74.93000000000022 -1.42875) (size 1.27 3.81) (layers F.Cu F.Paste F.Mask))
(pad 64 smd rect (at -72.39000000000021 1.42875) (size 1.27 3.81) (layers F.Cu F.Paste F.Mask))
(pad 65 smd rect (at -69.85000000000021 -1.42875) (size 1.27 3.81) (layers F.Cu F.Paste F.Mask))
(pad 66 smd rect (at -67.3100000000002 1.42875) (size 1.27 3.81) (layers F.Cu F.Paste F.Mask))
(pad 67 smd rect (at -64.7700000000002 -1.42875) (size 1.27 3.81) (layers F.Cu F.Paste F.Mask))
(pad 68 smd rect (at -62.230000000000196 1.42875) (size 1.27 3.81) (layers F.Cu F.Paste F.Mask))
(pad 69 smd rect (at -59.6900000000002 -1.42875) (size 1.27 3.81) (layers F.Cu F.Paste F.Mask))
(pad 70 smd rect (at -57.1500000000002 1.42875) (size 1.27 3.81) (layers F.Cu F.Paste F.Mask))
(pad 71 smd rect (at -54.6100000000002 -1.42875) (size 1.27 3.81) (layers F.Cu F.Paste F.Mask))
(pad 72 smd rect (at -52.0700000000002 1.42875) (size 1.27 3.81) (layers F.Cu F.Paste F.Mask))
(pad 73 smd rect (at -49.5300000000002 -1.42875) (size 1.27 3.81) (layers F.Cu F.Paste F.Mask))
(pad 74 smd rect (at -46.9900000000002 1.42875) (size 1.27 3.81) (layers F.Cu F.Paste F.Mask))
(pad 75 smd rect (at -44.4500000000002 -1.42875) (size 1.27 3.81) (layers F.Cu F.Paste F.Mask))
(pad 76 smd rect (at -41.9100000000002 1.42875) (size 1.27 3.81) (layers F.Cu F.Paste F.Mask))
(pad 77 smd rect (at -39.3700000000002 -1.42875) (size 1.27 3.81) (layers F.Cu F.Paste F.Mask))
(pad 78 smd rect (at -36.830000000000204 1.42875) (size 1.27 3.81) (layers F.Cu F.Paste F.Mask))
(pad 79 smd rect (at -34.290000000000205 -1.42875) (size 1.27 3.81) (layers F.Cu F.Paste F.Mask))
(pad 80 smd rect (at -31.750000000000206 1.42875) (size 1.27 3.81) (layers F.Cu F.Paste F.Mask))
(pad 81 smd rect (at -29.210000000000207 -1.42875) (size 1.27 3.81) (layers F.Cu F.Paste F.Mask))
(pad 82 smd rect (at -26.670000000000208 1.42875) (size 1.27 3.81) (layers F.Cu F.Paste F.Mask))
(pad 83 smd rect (at -24.13000000000021 -1.42875) (size 1.27 3.81) (layers F.Cu F.Paste F.Mask))
(pad 84 smd rect (at -21.59000000000021 1.42875) (size 1.27 3.81) (layers F.Cu F.Paste F.Mask))
(pad 85 smd rect (at -19.05000000000021 -1.42875) (size 1.27 3.81) (layers F.Cu F.Paste F.Mask))
(pad 86 smd rect (at -16.51000000000021 1.42875) (size 1.27 3.81) (layers F.Cu F.Paste F.Mask))
(pad 87 smd rect (at -13.970000000000212 -1.42875) (size 1.27 3.81) (layers F.Cu F.Paste F.Mask))
(pad 88 smd rect (at -11.430000000000213 1.42875) (size 1.27 3.81) (layers F.Cu F.Paste F.Mask))
(pad 89 smd rect (at -8.890000000000214 -1.42875) (size 1.27 3.81) (layers F.Cu F.Paste F.Mask))
(pad 90 smd rect (at -6.350000000000214 1.42875) (size 1.27 3.81) (layers F.Cu F.Paste F.Mask))
(pad 91 smd rect (at -3.8100000000002137 -1.42875) (size 1.27 3.81) (layers F.Cu F.Paste F.Mask))
(pad 92 smd rect (at -1.2700000000002136 1.42875) (size 1.27 3.81) (layers F.Cu F.Paste F.Mask))
(pad 93 smd rect (at 1.2699999999997864 -1.42875) (size 1.27 3.81) (layers F.Cu F.Paste F.Mask))
(pad 94 smd rect (at 3.8099999999997864 1.42875) (size 1.27 3.81) (layers F.Cu F.Paste F.Mask))
(pad 95 smd rect (at 6.3499999999997865 -1.42875) (size 1.27 3.81) (layers F.Cu F.Paste F.Mask))
(pad 96 smd rect (at 8.889999999999787 1.42875) (size 1.27 3.81) (layers F.Cu F.Paste F.Mask))
(pad 97 smd rect (at 11.429999999999787 -1.42875) (size 1.27 3.81) (layers F.Cu F.Paste F.Mask))
(pad 98 smd rect (at 13.969999999999786 1.42875) (size 1.27 3.81) (layers F.Cu F.Paste F.Mask))
(pad 99 smd rect (at 16.509999999999785 -1.42875) (size 1.27 3.81) (layers F.Cu F.Paste F.Mask))
(pad 100 smd rect (at 19.049999999999784 1.42875) (size 1.27 3.81) (layers F.Cu F.Paste F.Mask))
(pad 101 smd rect (at 21.589999999999783 -1.42875) (size 1.27 3.81) (layers F.Cu F.Paste F.Mask))
(pad 102 smd rect (at 24.129999999999782 1.42875) (size 1.27 3.81) (layers F.Cu F.Paste F.Mask))
(pad 103 smd rect (at 26.66999999999978 -1.42875) (size 1.27 3.81) (layers F.Cu F.Paste F.Mask))
(pad 104 smd rect (at 29.20999999999978 1.42875) (size 1.27 3.81) (layers F.Cu F.Paste F.Mask))
(pad 105 smd rect (at 31.74999999999978 -1.42875) (size 1.27 3.81) (layers F.Cu F.Paste F.Mask))
(pad 106 smd rect (at 34.28999999999978 1.42875) (size 1.27 3.81) (layers F.Cu F.Paste F.Mask))
(pad 107 smd rect (at 36.82999999999978 -1.42875) (size 1.27 3.81) (layers F.Cu F.Paste F.Mask))
(pad 108 smd rect (at 39.36999999999978 1.42875) (size 1.27 3.81) (layers F.Cu F.Paste F.Mask))
(pad 109 smd rect (at 41.909999999999776 -1.42875) (size 1.27 3.81) (layers F.Cu F.Paste F.Mask))
(pad 110 smd rect (at 44.449999999999775 1.42875) (size 1.27 3.81) (layers F.Cu F.Paste F.Mask))
(pad 111 smd rect (at 46.989999999999775 -1.42875) (size 1.27 3.81) (layers F.Cu F.Paste F.Mask))
(pad 112 smd rect (at 49.529999999999774 1.42875) (size 1.27 3.81) (layers F.Cu F.Paste F.Mask))
(pad 113 smd rect (at 52.06999999999977 -1.42875) (size 1.27 3.81) (layers F.Cu F.Paste F.Mask))
(pad 114 smd rect (at 54.60999999999977 1.42875) (size 1.27 3.81) (layers F.Cu F.Paste F.Mask))
(pad 115 smd rect (at 57.14999999999977 -1.42875) (size 1.27 3.81) (layers F.Cu F.Paste F.Mask))
(pad 116 smd rect (at 59.68999999999977 1.42875) (size 1.27 3.81) (layers F.Cu F.Paste F.Mask))
(pad 117 smd rect (at 62.22999999999977 -1.42875) (size 1.27 3.81) (layers F.Cu F.Paste F.Mask))
(pad 118 smd rect (at 64.76999999999977 1.42875) (size 1.27 3.81) (layers F.Cu F.Paste F.Mask))
(pad 119 smd rect (at 67.30999999999977 -1.42875) (size 1.27 3.81) (layers F.Cu F.Paste F.Mask))
(pad 120 smd rect (at 69.84999999999978 1.42875) (size 1.27 3.81) (layers F.Cu F.Paste F.Mask))
(pad 121 smd rect (at 72.38999999999979 -1.42875) (size 1.27 3.81) (layers F.Cu F.Paste F.Mask))
(pad 122 smd rect (at 74.9299999999998 1.42875) (size 1.27 3.81) (layers F.Cu F.Paste F.Mask))
(pad 123 smd rect (at 77.4699999999998 -1.42875) (size 1.27 3.81) (layers F.Cu F.Paste F.Mask))
(pad 124 smd rect (at 80.0099999999998 1.42875) (size 1.27 3.81) (layers F.Cu F.Paste F.Mask))
(pad 125 smd rect (at 82.54999999999981 -1.42875) (size 1.27 3.81) (layers F.Cu F.Paste F.Mask))
(pad 126 smd rect (at 85.08999999999982 1.42875) (size 1.27 3.81) (layers F.Cu F.Paste F.Mask))
(pad 127 smd rect (at 87.62999999999982 -1.42875) (size 1.27 3.81) (layers F.Cu F.Paste F.Mask))
(pad 128 smd rect (at 90.16999999999983 1.42875) (size 1.27 3.81) (layers F.Cu F.Paste F.Mask))
(pad 129 smd rect (at 92.70999999999984 -1.42875) (size 1.27 3.81) (layers F.Cu F.Paste F.Mask))
(pad 130 smd rect (at 95.24999999999984 1.42875) (size 1.27 3.81) (layers F.Cu F.Paste F.Mask))
(pad 131 smd rect (at 97.78999999999985 -1.42875) (size 1.27 3.81) (layers F.Cu F.Paste F.Mask))
(pad 132 smd rect (at 100.32999999999986 1.42875) (size 1.27 3.81) (layers F.Cu F.Paste F.Mask))
(pad 133 smd rect (at 102.86999999999986 -1.42875) (size 1.27 3.81) (layers F.Cu F.Paste F.Mask))
(pad 134 smd rect (at 105.40999999999987 1.42875) (size 1.27 3.81) (layers F.Cu F.Paste F.Mask))
(pad 135 smd rect (at 107.94999999999987 -1.42875) (size 1.27 3.81) (layers F.Cu F.Paste F.Mask))
(pad 136 smd rect (at 110.48999999999988 1.42875) (size 1.27 3.81) (layers F.Cu F.Paste F.Mask))
(pad 137 smd rect (at 113.02999999999989 -1.42875) (size 1.27 3.81) (layers F.Cu F.Paste F.Mask))
(pad 138 smd rect (at 115.5699999999999 1.42875) (size 1.27 3.81) (layers F.Cu F.Paste F.Mask))
(pad 139 smd rect (at 118.1099999999999 -1.42875) (size 1.27 3.81) (layers F.Cu F.Paste F.Mask))
(pad 140 smd rect (at 120.6499999999999 1.42875) (size 1.27 3.81) (layers F.Cu F.Paste F.Mask))
(pad 141 smd rect (at 123.18999999999991 -1.42875) (size 1.27 3.81) (layers F.Cu F.Paste F.Mask))
(pad 142 smd rect (at 125.72999999999992 1.42875) (size 1.27 3.81) (layers F.Cu F.Paste F.Mask))
(pad 143 smd rect (at 128.26999999999992 -1.42875) (size 1.27 3.81) (layers F.Cu F.Paste F.Mask))
(pad 144 smd rect (at 130.80999999999992 1.42875) (size 1.27 3.81) (layers F.Cu F.Paste F.Mask))
(pad 145 smd rect (at 133.3499999999999 -1.42875) (size 1.27 3.81) (layers F.Cu F.Paste F.Mask))
(pad 146 smd rect (at 135.8899999999999 1.42875) (size 1.27 3.81) (layers F.Cu F.Paste F.Mask))
(pad 147 smd rect (at 138.4299999999999 -1.42875) (size 1.27 3.81) (layers F.Cu F.Paste F.Mask))
(pad 148 smd rect (at 140.96999999999989 1.42875) (size 1.27 3.81) (layers F.Cu F.Paste F.Mask))
(pad 149 smd rect (at 143.50999999999988 -1.42875) (size 1.27 3.81) (layers F.Cu F.Paste F.Mask))
(pad 150 smd rect (at 146.04999999999987 1.42875) (size 1.27 3.81) (layers F.Cu F.Paste F.Mask))
(pad 151 smd rect (at 148.58999999999986 -1.42875) (size 1.27 3.81) (layers F.Cu F.Paste F.Mask))
(pad 152 smd rect (at 151.12999999999985 1.42875) (size 1.27 3.81) (layers F.Cu F.Paste F.Mask))
(pad 153 smd rect (at 153.66999999999985 -1.42875) (size 1.27 3.81) (layers F.Cu F.Paste F.Mask))
(pad 154 smd rect (at 156.20999999999984 1.42875) (size 1.27 3.81) (layers F.Cu F.Paste F.Mask))
(pad 155 smd rect (at 158.74999999999983 -1.42875) (size 1.27 3.81) (layers F.Cu F.Paste F.Mask))
(pad 156 smd rect (at 161.28999999999982 1.42875) (size 1.27 3.81) (layers F.Cu F.Paste F.Mask))
(pad 157 smd rect (at 163.8299999999998 -1.42875) (size 1.27 3.81) (layers F.Cu F.Paste F.Mask))
(pad 158 smd rect (at 166.3699999999998 1.42875) (size 1.27 3.81) (layers F.Cu F.Paste F.Mask))
(pad 159 smd rect (at 168.9099999999998 -1.42875) (size 1.27 3.81) (layers F.Cu F.Paste F.Mask))
(pad 160 smd rect (at 171.4499999999998 1.42875) (size 1.27 3.81) (layers F.Cu F.Paste F.Mask))
(pad 161 smd rect (at 173.98999999999978 -1.42875) (size 1.27 3.81) (layers F.Cu F.Paste F.Mask))
(pad 162 smd rect (at 176.52999999999977 1.42875) (size 1.27 3.81) (layers F.Cu F.Paste F.Mask))
(pad 163 smd rect (at 179.06999999999977 -1.42875) (size 1.27 3.81) (layers F.Cu F.Paste F.Mask))
(pad 164 smd rect (at 181.60999999999976 1.42875) (size 1.27 3.81) (layers F.Cu F.Paste F.Mask))
(pad 165 smd rect (at 184.14999999999975 -1.42875) (size 1.27 3.81) (layers F.Cu F.Paste F.Mask))
(pad 166 smd rect (at 186.68999999999974 1.42875) (size 1.27 3.81) (layers F.Cu F.Paste F.Mask))
(pad 167 smd rect (at 189.22999999999973 -1.42875) (size 1.27 3.81) (layers F.Cu F.Paste F.Mask))
(pad 168 smd rect (at 191.76999999999973 1.42875) (size 1.27 3.81) (layers F.Cu F.Paste F.Mask))
(pad 169 smd rect (at 194.30999999999972 -1.42875) (size 1.27 3.81) (layers F.Cu F.Paste F.Mask))
(pad 170 smd rect (at 196.8499999999997 1.42875) (size 1.27 3.81) (layers F.Cu F.Paste F.Mask))
(pad 171 smd rect (at 199.3899999999997 -1.42875) (size 1.27 3.81) (layers F.Cu F.Paste F.Mask))
(pad 172 smd rect (at 201.9299999999997 1.42875) (size 1.27 3.81) (layers F.Cu F.Paste F.Mask))
(pad 173 smd rect (at 204.4699999999997 -1.42875) (size 1.27 3.81) (layers F.Cu F.Paste F.Mask))
(pad 174 smd rect (at 207.00999999999968 1.42875) (size 1.27 3.81) (layers F.Cu F.Paste F.Mask))
(pad 175 smd rect (at 209.54999999999967 -1.42875) (size 1.27 3.81) (layers F.Cu F.Paste F.Mask))
(pad 176 smd rect (at 212.08999999999966 1.42875) (size 1.27 3.81) (layers F.Cu F.Paste F.Mask))
(pad 177 smd rect (at 214.62999999999965 -1.42875) (size 1.27 3.81) (layers F.Cu F.Paste F.Mask))
(pad 178 smd rect (at 217.16999999999965 1.42875) (size 1.27 3.81) (layers F.Cu F.Paste F.Mask))
(pad 179 smd rect (at 219.70999999999964 -1.42875) (size 1.27 3.81) (layers F.Cu F.Paste F.Mask))
(pad 180 smd rect (at 222.24999999999963 1.42875) (size 1.27 3.81) (layers F.Cu F.Paste F.Mask))
(pad 181 smd rect (at 224.78999999999962 -1.42875) (size 1.27 3.81) (layers F.Cu F.Paste F.Mask))
(pad 182 smd rect (at 227.32999999999961 1.42875) (size 1.27 3.81) (layers F.Cu F.Paste F.Mask))
(pad 183 smd rect (at 229.8699999999996 -1.42875) (size 1.27 3.81) (layers F.Cu F.Paste F.Mask))
(pad 184 smd rect (at 232.4099999999996 1.42875) (size 1.27 3.81) (layers F.Cu F.Paste F.Mask))
)

