(module A100799TR-ND (layer F.Cu) (tedit 56ED898B)
  (fp_text reference REF** (at 0 -1.27) (layer F.SilkS)
    (effects (font (size 1 1) (thickness 0.15)))
  )
  (fp_text value A100799TR-ND (at 0 -0.5) (layer F.Fab)
    (effects (font (size 1 1) (thickness 0.15)))
  )
  (pad 1 thru_hole circle (at -2.54 0) (size 2.55 2.55) (drill 1.7) (layers *.Cu *.Mask F.SilkS))
  (pad 1 thru_hole circle (at 2.54 0) (size 2.55 2.55) (drill 1.7) (layers *.Cu *.Mask F.SilkS))
)
