PCBNEW-LibModule-V1  
# encoding utf-8
Units mm
$INDEX
B2P-VH
$EndINDEX
$MODULE B2P-VH
Po 0 0 0 15 00000000 00000000 ~~
Li B2P-VH
Cd 
Sc 00000000
At STD
Op 0 0 0
.SolderMask 0.1
.SolderPaste 0
T0 -1.21 -6.135 1 1 0 0.05 N V 21 "B2P-VH"
T1 0.425 5.865 1 1 0 0.05 N V 21 "VAL**"
DS 5 4.7 -5 4.7 0.2032 21
DS -5 4.7 -5 -5 0.2032 21
DS 5 -5 5 4.7 0.2032 21
DS 5 -5 -5 -5 0.2032 21
DC -1.905 -1.905 -1.778 -1.905 0.127 21
$PAD
Sh "1" C 2.55 2.55 0 0 0
Dr 1.7 0 0
At STD N 00E0FFFF
.SolderMask 0.2
Ne 0 ""
Po -2 0
$EndPAD
$PAD
Sh "2" C 2.55 2.55 0 0 0
Dr 1.7 0 0
At STD N 00E0FFFF
.SolderMask 0.2
Ne 0 ""
Po 2 0
$EndPAD
$EndMODULE B2P-VH
