(module GP1S094HCZ0F (layer F.Cu) (tedit 56BE06C7)
  (fp_text reference REF** (at 0.635 3.175) (layer F.SilkS)
    (effects (font (size 1 1) (thickness 0.15)))
  )
  (fp_text value GP1S094HCZ0F (at 0 -3.81) (layer F.Fab)
    (effects (font (size 1 1) (thickness 0.15)))
  )
  (fp_line (start 2.75 1.3) (end -2.75 1.3) (layer F.SilkS) (width 0.15))
  (fp_line (start 2.75 -1.3) (end 2.75 1.3) (layer F.SilkS) (width 0.15))
  (fp_line (start -2.75 -1.3) (end 2.75 -1.3) (layer F.SilkS) (width 0.15))
  (fp_line (start -2.75 -1.3) (end -2.75 1.3) (layer F.SilkS) (width 0.15))
  (pad 1 thru_hole circle (at 2.275 1) (size 1.4 1.4) (drill 0.762) (layers *.Cu *.Mask F.SilkS))
  (pad 2 thru_hole circle (at -2.275 1) (size 1.4 1.4) (drill 0.762) (layers *.Cu *.Mask F.SilkS))
  (pad 3 thru_hole circle (at -2.275 -1) (size 1.4 1.4) (drill 0.762) (layers *.Cu *.Mask F.SilkS))
  (pad 4 thru_hole circle (at 2.275 -1) (size 1.4 1.4) (drill 0.762) (layers *.Cu *.Mask F.SilkS))
  (pad "" thru_hole circle (at 0 -0.75) (size 1.1 1.1) (drill 1.1) (layers *.Cu F.SilkS))
)
