(module IDC_BOXHEADER_100in6POS (layer F.Cu) (tedit 571A3A6F)
  (descr CONNECTOR)
  (tags CONNECTOR)
  (attr virtual)
  (fp_text reference REF** (at -12.7 -5.08) (layer F.SilkS)
    (effects (font (size 1 1) (thickness 0.15)))
  )
  (fp_text value "IDC BOX HEADER .100in 6POS" (at -5.08 6.35) (layer F.Fab)
    (effects (font (size 1 1) (thickness 0.15)))
  )
  (fp_line (start 0.635 3.81) (end -5.08 3.81) (layer F.SilkS) (width 0.15))
  (fp_line (start 0.635 3.81) (end 1.27 4.445) (layer F.SilkS) (width 0.15))
  (fp_line (start 0.635 -3.81) (end 1.27 -4.445) (layer F.SilkS) (width 0.15))
  (fp_line (start -13.335 -3.81) (end -13.97 -4.445) (layer F.SilkS) (width 0.15))
  (fp_line (start 0.635 3.81) (end 0.635 -3.81) (layer F.SilkS) (width 0.15))
  (fp_line (start 0.635 -3.81) (end -13.335 -3.81) (layer F.SilkS) (width 0.15))
  (fp_line (start -13.335 -3.81) (end -13.335 3.81) (layer F.SilkS) (width 0.15))
  (fp_line (start -13.335 3.81) (end -13.97 4.445) (layer F.SilkS) (width 0.15))
  (fp_line (start -13.335 3.81) (end -7.62 3.81) (layer F.SilkS) (width 0.15))
  (fp_line (start 1.27 4.445) (end -13.97 4.445) (layer F.SilkS) (width 0.15))
  (fp_line (start -13.97 -4.445) (end 1.27 -4.445) (layer F.SilkS) (width 0.15))
  (fp_line (start -13.97 -4.445) (end -13.97 4.445) (layer F.SilkS) (width 0.15))
  (fp_line (start 1.27 -4.445) (end 1.27 4.445) (layer F.SilkS) (width 0.15))
  (fp_line (start -11.30808 1.9685) (end -10.60958 3.03784) (layer F.SilkS) (width 0.15))
  (fp_line (start -10.60958 3.03784) (end -9.90854 1.9685) (layer F.SilkS) (width 0.15))
  (fp_line (start -9.90854 1.9685) (end -11.30808 1.9685) (layer F.SilkS) (width 0.15))
  (pad 1 smd oval (at -8.89 3.175) (size 0.89 4.8) (layers F.Cu F.Paste F.Mask))
  (pad 2 smd oval (at -8.89 -3.025) (size 0.89 4.8) (layers F.Cu F.Paste F.Mask))
  (pad 3 smd oval (at -6.35 3.175) (size 0.89 4.8) (layers F.Cu F.Paste F.Mask))
  (pad 4 smd oval (at -6.35 -3.025) (size 0.89 4.8) (layers F.Cu F.Paste F.Mask))
  (pad 5 smd oval (at -3.81 3.175) (size 0.89 4.8) (layers F.Cu F.Paste F.Mask))
  (pad 6 smd oval (at -3.81 -3.025) (size 0.89 4.8) (layers F.Cu F.Paste F.Mask))
)
