(module LED4-1.3-D5.0MM_RABG (layer F.Cu) (tedit 56ADF92E)
  (fp_text reference >NAME (at -2 -3) (layer F.SilkS)
    (effects (font (size 1.2065 1.2065) (thickness 0.1016)) (justify left bottom))
  )
  (fp_text value >VALUE (at -2 5) (layer F.SilkS)
    (effects (font (size 1.2065 1.2065) (thickness 0.1016)) (justify left bottom))
  )
  (fp_circle (center 0 0) (end 2.5 0) (layer F.SilkS) (width 0.127))
  (fp_line (start 2.5 1.6) (end 2.5 -1.5) (layer F.SilkS) (width 0.127))
  (fp_arc (start 0 0) (end 0 -2.9) (angle -90) (layer F.SilkS) (width 0.127))
  (fp_arc (start 0 0) (end -2.9 0) (angle -90) (layer F.SilkS) (width 0.127))
  (fp_arc (start 0 -0.153846) (end 0 2.9) (angle -54.948852) (layer F.SilkS) (width 0.127))
  (fp_arc (start 0 0.032143) (end 0 -2.9) (angle 58.497638) (layer F.SilkS) (width 0.127))
  (fp_circle (center 0 0) (end 2.828425 0) (layer Cmts.User) (width 0))
  (pad A thru_hole rect (at 0.65 0) (size 1 1) (drill 0.7) (layers *.Cu *.Mask))
  (pad R thru_hole circle (at 1.95 0) (size 1 1) (drill 0.7) (layers *.Cu *.Mask))
  (pad B thru_hole circle (at -0.65 0) (size 1 1) (drill 0.7) (layers *.Cu *.Mask))
  (pad G thru_hole circle (at -1.95 0) (size 1 1) (drill 0.7) (layers *.Cu *.Mask))
)
