(module Solder_Jumper_2_S (layer F.Cu) (tedit 54EA5D6D)
  (fp_text reference REF** (at 0 3) (layer F.SilkS)
    (effects (font (size 1.5 1.5) (thickness 0.15)))
  )
  (fp_text value "Solder Jumper 2 S" (at 0 -3) (layer F.Fab)
    (effects (font (size 1.5 1.5) (thickness 0.15)))
  )
  (pad 1 smd rect (at -0.7 0) (size 1 1.5) (layers F.Cu F.Paste F.Mask))
  (pad 2 smd rect (at 0.7 0) (size 1 1.5) (layers F.Cu F.Paste F.Mask))
)
