(module SPADE_CONNECTOR_6.35mmx0.81mm (layer F.Cu) (tedit 56ED8D51)
  (fp_text reference REF** (at 0.635 -1.905) (layer F.SilkS)
    (effects (font (size 1 1) (thickness 0.15)))
  )
  (fp_text value PWR_CON (at 0 2.54) (layer F.Fab)
    (effects (font (size 1 1) (thickness 0.15)))
  )
  (fp_line (start -19.685 0.8) (end -19.685 -0.8) (layer F.SilkS) (width 0.3))
  (fp_line (start -19.685 0.8) (end 5.315 0.8) (layer F.SilkS) (width 0.3))
  (fp_line (start 5.315 -0.8) (end 5.315 0.8) (layer F.SilkS) (width 0.3))
  (fp_line (start -19.685 -0.8) (end 5.315 -0.8) (layer F.SilkS) (width 0.3))
  (pad 1 thru_hole circle (at -2.54 0) (size 2.55 2.55) (drill 1.7) (layers *.Cu *.Mask F.SilkS))
  (pad 1 thru_hole circle (at 2.54 0) (size 2.55 2.55) (drill 1.7) (layers *.Cu *.Mask F.SilkS))
)
